{
  "name": "PurchaseBudgetCostAmount_LYMTD_PB",
  "description": "Budgeted Cost Amount Purchase. NAV: Purchase > Analysis & Reporting > Purchase Budget > Edit Budget > Budgeted Cost Amount",
  "expression": [
    "VAR LYMTD =",
    "    FILTER (",
    "        ALL ( 'Date' ),",
    "        'Date'[Date] <= MAX ( 'Date'[TDatePY] )",
    "            && 'Date'[CMonthNo] = MAX ( 'Date'[CMonthNo] )",
    "            && 'Date'[CYearNo]",
    "                = MAX ( 'Date'[CYearNo] ) - 1",
    "    )",
    "RETURN",
    "    CALCULATE ( [PurchaseBudgetCostAmount_PB], LYMTD )"
  ],
  "formatString": "#,##0.00",
  "displayFolder": "Σ LYMTD",
  "annotations": [
    {
      "name": "TabularEditor_TranslatedNames",
      "value": "{\"de-DE\":\"Einkaufsbudget Einstandsbetrag LYMTD\",\"en-US\":\"Budgeted Cost Amount LYMTD\",\"nl-NL\":\"Budget kosten LYMTD\"}"
    },
    {
      "name": "TabularEditor_TranslatedDescriptions",
      "value": "{\"de-DE\":\"Abteilungen/Einkauf/Berichte und Analysen/Einkaufsbudgets/Budget bearbeiten\",\"en-US\":\"Budgeted Cost Amount Purchase. NAV: Purchase > Analysis & Reporting > Purchase Budget > Edit Budget > Budgeted Cost Amount\",\"nl-NL\":\"Gebudgetteerde kosten inkoop. NAV: Inkoop > Analyse en rapportage > Inkoopbudget > Budget Bewerken > Totale kosten (budget)\"}"
    },
    {
      "name": "TabularEditor_TranslatedDisplayFolders",
      "value": "{\"de-DE\":\"Σ LYMTD\",\"en-US\":\"Σ LYMTD\",\"nl-NL\":\"Σ LYMTD\"}"
    }
  ]
}