{
  "name": "PurchaseBudgetPurchaseAmount_Variance%_YTD_PB",
  "description": "Budgeted Cost Amount vs Invoiced Amount Variance / Purchase Amount",
  "expression": [
    "VAR YTD0 =",
    "    FILTER (",
    "        ALL ( 'Date' ),",
    "        'Date'[CYearNo] = MAX ( 'Date'[CYearNo] )",
    "            && 'Date'[DateID] <= MAX ( 'Date'[DateID] )",
    "    )",
    "RETURN",
    "    CALCULATE ( [PurchaseBudgetPurchaseAmount_Variance%_PB], YTD0 )"
  ],
  "formatString": "#,##0.0 %",
  "displayFolder": "Σ YTD",
  "annotations": [
    {
      "name": "TabularEditor_TranslatedNames",
      "value": "{\"de-DE\":\"Einkaufsbudget Einkaufsmenge Varianz % YTD\",\"en-US\":\"Budgeted Cost Amount vs Invoiced Amount Variance % YTD\",\"nl-NL\":\"Budget kosten tov gefactureerd bedrag verschil % YTD\"}"
    },
    {
      "name": "TabularEditor_TranslatedDescriptions",
      "value": "{\"de-DE\":\"Abteilungen/Einkauf/Berichte und Analysen/Einkaufsbudgets/Budget bearbeiten\",\"en-US\":\"Budgeted Cost Amount vs Invoiced Amount Variance / Purchase Amount\",\"nl-NL\":\"Budget kosten tov Gefactureerd bedrag Verschil / Inkoopbedrag\"}"
    },
    {
      "name": "TabularEditor_TranslatedDisplayFolders",
      "value": "{\"de-DE\":\"Σ YTD\",\"en-US\":\"Σ YTD\",\"nl-NL\":\"Σ YTD\"}"
    }
  ]
}