{
  "name": "InvoicedQuantity_PS",
  "description": "Purchase > Order Processing > Purchase Orders > Quantity Invoiced",
  "expression": "SUM ( 'factPurchaseShipment'[InvoicedQuantity] )",
  "formatString": "#,##0",
  "annotations": [
    {
      "name": "TabularEditor_TranslatedNames",
      "value": "{\"de-DE\":\"Fakturierte Menge\",\"en-US\":\"Quantity Invoiced\",\"nl-NL\":\"Gefactureerd aantal\"}"
    },
    {
      "name": "TabularEditor_TranslatedDescriptions",
      "value": "{\"de-DE\":\"Abteilungen/Einkauf/Bestellungsabwicklung/Bestellungen\",\"en-US\":\"Purchase > Order Processing > Purchase Orders > Quantity Invoiced\",\"nl-NL\":\"Inkoop > Orderverwerking > Inkooporders > Gefactureerd aantal \"}"
    }
  ]
}