{
  "name": "ShippedGrossWeight_LYTD_PS",
  "description": "Purchase > Order Processing > Purchase Orders > Quantity received multiplied by Gross Weight (Item Basic Data)",
  "expression": [
    "VAR LYTD =",
    "    FILTER (",
    "        ALL ( 'Date' ),",
    "        'Date'[CYearNo]",
    "            = MAX ( 'Date'[CYearNo] ) - 1",
    "            && 'Date'[Date] <= MAX ( 'Date'[TDatePY] )",
    "    )",
    "RETURN",
    "    CALCULATE ( [ShippedGrossWeight_PS], LYTD )"
  ],
  "formatString": "#,##0",
  "displayFolder": "Σ LYTD",
  "annotations": [
    {
      "name": "TabularEditor_TranslatedNames",
      "value": "{\"de-DE\":\"Bruttogewicht geliefert LYTD\",\"en-US\":\"Shipped Gross Weight LYTD\",\"nl-NL\":\"Ontvangen bruto gewicht LYTD\"}"
    },
    {
      "name": "TabularEditor_TranslatedDescriptions",
      "value": "{\"de-DE\":\"Abteilungen/Einkauf/Bestellungsabwicklung/Bestellungen\",\"en-US\":\"Purchase > Order Processing > Purchase Orders > Quantity received multiplied by Gross Weight (Item Basic Data)\",\"nl-NL\":\"Inkoop > Orderverwerking > Inkooporders > Ontvangen aantal * Bruto Gewicht (artikelstam)\"}"
    },
    {
      "name": "TabularEditor_TranslatedDisplayFolders",
      "value": "{\"de-DE\":\"Σ LYTD\",\"en-US\":\"Σ LYTD\",\"nl-NL\":\"Σ LYTD\"}"
    }
  ]
}