{
  "name": "ShippedQuantity_Variance_PS",
  "description": "Purchase > Order Processing > Purchase Orders > Quantity received",
  "expression": "[ShippedQuantity_YTD_PS] - [ShippedQuantity_LYTD_PS]",
  "formatString": "#,##0",
  "displayFolder": "Σ LYTD Variance",
  "annotations": [
    {
      "name": "TabularEditor_TranslatedNames",
      "value": "{\"de-DE\":\"Menge geliefert Varianz\",\"en-US\":\"Quantity received Variance\",\"nl-NL\":\"Ontvangen aantal verschil\"}"
    },
    {
      "name": "TabularEditor_TranslatedDescriptions",
      "value": "{\"de-DE\":\"Abteilungen/Einkauf/Bestellungsabwicklung/Bestellungen\",\"en-US\":\"Purchase > Order Processing > Purchase Orders > Quantity received\",\"nl-NL\":\"Inkoop > Orderverwerking > Inkooporders > Ontvangen aantal \"}"
    },
    {
      "name": "TabularEditor_TranslatedDisplayFolders",
      "value": "{\"de-DE\":\"Σ LYTD Varianz\",\"en-US\":\"Σ LYTD Variance\"}"
    }
  ]
}