{
  "base_name": "PurchaseBudget",
  "category": "fact",
  "database_object": {
    "table_identifier": "fact.PurchaseBudget",
    "columns": [
      {
        "column_name": "ExecutionTimestamp",
        "data_type": "timestamp",
        "character_maximum_length": null,
        "numeric_precision": null,
        "numeric_scale": null,
        "nullable": false,
        "business_key": false
      },
      {
        "column_name": "ComponentExecutionID",
        "data_type": "int",
        "character_maximum_length": null,
        "numeric_precision": 10,
        "numeric_scale": 0,
        "nullable": false,
        "business_key": false
      },
      {
        "column_name": "ExecutionFlag",
        "data_type": "nvarchar",
        "character_maximum_length": 10,
        "numeric_precision": null,
        "numeric_scale": null,
        "nullable": false,
        "business_key": false
      },
      {
        "column_name": "EntryNo",
        "data_type": "int",
        "character_maximum_length": null,
        "numeric_precision": 10,
        "numeric_scale": 0,
        "nullable": true,
        "business_key": false
      },
      {
        "column_name": "FinancialDimension1ID",
        "data_type": "int",
        "character_maximum_length": null,
        "numeric_precision": 10,
        "numeric_scale": 0,
        "nullable": true,
        "business_key": false
      },
      {
        "column_name": "FinancialDimension2ID",
        "data_type": "int",
        "character_maximum_length": null,
        "numeric_precision": 10,
        "numeric_scale": 0,
        "nullable": true,
        "business_key": false
      },
      {
        "column_name": "FinancialDimension3ID",
        "data_type": "int",
        "character_maximum_length": null,
        "numeric_precision": 10,
        "numeric_scale": 0,
        "nullable": true,
        "business_key": false
      },
      {
        "column_name": "FinancialDimension4ID",
        "data_type": "int",
        "character_maximum_length": null,
        "numeric_precision": 10,
        "numeric_scale": 0,
        "nullable": true,
        "business_key": false
      },
      {
        "column_name": "FinancialDimension5ID",
        "data_type": "int",
        "character_maximum_length": null,
        "numeric_precision": 10,
        "numeric_scale": 0,
        "nullable": true,
        "business_key": false
      },
      {
        "column_name": "FinancialDimension6ID",
        "data_type": "int",
        "character_maximum_length": null,
        "numeric_precision": 10,
        "numeric_scale": 0,
        "nullable": true,
        "business_key": false
      },
      {
        "column_name": "FinancialDimension7ID",
        "data_type": "int",
        "character_maximum_length": null,
        "numeric_precision": 10,
        "numeric_scale": 0,
        "nullable": true,
        "business_key": false
      },
      {
        "column_name": "FinancialDimension8ID",
        "data_type": "int",
        "character_maximum_length": null,
        "numeric_precision": 10,
        "numeric_scale": 0,
        "nullable": true,
        "business_key": false
      },
      {
        "column_name": "StageID",
        "data_type": "int",
        "character_maximum_length": null,
        "numeric_precision": 10,
        "numeric_scale": 0,
        "nullable": false,
        "business_key": false
      },
      {
        "column_name": "CompanyID",
        "data_type": "int",
        "character_maximum_length": null,
        "numeric_precision": 10,
        "numeric_scale": 0,
        "nullable": false,
        "business_key": false
      },
      {
        "column_name": "DataConnectionID",
        "data_type": "int",
        "character_maximum_length": null,
        "numeric_precision": 10,
        "numeric_scale": 0,
        "nullable": false,
        "business_key": false
      },
      {
        "column_name": "DateID",
        "data_type": "int",
        "character_maximum_length": null,
        "numeric_precision": 10,
        "numeric_scale": 0,
        "nullable": false,
        "business_key": false
      },
      {
        "column_name": "PurchaseBudgetDateID",
        "data_type": "int",
        "character_maximum_length": null,
        "numeric_precision": 10,
        "numeric_scale": 0,
        "nullable": false,
        "business_key": false
      },
      {
        "column_name": "ItemID",
        "data_type": "int",
        "character_maximum_length": null,
        "numeric_precision": 10,
        "numeric_scale": 0,
        "nullable": false,
        "business_key": false
      },
      {
        "column_name": "LocationID",
        "data_type": "int",
        "character_maximum_length": null,
        "numeric_precision": 10,
        "numeric_scale": 0,
        "nullable": false,
        "business_key": false
      },
      {
        "column_name": "PurchaseBudgetID",
        "data_type": "int",
        "character_maximum_length": null,
        "numeric_precision": 10,
        "numeric_scale": 0,
        "nullable": false,
        "business_key": false
      },
      {
        "column_name": "PurchaseBudgetCostAmount_LCY",
        "data_type": "decimal",
        "character_maximum_length": null,
        "numeric_precision": 19,
        "numeric_scale": 4,
        "nullable": true,
        "business_key": false
      },
      {
        "column_name": "PurchaseBudgetQuantity",
        "data_type": "decimal",
        "character_maximum_length": null,
        "numeric_precision": 19,
        "numeric_scale": 4,
        "nullable": true,
        "business_key": false
      },
      {
        "column_name": "PurchaseBudgetCostAmount_RCY",
        "data_type": "decimal",
        "character_maximum_length": null,
        "numeric_precision": 19,
        "numeric_scale": 4,
        "nullable": true,
        "business_key": false
      }
    ],
    "indexes": []
  },
  "load_procedures": [],
  "views": null,
  "queries": [
    {
      "name": "default",
      "select_file_path": "default.sql",
      "sequence": 200,
      "aliases": [
        {
          "name": "IBE",
          "type": "primary"
        }
      ]
    }
  ],
  "query_columns": [
    {
      "column_sequence": 1,
      "column_name": "StageID",
      "data_type_full": "int",
      "type": "incremental_key"
    },
    {
      "column_sequence": 2,
      "column_name": "CompanyID",
      "data_type_full": "int",
      "type": "system_key"
    },
    {
      "column_sequence": 3,
      "column_name": "DataConnectionID",
      "data_type_full": "int",
      "type": "system_key"
    },
    {
      "column_sequence": 4,
      "column_name": "EntryNo",
      "data_type_full": "int",
      "type": "attribute"
    },
    {
      "column_sequence": 5,
      "column_name": "ItemCode",
      "data_type_full": "nvarchar(255)",
      "type": "dimension_business_key"
    },
    {
      "column_sequence": 6,
      "column_name": "LocationCode",
      "data_type_full": "nvarchar(255)",
      "type": "dimension_business_key"
    },
    {
      "column_sequence": 7,
      "column_name": "PurchaseBudgetCode",
      "data_type_full": "nvarchar(255)",
      "type": "dimension_business_key"
    },
    {
      "column_sequence": 8,
      "column_name": "PurchaseBudgetDate",
      "data_type_full": "datetime2",
      "type": "dimension_business_key"
    },
    {
      "column_sequence": 9,
      "column_name": "FinancialDimension1ID",
      "data_type_full": "int",
      "type": "attribute"
    },
    {
      "column_sequence": 10,
      "column_name": "FinancialDimension2ID",
      "data_type_full": "int",
      "type": "attribute"
    },
    {
      "column_sequence": 11,
      "column_name": "FinancialDimension3ID",
      "data_type_full": "int",
      "type": "attribute"
    },
    {
      "column_sequence": 12,
      "column_name": "FinancialDimension4ID",
      "data_type_full": "int",
      "type": "attribute"
    },
    {
      "column_sequence": 13,
      "column_name": "FinancialDimension5ID",
      "data_type_full": "int",
      "type": "attribute"
    },
    {
      "column_sequence": 14,
      "column_name": "FinancialDimension6ID",
      "data_type_full": "int",
      "type": "attribute"
    },
    {
      "column_sequence": 15,
      "column_name": "FinancialDimension7ID",
      "data_type_full": "int",
      "type": "attribute"
    },
    {
      "column_sequence": 16,
      "column_name": "FinancialDimension8ID",
      "data_type_full": "int",
      "type": "attribute"
    },
    {
      "column_sequence": 17,
      "column_name": "PurchaseBudgetCostAmount_LCY",
      "data_type_full": "decimal(19, 4)",
      "type": "measure"
    },
    {
      "column_sequence": 18,
      "column_name": "PurchaseBudgetQuantity",
      "data_type_full": "decimal(19, 4)",
      "type": "measure"
    },
    {
      "column_sequence": 19,
      "column_name": "PurchaseBudgetCostAmount_RCY",
      "data_type_full": "decimal(19, 4)",
      "type": "measure"
    }
  ],
  "dimensions": [
    {
      "dimension": "Date",
      "role_playing": "Date",
      "dimension_joins": [
        {
          "delta_column": "PurchaseBudgetDate",
          "dimension_column": "Date"
        }
      ]
    },
    {
      "dimension": "Date",
      "role_playing": "PurchaseBudgetDate",
      "dimension_joins": [
        {
          "delta_column": "PurchaseBudgetDate",
          "dimension_column": "Date"
        }
      ]
    },
    {
      "dimension": "Item",
      "role_playing": "Item",
      "dimension_joins": [
        {
          "delta_column": "CompanyID",
          "dimension_column": "CompanyID"
        },
        {
          "delta_column": "DataConnectionID",
          "dimension_column": "DataConnectionID"
        },
        {
          "delta_column": "ItemCode",
          "dimension_column": "ItemCode"
        }
      ]
    },
    {
      "dimension": "Location",
      "role_playing": "Location",
      "dimension_joins": [
        {
          "delta_column": "CompanyID",
          "dimension_column": "CompanyID"
        },
        {
          "delta_column": "DataConnectionID",
          "dimension_column": "DataConnectionID"
        },
        {
          "delta_column": "LocationCode",
          "dimension_column": "LocationCode"
        }
      ]
    },
    {
      "dimension": "PurchaseBudget",
      "role_playing": "PurchaseBudget",
      "dimension_joins": [
        {
          "delta_column": "CompanyID",
          "dimension_column": "CompanyID"
        },
        {
          "delta_column": "DataConnectionID",
          "dimension_column": "DataConnectionID"
        },
        {
          "delta_column": "PurchaseBudgetCode",
          "dimension_column": "PurchaseBudgetCode"
        }
      ]
    }
  ],
  "load_type": 1,
  "manual_mode": false,
  "is_customized": false
}