{
  "name": "IsOverdueMinCode",
  "description": "Field to define min overdue code",
  "expression": "MIN ( 'IsOverdue'[YesNoCode] )",
  "isHidden": true,
  "annotations": [
    {
      "name": "TabularEditor_TranslatedNames",
      "value": "{\"de-DE\":\"IsüberfälligMinCode\",\"en-US\":\"Is Overdue Min Code\",\"nl-NL\":\"Is vervallen min dagen code\"}"
    },
    {
      "name": "TabularEditor_TranslatedDescriptions",
      "value": "{\"de-DE\":\"IsüberfälligMinCode\",\"en-US\":\"Field to define min overdue code\",\"nl-NL\":\"Technisch veld om minimaal aantal dagen in de ouderdomsgroep te bepalen\"}"
    }
  ]
}