{
  "name": "DealLine_YTD_Variance_PSE",
  "expression": "[DealLine_YTD_PSE] - [DealLine_LYTD_PSE]",
  "formatString": "#,##0.00",
  "displayFolder": "Σ YTD Variance",
  "annotations": [
    {
      "name": "TabularEditor_TranslatedNames",
      "value": "{\"en-US\":\"Deal Line YTD Variance\",\"nl-NL\":\"Deal regel YTD Variance\"}"
    },
    {
      "name": "TabularEditor_TranslatedDisplayFolders",
      "value": "{\"en-US\":\"Σ YTD Variance\",\"nl-NL\":\"Σ YTD Variance\"}"
    }
  ]
}