{
  "name": "IsReturnSale_SPLY_Variance_PSE",
  "expression": "[IsReturnSale_PSE] - [IsReturnSale_SPLY_PSE]",
  "formatString": "#,##0.00",
  "displayFolder": "Σ SPLY Variance",
  "annotations": [
    {
      "name": "TabularEditor_TranslatedNames",
      "value": "{\"en-US\":\"Return Sales SPLY Variance\",\"nl-NL\":\"Aantal retour verkopen SPLY Variance\"}"
    },
    {
      "name": "TabularEditor_TranslatedDisplayFolders",
      "value": "{\"en-US\":\"Σ SPLY Variance\",\"nl-NL\":\"Σ SPLY Variance\"}"
    }
  ]
}