{
  "name": "NoOfSalesEntry_YTD_Variance_PSE",
  "expression": "[NoOfSalesEntry_YTD_PSE] - [NoOfSalesEntry_LYTD_PSE]",
  "formatString": "#,##0.00",
  "displayFolder": "Σ YTD Variance",
  "annotations": [
    {
      "name": "TabularEditor_TranslatedNames",
      "value": "{\"en-US\":\"No of Sales Entry YTD Variance\",\"nl-NL\":\"Aantal verkooptransacties YTD Variance\"}"
    },
    {
      "name": "TabularEditor_TranslatedDisplayFolders",
      "value": "{\"en-US\":\"Σ YTD Variance\",\"nl-NL\":\"Σ YTD Variance\"}"
    }
  ]
}