{
  "name": "PriceChange_SPLY_Index_PSE",
  "expression": "DIVIDE ( [PriceChange_PSE], [PriceChange_SPLY_PSE] ) * 100",
  "formatString": "#,##0.0",
  "displayFolder": "Σ SPLY Variance",
  "annotations": [
    {
      "name": "TabularEditor_TranslatedNames",
      "value": "{\"en-US\":\"Price Change SPLY Index\",\"nl-NL\":\"Prijs wijziging SPLY Index\"}"
    },
    {
      "name": "TabularEditor_TranslatedDisplayFolders",
      "value": "{\"en-US\":\"Σ SPLY Variance\",\"nl-NL\":\"Σ SPLY Variance\"}"
    }
  ]
}