{
  "name": "Return%_YTD_Variance_PSE",
  "expression": "[Return%_YTD_PSE] - [Return%_LYTD_PSE]",
  "formatString": "#,##0.00 %",
  "displayFolder": "Σ YTD Variance",
  "annotations": [
    {
      "name": "TabularEditor_TranslatedNames",
      "value": "{\"en-US\":\"Return % YTD Variance\",\"nl-NL\":\"Retour % YTD Variance\"}"
    },
    {
      "name": "TabularEditor_TranslatedDisplayFolders",
      "value": "{\"en-US\":\"Σ YTD Variance\",\"nl-NL\":\"Σ YTD Variance\"}"
    }
  ]
}