{
  "name": "ScaleItem_YTD_Index_PSE",
  "expression": "DIVIDE ( [ScaleItem_YTD_PSE], [ScaleItem_LYTD_PSE] ) * 100",
  "formatString": "#,##0.0",
  "displayFolder": "Σ YTD Variance",
  "annotations": [
    {
      "name": "TabularEditor_TranslatedNames",
      "value": "{\"en-US\":\"Scale Item YTD Index\",\"nl-NL\":\"Weeg artikel YTD Index\"}"
    },
    {
      "name": "TabularEditor_TranslatedDisplayFolders",
      "value": "{\"en-US\":\"Σ YTD Variance\",\"nl-NL\":\"Σ YTD Variance\"}"
    }
  ]
}