{
  "name": "WeightManuallyEntered_SPLY_Variance%_PSE",
  "expression": "DIVIDE ( [WeightManuallyEntered_PSE] - [WeightManuallyEntered_SPLY_PSE], [WeightManuallyEntered_SPLY_PSE] )",
  "formatString": "#,##0.0 %",
  "displayFolder": "Σ SPLY Variance",
  "annotations": [
    {
      "name": "TabularEditor_TranslatedNames",
      "value": "{\"en-US\":\"Weight Manually Entered SPLY Variance %\",\"nl-NL\":\"Gewicht handmatig ingevoerd SPLY Variance %\"}"
    },
    {
      "name": "TabularEditor_TranslatedDisplayFolders",
      "value": "{\"en-US\":\"Σ SPLY Variance\",\"nl-NL\":\"Σ SPLY Variance\"}"
    }
  ]
}