{
  "name": "WeightManuallyEntered_YTD_Variance%_PSE",
  "expression": "DIVIDE ( [WeightManuallyEntered_YTD_PSE] - [WeightManuallyEntered_LYTD_PSE], [WeightManuallyEntered_LYTD_PSE] )",
  "formatString": "#,##0.0 %",
  "displayFolder": "Σ YTD Variance",
  "annotations": [
    {
      "name": "TabularEditor_TranslatedNames",
      "value": "{\"en-US\":\"Weight Manually Entered YTD Variance %\",\"nl-NL\":\"Gewicht handmatig ingevoerd YTD Variance %\"}"
    },
    {
      "name": "TabularEditor_TranslatedDisplayFolders",
      "value": "{\"en-US\":\"Σ YTD Variance\",\"nl-NL\":\"Σ YTD Variance\"}"
    }
  ]
}