{
  "name": "WeightManuallyEntered_SPLY_Index_PSE",
  "expression": "DIVIDE ( [WeightManuallyEntered_PSE], [WeightManuallyEntered_SPLY_PSE] ) * 100",
  "formatString": "#,##0.0",
  "displayFolder": "Σ SPLY Variance",
  "annotations": [
    {
      "name": "TabularEditor_TranslatedNames",
      "value": "{\"en-US\":\"Weight Manually Entered SPLY Index\",\"nl-NL\":\"Gewicht handmatig ingevoerd SPLY Index\"}"
    },
    {
      "name": "TabularEditor_TranslatedDisplayFolders",
      "value": "{\"en-US\":\"Σ SPLY Variance\",\"nl-NL\":\"Σ SPLY Variance\"}"
    }
  ]
}