{
  "name": "ShippedQuantity_SPLY_SS",
  "description": "Quantity Shipped. NAV: Sales > Order Processing > Sales Order Shipping > Lines > Quantity Shipped",
  "expression": [
    "VAR SPLY0 =",
    "    FILTER (",
    "        ALL ( 'Date' ),",
    "        'Date'[Date] <= MAX ( 'Date'[TDatePY] )",
    "            && 'Date'[Date] >= MIN ( 'Date'[TDatePY] )",
    "    )",
    "RETURN",
    "    CALCULATE ( [ShippedQuantity_SS], SPLY0 )"
  ],
  "formatString": "#,##0",
  "displayFolder": "Σ SPLY",
  "annotations": [
    {
      "name": "TabularEditor_TranslatedNames",
      "value": "{\"de-DE\":\"Menge geliefert SPLY\",\"en-US\":\"Quantity Shipped SPLY\",\"nl-NL\":\"Verzonden aantal SPLY\"}"
    },
    {
      "name": "TabularEditor_TranslatedDescriptions",
      "value": "{\"de-DE\":\"Abteilungen/Verkauf & Marketing/Auftragsabwicklung/Aufträge/Zeilen\",\"en-US\":\"Quantity Shipped. NAV: Sales > Order Processing > Sales Order Shipping > Lines > Quantity Shipped\",\"nl-NL\":\"Verzonden aantal. NAV: Verkoop > Orderverwerking > Leveringen > Regels > Verzonden Aantal\"}"
    },
    {
      "name": "TabularEditor_TranslatedDisplayFolders",
      "value": "{\"de-DE\":\"Σ SPLY\",\"en-US\":\"Σ SPLY\",\"nl-NL\":\"Σ SPLY\"}"
    }
  ]
}