{
  "name": "ShippedGrossWeight_MTD_SS",
  "description": "Shipped Gross Weight. Quantity Shipped * Gross Weight of the Item",
  "expression": [
    "VAR MTD0 =",
    "    FILTER (",
    "        ALL ( 'Date' ),",
    "        'Date'[DateID] <= MAX ( 'Date'[DateID] )",
    "            && 'Date'[CYearMonthNo] = MAX ( 'Date'[CYearMonthNo] )",
    "    )",
    "RETURN",
    "    CALCULATE ( [ShippedGrossWeight_SS], MTD0 )"
  ],
  "formatString": "#,##0.00",
  "displayFolder": "Σ MTD",
  "annotations": [
    {
      "name": "TabularEditor_TranslatedNames",
      "value": "{\"de-DE\":\"Bruttogewicht MTD\",\"en-US\":\"Shipped Gross Weight MTD\",\"nl-NL\":\"Verzonden bruto gewicht MTD\"}"
    },
    {
      "name": "TabularEditor_TranslatedDescriptions",
      "value": "{\"de-DE\":\"Abteilungen/Verkauf & Marketing/Auftragsabwicklung/Aufträge/Zeilen\",\"en-US\":\"Shipped Gross Weight. Quantity Shipped * Gross Weight of the Item\",\"nl-NL\":\"Verzonden Bruto Gewicht. Verzonden Aantal * Bruto Gewicht van het artikel\"}"
    },
    {
      "name": "TabularEditor_TranslatedDisplayFolders",
      "value": "{\"de-DE\":\"Σ MTD\",\"en-US\":\"Σ MTD\",\"nl-NL\":\"Σ MTD\"}"
    }
  ]
}