{
  "name": "ShippedGrossWeight_SS",
  "description": "Shipped Gross Weight. Quantity Shipped * Gross Weight of the Item",
  "expression": "SUM ( 'factSalesShipment'[ShippedGrossWeight] )",
  "formatString": "#,##0.00",
  "annotations": [
    {
      "name": "TabularEditor_TranslatedNames",
      "value": "{\"de-DE\":\"Bruttogewicht\",\"en-US\":\"Shipped Gross Weight\",\"nl-NL\":\"Verzonden bruto gewicht\"}"
    },
    {
      "name": "TabularEditor_TranslatedDescriptions",
      "value": "{\"de-DE\":\"Abteilungen/Verkauf & Marketing/Auftragsabwicklung/Aufträge/Zeilen\",\"en-US\":\"Shipped Gross Weight. Quantity Shipped * Gross Weight of the Item\",\"nl-NL\":\"Verzonden Bruto Gewicht. Verzonden Aantal * Bruto Gewicht van het artikel\"}"
    }
  ]
}