{
  "name": "ShippedAmount_LCY_SS",
  "description": "Amount Shipped. NAV: Sales > Order Processing > Sales Order Shipping > Lines > Line Amount Excl VAT",
  "expression": "SUM ( 'factSalesShipment'[ShippedAmount_LCY] )",
  "formatString": "#,##0.00",
  "displayFolder": "Σ Local Currency",
  "annotations": [
    {
      "name": "TabularEditor_TranslatedNames",
      "value": "{\"de-DE\":\"Betrag geliefert\",\"en-US\":\"Amount Shipped\",\"nl-NL\":\"Verzonden bedrag\"}"
    },
    {
      "name": "TabularEditor_TranslatedDescriptions",
      "value": "{\"de-DE\":\"Abteilungen/Verkauf & Marketing/Auftragsabwicklung/Aufträge/Zeilen\",\"en-US\":\"Amount Shipped. NAV: Sales > Order Processing > Sales Order Shipping > Lines > Line Amount Excl VAT\",\"nl-NL\":\"Verzonden Bedrag. NAV: Verkoop > Orderverwerking > Leveringen > Regels > Regelbedrag Excl. BTW\"}"
    },
    {
      "name": "TabularEditor_TranslatedDisplayFolders",
      "value": "{\"de-DE\":\"Σ Local Währung\",\"en-US\":\"Σ Local Currency\",\"nl-NL\":\"Σ Lokale Valuta\"}"
    }
  ]
}