{
  "name": "ShippedQuantity_MTD_SS",
  "description": "Quantity Shipped. NAV: Sales > Order Processing > Sales Order Shipping > Lines > Quantity Shipped",
  "expression": [
    "VAR MTD0 =",
    "    FILTER (",
    "        ALL ( 'Date' ),",
    "        'Date'[DateID] <= MAX ( 'Date'[DateID] )",
    "            && 'Date'[CYearMonthNo] = MAX ( 'Date'[CYearMonthNo] )",
    "    )",
    "RETURN",
    "    CALCULATE ( [ShippedQuantity_SS], MTD0 )"
  ],
  "formatString": "#,##0",
  "displayFolder": "Σ MTD",
  "annotations": [
    {
      "name": "TabularEditor_TranslatedNames",
      "value": "{\"de-DE\":\"Menge geliefert MTD\",\"en-US\":\"Quantity Shipped MTD\",\"nl-NL\":\"Verzonden aantal MTD\"}"
    },
    {
      "name": "TabularEditor_TranslatedDescriptions",
      "value": "{\"de-DE\":\"Abteilungen/Verkauf & Marketing/Auftragsabwicklung/Aufträge/Zeilen\",\"en-US\":\"Quantity Shipped. NAV: Sales > Order Processing > Sales Order Shipping > Lines > Quantity Shipped\",\"nl-NL\":\"Verzonden aantal. NAV: Verkoop > Orderverwerking > Leveringen > Regels > Verzonden Aantal\"}"
    },
    {
      "name": "TabularEditor_TranslatedDisplayFolders",
      "value": "{\"de-DE\":\"Σ MTD\",\"en-US\":\"Σ MTD\",\"nl-NL\":\"Σ MTD\"}"
    }
  ]
}