{
  "name": "ShippedAmount_SPLY_Variance%_SS",
  "description": "Amount Shipped. NAV: Sales > Order Processing > Sales Order Shipping > Lines > Line Amount Excl VAT",
  "expression": "DIVIDE ( [ShippedAmount_SPLY_Variance_SS ], [ShippedAmount_SPLY_SS] )",
  "formatString": "#,##0.0 %",
  "displayFolder": "Σ SPLY Variance",
  "annotations": [
    {
      "name": "TabularEditor_TranslatedNames",
      "value": "{\"de-DE\":\"Betrag geliefert SPLY Varianz %\",\"en-US\":\"Amount Shipped SPLY Variance%\",\"nl-NL\":\"Verzonden bedrag SPLY verschil %\"}"
    },
    {
      "name": "TabularEditor_TranslatedDescriptions",
      "value": "{\"de-DE\":\"Abteilungen/Verkauf & Marketing/Auftragsabwicklung/Aufträge/Zeilen\",\"en-US\":\"Amount Shipped. NAV: Sales > Order Processing > Sales Order Shipping > Lines > Line Amount Excl VAT\",\"nl-NL\":\"Verzonden Bedrag. NAV: Verkoop > Orderverwerking > Leveringen > Regels > Regelbedrag Excl. BTW\"}"
    },
    {
      "name": "TabularEditor_TranslatedDisplayFolders",
      "value": "{\"de-DE\":\"Σ SPLY Varianz\",\"en-US\":\"Σ SPLY Variance\"}"
    }
  ]
}