{
  "name": "ShippedQuantity_RY_SS",
  "description": "Quantity Shipped. NAV: Sales > Order Processing > Sales Order Shipping > Lines > Quantity Shipped",
  "expression": [
    "VAR RY0 =",
    "    FILTER (",
    "        ALL ( 'Date' ),",
    "        'Date'[DateID] <= MAX ( 'Date'[DateID] )",
    "            && 'Date'[Date] > MAX ( 'Date'[TDatePY] )",
    "    )",
    "RETURN",
    "    CALCULATE ( [ShippedQuantity_SS], RY0 )"
  ],
  "formatString": "#,##0",
  "displayFolder": "Σ RY",
  "annotations": [
    {
      "name": "TabularEditor_TranslatedNames",
      "value": "{\"de-DE\":\"Menge geliefert RY\",\"en-US\":\"Quantity Shipped RY\",\"nl-NL\":\"Verzonden aantal RY\"}"
    },
    {
      "name": "TabularEditor_TranslatedDescriptions",
      "value": "{\"de-DE\":\"Abteilungen/Verkauf & Marketing/Auftragsabwicklung/Aufträge/Zeilen\",\"en-US\":\"Quantity Shipped. NAV: Sales > Order Processing > Sales Order Shipping > Lines > Quantity Shipped\",\"nl-NL\":\"Verzonden aantal. NAV: Verkoop > Orderverwerking > Leveringen > Regels > Verzonden Aantal\"}"
    },
    {
      "name": "TabularEditor_TranslatedDisplayFolders",
      "value": "{\"de-DE\":\"Σ RY\",\"en-US\":\"Σ RY\",\"nl-NL\":\"Σ RY\"}"
    }
  ]
}