{
  "name": "ShippedAmount_YTD_SS",
  "description": "Amount Shipped. NAV: Sales > Order Processing > Sales Order Shipping > Lines > Line Amount Excl VAT",
  "expression": [
    "VAR YTD0 =",
    "    FILTER (",
    "        ALL ( 'Date' ),",
    "        'Date'[CYearNo] = MAX ( 'Date'[CYearNo] )",
    "            && 'Date'[DateID] <= MAX ( 'Date'[DateID] )",
    "    )",
    "RETURN",
    "    CALCULATE ( [ShippedAmount_SS], YTD0 )"
  ],
  "formatString": "#,##0.00",
  "displayFolder": "Σ YTD",
  "annotations": [
    {
      "name": "TabularEditor_TranslatedNames",
      "value": "{\"de-DE\":\"Betrag geliefert YTD\",\"en-US\":\"Amount Shipped YTD\",\"nl-NL\":\"Verzonden bedrag YTD\"}"
    },
    {
      "name": "TabularEditor_TranslatedDescriptions",
      "value": "{\"de-DE\":\"Abteilungen/Verkauf & Marketing/Auftragsabwicklung/Aufträge/Zeilen\",\"en-US\":\"Amount Shipped. NAV: Sales > Order Processing > Sales Order Shipping > Lines > Line Amount Excl VAT\",\"nl-NL\":\"Verzonden Bedrag. NAV: Verkoop > Orderverwerking > Leveringen > Regels > Regelbedrag Excl. BTW\"}"
    },
    {
      "name": "TabularEditor_TranslatedDisplayFolders",
      "value": "{\"de-DE\":\"Σ YTD\",\"en-US\":\"Σ YTD\",\"nl-NL\":\"Σ YTD\"}"
    }
  ]
}