{
  "name": "BusinessUnit",
  "columns": [
    {
      "name": "BusinessUnitID",
      "dataType": "int64",
      "description": "Unique identifier of the BusinessUnit",
      "isHidden": true,
      "sourceColumn": "BusinessUnitID",
      "sourceProviderType": "Integer",
      "annotations": [
        {
          "name": "TabularEditor_TranslatedNames",
          "value": "{\"de-DE\":\"BusinessunitID\",\"en-US\":\"BusinessUnitID\",\"nl-NL\":\"Businessunitid\"}"
        },
        {
          "name": "TabularEditor_TranslatedDescriptions",
          "value": "{\"de-DE\":\"Unieke sleutel voor business unit\",\"en-US\":\"Unique identifier of the BusinessUnit\",\"nl-NL\":\"Unieke sleutel voor business unit\"}"
        }
      ]
    },
    {
      "name": "BusinessUnitCode",
      "dataType": "string",
      "description": "Departments/Functional Management/General Data/Company > Disciplines > Code",
      "isHidden": true,
      "sourceColumn": "BusinessUnitCode",
      "sourceProviderType": "WChar",
      "annotations": [
        {
          "name": "TabularEditor_TranslatedNames",
          "value": "{\"de-DE\":\"Konzernmandanten Code\",\"en-US\":\"Business Unit Code\",\"nl-NL\":\"Divisiecode\"}"
        },
        {
          "name": "TabularEditor_TranslatedDescriptions",
          "value": "{\"de-DE\":\"Abteilungen/Finanzmanagement/Periodische Aktivitäten/Konsolidierung/Konzernmandanten\",\"en-US\":\"Departments/Functional Management/General Data/Company > Disciplines > Code\",\"nl-NL\":\"Functioneel beheer > Algemeen > Bedrijf > Divisie > Code\"}"
        }
      ]
    },
    {
      "name": "BusinessUnitName",
      "dataType": "string",
      "description": "Departments/Functional Management/General Data/Company > Disciplines > CodeName",
      "isHidden": true,
      "sourceColumn": "BusinessUnitName",
      "sourceProviderType": "WChar",
      "annotations": [
        {
          "name": "TabularEditor_TranslatedNames",
          "value": "{\"de-DE\":\"Konzernmandanten Name\",\"en-US\":\"Business Unit Name\",\"nl-NL\":\"Divisienaam\"}"
        },
        {
          "name": "TabularEditor_TranslatedDescriptions",
          "value": "{\"de-DE\":\"Abteilungen/Finanzmanagement/Periodische Aktivitäten/Konsolidierung/Konzernmandanten\",\"en-US\":\"Departments/Functional Management/General Data/Company > Disciplines > CodeName\",\"nl-NL\":\"Functioneel beheer > Algemeen > Bedrijf > Divisie > Naam\"}"
        }
      ]
    },
    {
      "name": "BusinessUnitCodeName",
      "dataType": "string",
      "description": "Departments/Functional Management/General Data/Company > Disciplines > Code + Name",
      "sourceColumn": "BusinessUnitCodeName",
      "sourceProviderType": "WChar",
      "annotations": [
        {
          "name": "TabularEditor_TranslatedNames",
          "value": "{\"de-DE\":\"Konzernmandanten Code Name\",\"en-US\":\"Business Unit\",\"nl-NL\":\"Divisie\"}"
        },
        {
          "name": "TabularEditor_TranslatedDescriptions",
          "value": "{\"de-DE\":\"Abteilungen/Finanzmanagement/Periodische Aktivitäten/Konsolidierung/Konzernmandanten\",\"en-US\":\"Departments/Functional Management/General Data/Company > Disciplines > Code + Name\",\"nl-NL\":\"Functioneel beheer > Algemeen > Bedrijf > Divisie > Code\"}"
        }
      ]
    }
  ],
  "partitions": [
    {
      "name": "BusinessUnit",
      "dataView": "full",
      "source": {
        "type": "query",
        "query": "SELECT * FROM tabular.BusinessUnit",
        "dataSource": "Birds"
      }
    }
  ],
  "annotations": [
    {
      "name": "_TM_ExtProp_QueryDefinition",
      "value": " SELECT [dim].[BusinessUnit].* FROM [dim].[BusinessUnit] "
    },
    {
      "name": "_TM_ExtProp_DbTableName",
      "value": "BusinessUnit"
    },
    {
      "name": "_TM_ExtProp_DbSchemaName",
      "value": "dim"
    },
    {
      "name": "ContentPacks",
      "value": "Standard"
    },
    {
      "name": "TabularEditor_TranslatedNames",
      "value": "{\"de-DE\":\"Konzernmandanten\",\"en-US\":\"Business Unit\",\"nl-NL\":\"Bedrijfseenheid\"}"
    },
    {
      "name": "TabularEditor_Relationships",
      "value": "[]"
    }
  ]
}