{
  "name": "IssuedAmount_YTD_Variance%_PDE",
  "expression": "DIVIDE ( [IssuedAmount_YTD_PDE] - [IssuedAmount_LYTD_PDE], [IssuedAmount_LYTD_PDE] )",
  "formatString": "#,##0.0 %",
  "displayFolder": "Σ YTD Variance",
  "annotations": [
    {
      "name": "TabularEditor_TranslatedNames",
      "value": "{\"en-US\":\"Issued Amount YTD Variance %\",\"nl-NL\":\"Uitgegeven bedrag YTD Variance %\"}"
    },
    {
      "name": "TabularEditor_TranslatedDisplayFolders",
      "value": "{\"en-US\":\"Σ YTD Variance\",\"nl-NL\":\"Σ YTD Variance\"}"
    }
  ]
}