{
  "name": "OpenAmount_YTD_Variance%_PDE",
  "expression": "DIVIDE ( [OpenAmount_YTD_PDE] - [OpenAmount_LYTD_PDE], [OpenAmount_LYTD_PDE] )",
  "formatString": "#,##0.0 %",
  "displayFolder": "Σ YTD Variance",
  "annotations": [
    {
      "name": "TabularEditor_TranslatedNames",
      "value": "{\"en-US\":\"Open Amount YTD Variance %\",\"nl-NL\":\"Open bedrag YTD Variance %\"}"
    },
    {
      "name": "TabularEditor_TranslatedDisplayFolders",
      "value": "{\"en-US\":\"Σ YTD Variance\",\"nl-NL\":\"Σ YTD Variance\"}"
    }
  ]
}