{
  "name": "OpenAmount_PDE",
  "expression": "SUM ( 'factPOSDataEntry'[OpenAmount_RCY] )",
  "formatString": "#,##0.00",
  "annotations": [
    {
      "name": "TabularEditor_TranslatedNames",
      "value": "{\"en-US\":\"Open Amount\",\"nl-NL\":\"Open bedrag\"}"
    }
  ]
}