{
  "base_name": "Store",
  "category": "dim",
  "database_object": {
    "table_identifier": "dim.Store",
    "columns": [
      {
        "column_name": "StoreID",
        "data_type": "int",
        "character_maximum_length": null,
        "numeric_precision": 10,
        "numeric_scale": 0,
        "nullable": false,
        "business_key": false
      },
      {
        "column_name": "ExecutionTimestamp",
        "data_type": "timestamp",
        "character_maximum_length": null,
        "numeric_precision": null,
        "numeric_scale": null,
        "nullable": false,
        "business_key": false
      },
      {
        "column_name": "ComponentExecutionID",
        "data_type": "int",
        "character_maximum_length": null,
        "numeric_precision": 10,
        "numeric_scale": 0,
        "nullable": false,
        "business_key": false
      },
      {
        "column_name": "StoreCode",
        "data_type": "nvarchar",
        "character_maximum_length": 10,
        "numeric_precision": null,
        "numeric_scale": null,
        "nullable": false,
        "business_key": false
      },
      {
        "column_name": "CompanyID",
        "data_type": "int",
        "character_maximum_length": null,
        "numeric_precision": 10,
        "numeric_scale": 0,
        "nullable": false,
        "business_key": false
      },
      {
        "column_name": "DataConnectionID",
        "data_type": "int",
        "character_maximum_length": null,
        "numeric_precision": 10,
        "numeric_scale": 0,
        "nullable": false,
        "business_key": false
      },
      {
        "column_name": "StageID",
        "data_type": "int",
        "character_maximum_length": null,
        "numeric_precision": 10,
        "numeric_scale": 0,
        "nullable": false,
        "business_key": false
      },
      {
        "column_name": "StoreDescription",
        "data_type": "nvarchar",
        "character_maximum_length": 30,
        "numeric_precision": null,
        "numeric_scale": null,
        "nullable": false,
        "business_key": false
      },
      {
        "column_name": "StoreCodeDescription",
        "data_type": "nvarchar",
        "character_maximum_length": 43,
        "numeric_precision": null,
        "numeric_scale": null,
        "nullable": false,
        "business_key": false
      },
      {
        "column_name": "StoreCountryCode",
        "data_type": "nvarchar",
        "character_maximum_length": 10,
        "numeric_precision": null,
        "numeric_scale": null,
        "nullable": false,
        "business_key": false
      },
      {
        "column_name": "StoreCountryName",
        "data_type": "nvarchar",
        "character_maximum_length": 50,
        "numeric_precision": null,
        "numeric_scale": null,
        "nullable": false,
        "business_key": false
      },
      {
        "column_name": "StoreCountryCodeName",
        "data_type": "nvarchar",
        "character_maximum_length": 43,
        "numeric_precision": null,
        "numeric_scale": null,
        "nullable": false,
        "business_key": false
      },
      {
        "column_name": "StorePostCode",
        "data_type": "nvarchar",
        "character_maximum_length": 20,
        "numeric_precision": null,
        "numeric_scale": null,
        "nullable": false,
        "business_key": false
      },
      {
        "column_name": "StoreAddress",
        "data_type": "nvarchar",
        "character_maximum_length": 30,
        "numeric_precision": null,
        "numeric_scale": null,
        "nullable": false,
        "business_key": false
      },
      {
        "column_name": "StoreCity",
        "data_type": "nvarchar",
        "character_maximum_length": 30,
        "numeric_precision": null,
        "numeric_scale": null,
        "nullable": false,
        "business_key": false
      },
      {
        "column_name": "StoreLocationCode",
        "data_type": "nvarchar",
        "character_maximum_length": 10,
        "numeric_precision": null,
        "numeric_scale": null,
        "nullable": false,
        "business_key": false
      },
      {
        "column_name": "StoreLocationDescription",
        "data_type": "nvarchar",
        "character_maximum_length": 50,
        "numeric_precision": null,
        "numeric_scale": null,
        "nullable": false,
        "business_key": false
      },
      {
        "column_name": "StoreLocationCodeDescription",
        "data_type": "nvarchar",
        "character_maximum_length": 63,
        "numeric_precision": null,
        "numeric_scale": null,
        "nullable": false,
        "business_key": false
      },
      {
        "column_name": "CurrencyCode",
        "data_type": "nvarchar",
        "character_maximum_length": 10,
        "numeric_precision": null,
        "numeric_scale": null,
        "nullable": false,
        "business_key": false
      }
    ],
    "indexes": []
  },
  "load_procedures": [],
  "views": null,
  "queries": [
    {
      "name": "default",
      "select_file_path": "default.sql",
      "sequence": 200,
      "aliases": []
    }
  ],
  "query_columns": [
    {
      "column_sequence": 1,
      "column_name": "StageID",
      "data_type_full": "int",
      "type": "attribute"
    },
    {
      "column_sequence": 2,
      "column_name": "CompanyID",
      "data_type_full": "int",
      "type": "system_key"
    },
    {
      "column_sequence": 3,
      "column_name": "DataConnectionID",
      "data_type_full": "int",
      "type": "system_key"
    },
    {
      "column_sequence": 4,
      "column_name": "StoreCode",
      "data_type_full": "nvarchar(10)",
      "type": "business_key"
    },
    {
      "column_sequence": 5,
      "column_name": "StoreDescription",
      "data_type_full": "nvarchar(30)",
      "type": "attribute"
    },
    {
      "column_sequence": 6,
      "column_name": "StoreCodeDescription",
      "data_type_full": "nvarchar(43)",
      "type": "attribute"
    },
    {
      "column_sequence": 7,
      "column_name": "StoreCountryCode",
      "data_type_full": "nvarchar(10)",
      "type": "attribute"
    },
    {
      "column_sequence": 8,
      "column_name": "StoreCountryName",
      "data_type_full": "nvarchar(50)",
      "type": "attribute"
    },
    {
      "column_sequence": 9,
      "column_name": "StoreCountryCodeName",
      "data_type_full": "nvarchar(43)",
      "type": "attribute"
    },
    {
      "column_sequence": 10,
      "column_name": "StorePostCode",
      "data_type_full": "nvarchar(20)",
      "type": "attribute"
    },
    {
      "column_sequence": 11,
      "column_name": "StoreAddress",
      "data_type_full": "nvarchar(30)",
      "type": "attribute"
    },
    {
      "column_sequence": 12,
      "column_name": "StoreCity",
      "data_type_full": "nvarchar(30)",
      "type": "attribute"
    },
    {
      "column_sequence": 13,
      "column_name": "StoreLocationCode",
      "data_type_full": "nvarchar(10)",
      "type": "attribute"
    },
    {
      "column_sequence": 14,
      "column_name": "StoreLocationDescription",
      "data_type_full": "nvarchar(50)",
      "type": "attribute"
    },
    {
      "column_sequence": 15,
      "column_name": "StoreLocationCodeDescription",
      "data_type_full": "nvarchar(63)",
      "type": "attribute"
    },
    {
      "column_sequence": 16,
      "column_name": "CurrencyCode",
      "data_type_full": "nvarchar(10)",
      "type": "attribute"
    }
  ],
  "dimensions": [],
  "load_type": 1,
  "manual_mode": false,
  "is_customized": false
}