{
  "name": "InDraweratEndofDay_YTD_Index_PPSE",
  "expression": "DIVIDE ( [InDraweratEndofDay_YTD_PPSE], [InDraweratEndofDay_LYTD_PPSE] ) * 100",
  "formatString": "#,##0.0",
  "displayFolder": "Σ YTD Variance",
  "annotations": [
    {
      "name": "TabularEditor_TranslatedNames",
      "value": "{\"en-US\":\"In Drawer  at End of Day YTD Index\",\"nl-NL\":\"In lade eind van de dag YTD Index\"}"
    },
    {
      "name": "TabularEditor_TranslatedDisplayFolders",
      "value": "{\"en-US\":\"Σ YTD Variance\",\"nl-NL\":\"Σ YTD Variance\"}"
    }
  ]
}