{
  "name": "RemovedfromDrawer_YTD_Variance%_PPSE",
  "expression": "DIVIDE ( [RemovedfromDrawer_YTD_PPSE] - [RemovedfromDrawer_LYTD_PPSE], [RemovedfromDrawer_LYTD_PPSE] )",
  "formatString": "#,##0.0 %",
  "displayFolder": "Σ YTD Variance",
  "annotations": [
    {
      "name": "TabularEditor_TranslatedNames",
      "value": "{\"en-US\":\"Removed from Drawer YTD Variance %\",\"nl-NL\":\"Uit lade gehaald YTD Variance %\"}"
    },
    {
      "name": "TabularEditor_TranslatedDisplayFolders",
      "value": "{\"en-US\":\"Σ YTD Variance\",\"nl-NL\":\"Σ YTD Variance\"}"
    }
  ]
}