{
  "name": "RemovedfromDrawer_YTD_Index_PPSE",
  "expression": "DIVIDE ( [RemovedfromDrawer_YTD_PPSE], [RemovedfromDrawer_LYTD_PPSE] ) * 100",
  "formatString": "#,##0.0",
  "displayFolder": "Σ YTD Variance",
  "annotations": [
    {
      "name": "TabularEditor_TranslatedNames",
      "value": "{\"en-US\":\"Removed from Drawer YTD Index\",\"nl-NL\":\"Uit lade gehaald YTD Index\"}"
    },
    {
      "name": "TabularEditor_TranslatedDisplayFolders",
      "value": "{\"en-US\":\"Σ YTD Variance\",\"nl-NL\":\"Σ YTD Variance\"}"
    }
  ]
}