{
  "name": "TransAmount_LCY_PPSE",
  "expression": "SUM ( 'factPOSPostedStatementEntry'[TransAmount_LCY] )",
  "formatString": "#,##0.00",
  "displayFolder": "Σ Local Currency",
  "annotations": [
    {
      "name": "TabularEditor_TranslatedNames",
      "value": "{\"en-US\":\"TransAmount_LCY\",\"nl-NL\":\"TransAmount_LCY\"}"
    },
    {
      "name": "TabularEditor_TranslatedDisplayFolders",
      "value": "{\"en-US\":\"Σ Local Currency\",\"nl-NL\":\"Σ Lokale Valuta\"}"
    }
  ]
}