{
  "name": "Discount%_SPLY_SVE",
  "description": "Discount Amount / (Sales Amount + Discount Amount)",
  "expression": [
    "VAR SPLY0 =",
    "    FILTER (",
    "        ALL ( 'Date' ),",
    "        'Date'[Date] <= MAX ( 'Date'[TDatePY] )",
    "            && 'Date'[Date] >= MIN ( 'Date'[TDatePY] )",
    "    )",
    "RETURN",
    "    CALCULATE ( [Discount%_SVE], SPLY0 )"
  ],
  "formatString": "#,##0.0 %",
  "displayFolder": "Σ SPLY",
  "annotations": [
    {
      "name": "TabularEditor_TranslatedNames",
      "value": "{\"de-DE\":\"Rabatt % SPLY\",\"en-US\":\"Discount % SPLY\",\"nl-NL\":\"Korting % SPLY\"}"
    },
    {
      "name": "TabularEditor_TranslatedDescriptions",
      "value": "{\"de-DE\":\"Startseite/Artikel/Posten/Posten/Zeilen\",\"en-US\":\"Discount Amount / (Sales Amount + Discount Amount)\",\"nl-NL\":\"Totaal Kortingsbedrag / (Totaal werkelijke omzet + Totaal kortingsbedrag)\"}"
    },
    {
      "name": "TabularEditor_TranslatedDisplayFolders",
      "value": "{\"de-DE\":\"Σ SPLY\",\"en-US\":\"Σ SPLY\",\"nl-NL\":\"Σ SPLY\"}"
    }
  ]
}