{
  "name": "Discount%_LYTD_SVE",
  "description": "Discount Amount / (Sales Amount + Discount Amount)",
  "expression": [
    "VAR LYTD =",
    "    FILTER (",
    "        ALL ( 'Date' ),",
    "        'Date'[CYearNo]",
    "            = MAX ( 'Date'[CYearNo] ) - 1",
    "            && 'Date'[Date] <= MAX ( 'Date'[TDatePY] )",
    "    )",
    "RETURN",
    "    CALCULATE ( [Discount%_SVE], LYTD )"
  ],
  "formatString": "#,##0.0 %",
  "displayFolder": "Σ LYTD",
  "annotations": [
    {
      "name": "TabularEditor_TranslatedNames",
      "value": "{\"de-DE\":\"Rabatt % LYTD\",\"en-US\":\"Discount % LYTD\",\"nl-NL\":\"Korting % LYTD\"}"
    },
    {
      "name": "TabularEditor_TranslatedDescriptions",
      "value": "{\"de-DE\":\"Startseite/Artikel/Posten/Posten/Zeilen\",\"en-US\":\"Discount Amount / (Sales Amount + Discount Amount)\",\"nl-NL\":\"Totaal Kortingsbedrag / (Totaal werkelijke omzet + Totaal kortingsbedrag)\"}"
    },
    {
      "name": "TabularEditor_TranslatedDisplayFolders",
      "value": "{\"de-DE\":\"Σ LYTD\",\"en-US\":\"Σ LYTD\",\"nl-NL\":\"Σ LYTD\"}"
    }
  ]
}