{
  "name": "SalesAmountExpected_YTD_Variance%_SVE",
  "description": "Sales Amount Actual + Sales Amount Expected",
  "expression": [
    "DIVIDE (",
    "    [SalesAmountExpected_YTD_Variance_SVE],",
    "    [SalesAmountExpected_LYTD_SVE]",
    ")"
  ],
  "formatString": "#,##0.0 %",
  "displayFolder": "Σ LYTD Variance",
  "annotations": [
    {
      "name": "TabularEditor_TranslatedNames",
      "value": "{\"de-DE\":\"Verkaufsbetrag (erwartet) YTD Varianz %\",\"en-US\":\"Sales Amount Expected YTD Variance%\",\"nl-NL\":\"Verwachte omzet YTD verschil %\"}"
    },
    {
      "name": "TabularEditor_TranslatedDescriptions",
      "value": "{\"de-DE\":\"Startseite/Artikel/Posten/Posten/Zeilen\",\"en-US\":\"Sales Amount Actual + Sales Amount Expected\",\"nl-NL\":\"Afdelingen/Artikelbeheer/Stamgegevens/Artikelen > Posten > Waardeposten > Totaal werkelijke omzet + Totaal verwachte omzet\"}"
    },
    {
      "name": "TabularEditor_TranslatedDisplayFolders",
      "value": "{\"de-DE\":\"Σ LYTD Varianz\",\"en-US\":\"Σ LYTD Variance\"}"
    }
  ]
}