{
  "connection_types": [],
  "tables": [
    {
      "table_identifier": "dbo.Trans_ Sales Entry",
      "columns": [
        {
          "column_name": "Date",
          "data_type": "datetime",
          "character_maximum_length": 0,
          "numeric_precision": 0,
          "numeric_scale": 0,
          "nullable": false,
          "business_key": false
        },
        {
          "column_name": "Deal Line",
          "data_type": "tinyint",
          "character_maximum_length": 0,
          "numeric_precision": 3,
          "numeric_scale": 0,
          "nullable": false,
          "business_key": false
        },
        {
          "column_name": "Item Number Scanned",
          "data_type": "tinyint",
          "character_maximum_length": 0,
          "numeric_precision": 3,
          "numeric_scale": 0,
          "nullable": false,
          "business_key": false
        },
        {
          "column_name": "Keyboard Item Entry",
          "data_type": "tinyint",
          "character_maximum_length": 0,
          "numeric_precision": 3,
          "numeric_scale": 0,
          "nullable": false,
          "business_key": false
        },
        {
          "column_name": "Line No_",
          "data_type": "int",
          "character_maximum_length": 0,
          "numeric_precision": 10,
          "numeric_scale": 0,
          "nullable": false,
          "business_key": true
        },
        {
          "column_name": "Line was Discounted",
          "data_type": "tinyint",
          "character_maximum_length": 0,
          "numeric_precision": 3,
          "numeric_scale": 0,
          "nullable": false,
          "business_key": false
        },
        {
          "column_name": "POS Terminal No_",
          "data_type": "nvarchar",
          "character_maximum_length": 10,
          "numeric_precision": 0,
          "numeric_scale": 0,
          "nullable": false,
          "business_key": true
        },
        {
          "column_name": "Price Change",
          "data_type": "tinyint",
          "character_maximum_length": 0,
          "numeric_precision": 3,
          "numeric_scale": 0,
          "nullable": false,
          "business_key": false
        },
        {
          "column_name": "Price in Barcode",
          "data_type": "tinyint",
          "character_maximum_length": 0,
          "numeric_precision": 3,
          "numeric_scale": 0,
          "nullable": false,
          "business_key": false
        },
        {
          "column_name": "Sales Staff",
          "data_type": "nvarchar",
          "character_maximum_length": 20,
          "numeric_precision": 0,
          "numeric_scale": 0,
          "nullable": false,
          "business_key": false
        },
        {
          "column_name": "Scale Item",
          "data_type": "tinyint",
          "character_maximum_length": 0,
          "numeric_precision": 3,
          "numeric_scale": 0,
          "nullable": false,
          "business_key": false
        },
        {
          "column_name": "Serial_Lot No_ Not Valid",
          "data_type": "tinyint",
          "character_maximum_length": 0,
          "numeric_precision": 3,
          "numeric_scale": 0,
          "nullable": false,
          "business_key": false
        },
        {
          "column_name": "Staff ID",
          "data_type": "nvarchar",
          "character_maximum_length": 20,
          "numeric_precision": 0,
          "numeric_scale": 0,
          "nullable": false,
          "business_key": false
        },
        {
          "column_name": "Store No_",
          "data_type": "nvarchar",
          "character_maximum_length": 10,
          "numeric_precision": 0,
          "numeric_scale": 0,
          "nullable": false,
          "business_key": true
        },
        {
          "column_name": "timestamp",
          "data_type": "timestamp",
          "character_maximum_length": 0,
          "numeric_precision": 0,
          "numeric_scale": 0,
          "nullable": false,
          "business_key": false
        },
        {
          "column_name": "Transaction No_",
          "data_type": "int",
          "character_maximum_length": 0,
          "numeric_precision": 10,
          "numeric_scale": 0,
          "nullable": false,
          "business_key": true
        },
        {
          "column_name": "Weight Item",
          "data_type": "tinyint",
          "character_maximum_length": 0,
          "numeric_precision": 3,
          "numeric_scale": 0,
          "nullable": false,
          "business_key": false
        },
        {
          "column_name": "Weight Manually Entered",
          "data_type": "tinyint",
          "character_maximum_length": 0,
          "numeric_precision": 3,
          "numeric_scale": 0,
          "nullable": false,
          "business_key": false
        }
      ],
      "indexes": []
    },
    {
      "table_identifier": "dbo.Transaction Header",
      "columns": [
        {
          "column_name": "POS Terminal No_",
          "data_type": "nvarchar",
          "character_maximum_length": 10,
          "numeric_precision": 0,
          "numeric_scale": 0,
          "nullable": false,
          "business_key": true
        },
        {
          "column_name": "Sale Is Return Sale",
          "data_type": "tinyint",
          "character_maximum_length": 0,
          "numeric_precision": 3,
          "numeric_scale": 0,
          "nullable": false,
          "business_key": false
        },
        {
          "column_name": "Store No_",
          "data_type": "nvarchar",
          "character_maximum_length": 10,
          "numeric_precision": 0,
          "numeric_scale": 0,
          "nullable": false,
          "business_key": true
        },
        {
          "column_name": "timestamp",
          "data_type": "timestamp",
          "character_maximum_length": 0,
          "numeric_precision": 0,
          "numeric_scale": 0,
          "nullable": false,
          "business_key": false
        },
        {
          "column_name": "Transaction No_",
          "data_type": "int",
          "character_maximum_length": 0,
          "numeric_precision": 10,
          "numeric_scale": 0,
          "nullable": false,
          "business_key": true
        }
      ],
      "indexes": []
    }
  ]
}