{
  "name": "TransferOrderQuantityReceivedBase_SPLY_Variance%_TO",
  "description": " SPLY Variance %",
  "expression": "DIVIDE ( [TransferOrderQuantityReceivedBase_TO] - [TransferOrderQuantityReceivedBase_SPLY_TO], [TransferOrderQuantityReceivedBase_SPLY_TO] )",
  "formatString": "#,##0.0 %",
  "displayFolder": "Σ SPLY Variance",
  "annotations": [
    {
      "name": "TabularEditor_TranslatedNames",
      "value": "{\"de-DE\":\"Umlagerungsaufträge Bereits gelief. Menge (Basis) SPLY Varianz %\",\"en-US\":\"Quantity Received (Base) SPLY Variance %\",\"nl-NL\":\"Ontvangen aantal (basis) SPLY Variance %\"}"
    },
    {
      "name": "TabularEditor_TranslatedDescriptions",
      "value": "{\"de-DE\":\"Abteilungen/Lager/Aufträge & Kontakte/Umlagerungsaufträge/Zeilen\",\"en-US\":\"Departments/Inventory and Warehouse/Order Processing/General/Transfer Orders/Quantity Received (Base) SPLY Variance %\",\"nl-NL\":\"Afdelingen/Voorraad en magazijn/Orderverwerking/Algemeen/Transferorders/Ontvangen aantal (basis) SPLY Variance %\"}"
    },
    {
      "name": "TabularEditor_TranslatedDisplayFolders",
      "value": "{\"de-DE\":\"Σ SPLY Varianz\",\"en-US\":\"Σ SPLY Variance\",\"nl-NL\":\"Σ SPLY Variance\"}"
    }
  ]
}