{
  "name": "TransferOrderQuantityReceived_YTD_Variance_TO",
  "description": " YTD Variance",
  "expression": "[TransferOrderQuantityReceived_YTD_TO] - [TransferOrderQuantityReceived_LYTD_TO]",
  "formatString": "#,##0.00",
  "displayFolder": "Σ YTD Variance",
  "annotations": [
    {
      "name": "TabularEditor_TranslatedNames",
      "value": "{\"de-DE\":\"Umlagerungsaufträge Bereits gelief. Menge YTD Varianz\",\"en-US\":\"Quantity Received YTD Variance\",\"nl-NL\":\"Ontvangen aantal YTD Variance\"}"
    },
    {
      "name": "TabularEditor_TranslatedDescriptions",
      "value": "{\"de-DE\":\"Abteilungen/Lager/Aufträge & Kontakte/Umlagerungsaufträge/Zeilen\",\"en-US\":\"Departments/Inventory and Warehouse/Order Processing/General/Transfer Orders/Quantity Received YTD Variance\",\"nl-NL\":\"Afdelingen/Voorraad en magazijn/Orderverwerking/Algemeen/Transferorders/Ontvangen aantal YTD Variance\"}"
    },
    {
      "name": "TabularEditor_TranslatedDisplayFolders",
      "value": "{\"de-DE\":\"Σ YTD Varianz\",\"en-US\":\"Σ YTD Variance\",\"nl-NL\":\"Σ YTD Variance\"}"
    }
  ]
}