{
  "name": "TransferOrderQuantityToShipBase_TO",
  "expression": "SUM ( 'factTransferOrder'[TransferOrderQuantityToShipBase] )",
  "formatString": "#,##0.00",
  "annotations": [
    {
      "name": "TabularEditor_TranslatedNames",
      "value": "{\"de-DE\":\"Umlagerungsaufträge Zu liefern (Basis)\",\"en-US\":\"Quantity To Ship (Base)\",\"nl-NL\":\"Te verzenden aantal (basis)\"}"
    },
    {
      "name": "TabularEditor_TranslatedDescriptions",
      "value": "{\"de-DE\":\"Abteilungen/Lager/Aufträge & Kontakte/Umlagerungsaufträge/Zeilen\",\"en-US\":\"Departments/Inventory and Warehouse/Order Processing/General/Transfer Orders/Quantity To Ship (Base)\",\"nl-NL\":\"Afdelingen/Voorraad en magazijn/Orderverwerking/Algemeen/Transferorders/Te verzenden aantal (basis)\"}"
    }
  ]
}