{
  "name": "TransferOrderOutstandingQuantityBase_SPLY_Index_TO",
  "description": " SPLY Index",
  "expression": "DIVIDE ( [TransferOrderOutstandingQuantityBase_TO], [TransferOrderOutstandingQuantityBase_SPLY_TO] ) * 100",
  "formatString": "#,##0.0",
  "displayFolder": "Σ SPLY Variance",
  "annotations": [
    {
      "name": "TabularEditor_TranslatedNames",
      "value": "{\"de-DE\":\"Umlagerungsaufträge Restauftragsmenge (Basis) SPLY Index\",\"en-US\":\"Outstanding Quantity (Base) SPLY Index\",\"nl-NL\":\"Openstaand aantal (basis) SPLY Index\"}"
    },
    {
      "name": "TabularEditor_TranslatedDescriptions",
      "value": "{\"de-DE\":\"Abteilungen/Lager/Aufträge & Kontakte/Umlagerungsaufträge/Zeilen\",\"en-US\":\"Departments/Inventory and Warehouse/Order Processing/General/Transfer Orders/Outstanding Quantity (Base) SPLY Index\",\"nl-NL\":\"Afdelingen/Voorraad en magazijn/Orderverwerking/Algemeen/Transferorders/Openstaand aantal (basis) SPLY Index\"}"
    },
    {
      "name": "TabularEditor_TranslatedDisplayFolders",
      "value": "{\"de-DE\":\"Σ SPLY Varianz\",\"en-US\":\"Σ SPLY Variance\",\"nl-NL\":\"Σ SPLY Variance\"}"
    }
  ]
}