{
  "name": "TransferOrderOutstandingQuantity_YTD_Variance_TO",
  "description": " YTD Variance",
  "expression": "[TransferOrderOutstandingQuantity_YTD_TO] - [TransferOrderOutstandingQuantity_LYTD_TO]",
  "formatString": "#,##0.00",
  "displayFolder": "Σ YTD Variance",
  "annotations": [
    {
      "name": "TabularEditor_TranslatedNames",
      "value": "{\"de-DE\":\"Umlagerungsaufträge Restauftragsmenge YTD Varianz\",\"en-US\":\"Outstanding Quantity YTD Variance\",\"nl-NL\":\"Openstaand aantal YTD Variance\"}"
    },
    {
      "name": "TabularEditor_TranslatedDescriptions",
      "value": "{\"de-DE\":\"Abteilungen/Lager/Aufträge & Kontakte/Umlagerungsaufträge/Zeilen\",\"en-US\":\"Departments/Inventory and Warehouse/Order Processing/General/Transfer Orders/Outstanding Quantity YTD Variance\",\"nl-NL\":\"Afdelingen/Voorraad en magazijn/Orderverwerking/Algemeen/Transferorders/Openstaand aantal YTD Variance\"}"
    },
    {
      "name": "TabularEditor_TranslatedDisplayFolders",
      "value": "{\"de-DE\":\"Σ YTD Varianz\",\"en-US\":\"Σ YTD Variance\",\"nl-NL\":\"Σ YTD Variance\"}"
    }
  ]
}