{
  "name": "TransferOrderQuantity_SPLY_TO",
  "description": " SPLY",
  "expression": [
    "VAR SPLY0 =",
    "    FILTER (",
    "        ALL ( 'Date' ),",
    "        'Date'[Date] <= MAX ( 'Date'[TDatePY] )",
    "            && 'Date'[Date] >= MIN ( 'Date'[TDatePY] )",
    "    )",
    "RETURN",
    "    CALCULATE ( [TransferOrderQuantity_TO], SPLY0 )"
  ],
  "formatString": "#,##0.00",
  "displayFolder": "Σ SPLY",
  "annotations": [
    {
      "name": "TabularEditor_TranslatedNames",
      "value": "{\"de-DE\":\"Umlagerungsaufträge Menge SPLY\",\"en-US\":\"Quantity SPLY\",\"nl-NL\":\"Aantal SPLY\"}"
    },
    {
      "name": "TabularEditor_TranslatedDescriptions",
      "value": "{\"de-DE\":\"Abteilungen/Lager/Aufträge & Kontakte/Umlagerungsaufträge/Zeilen\",\"en-US\":\"Departments/Inventory and Warehouse/Order Processing/General/Transfer Orders/Quantity SPLY\",\"nl-NL\":\"Afdelingen/Voorraad en magazijn/Orderverwerking/Algemeen/Transferorders/Aantal SPLY\"}"
    },
    {
      "name": "TabularEditor_TranslatedDisplayFolders",
      "value": "{\"de-DE\":\"Σ SPLY\",\"en-US\":\"Σ SPLY\",\"nl-NL\":\"Σ SPLY\"}"
    }
  ]
}