{
  "name": "ExpenseAmount_YTD_Variance%_PTIE",
  "expression": "DIVIDE ( [ExpenseAmount_YTD_PTIE] - [ExpenseAmount_LYTD_PTIE], [ExpenseAmount_LYTD_PTIE] )",
  "formatString": "#,##0.0 %",
  "displayFolder": "Σ YTD Variance",
  "annotations": [
    {
      "name": "TabularEditor_TranslatedNames",
      "value": "{\"en-US\":\"Expense Amount YTD Variance %\",\"nl-NL\":\"Uitgegeven bedrag YTD Variance %\"}"
    },
    {
      "name": "TabularEditor_TranslatedDisplayFolders",
      "value": "{\"en-US\":\"Σ YTD Variance\",\"nl-NL\":\"Σ YTD Variance\"}"
    }
  ]
}