{
  "name": "ExpenseAmount_SPLY_Variance_PTIE",
  "expression": "[ExpenseAmount_PTIE] - [ExpenseAmount_SPLY_PTIE]",
  "formatString": "#,##0.00",
  "displayFolder": "Σ SPLY Variance",
  "annotations": [
    {
      "name": "TabularEditor_TranslatedNames",
      "value": "{\"en-US\":\"Expense Amount SPLY Variance\",\"nl-NL\":\"Uitgegeven bedrag SPLY Variance\"}"
    },
    {
      "name": "TabularEditor_TranslatedDisplayFolders",
      "value": "{\"en-US\":\"Σ SPLY Variance\",\"nl-NL\":\"Σ SPLY Variance\"}"
    }
  ]
}