{
  "name": "IncomeAmount_PTIE",
  "expression": "SUM ( 'factPOSTransactionIncomeExpense'[IncomeAmount_RCY] )",
  "formatString": "#,##0.00",
  "annotations": [
    {
      "name": "TabularEditor_TranslatedNames",
      "value": "{\"en-US\":\"Income Amount\",\"nl-NL\":\"Binnenkomend bedrag\"}"
    }
  ]
}