{
  "name": "IssueQuantity_IIL",
  "description": "Departments/Item Management/General Data/Items > Entries > Ledger Entry > Invoiced Quantity",
  "expression": "SUM ( 'factInventoryItemLedger'[IssueQuantity] )",
  "formatString": "#,##0",
  "annotations": [
    {
      "name": "TabularEditor_TranslatedNames",
      "value": "{\"de-DE\":\"Ausgabemenge\",\"en-US\":\"Issue Quantity\",\"nl-NL\":\"Verzonden hoeveelheid\"}"
    },
    {
      "name": "TabularEditor_TranslatedDescriptions",
      "value": "{\"de-DE\":\"Abteilungen/Lager/Historie/Historie/Artikelposten/Zeilen\",\"en-US\":\"Departments/Item Management/General Data/Items > Entries > Ledger Entry > Invoiced Quantity\",\"nl-NL\":\"Afdelingen/Artikelbeheer/Stamgegevens/Artikelen > Posten > Posten > Geboekt Aantal\"}"
    }
  ]
}