{
  "name": "SKUonStock_SPLY_IIL",
  "description": "Count of unique items which have an inventory quantity higher than 0 ",
  "expression": [
    "VAR SPLY0 =",
    "    FILTER (",
    "        ALL ( 'Date' ),",
    "        'Date'[Date] <= MAX ( 'Date'[TDatePY] )",
    "            && 'Date'[Date] >= MIN ( 'Date'[TDatePY] )",
    "    )",
    "RETURN",
    "    CALCULATE ( [SKUonStock_IIL], SPLY0 )"
  ],
  "displayFolder": "Σ SPLY",
  "annotations": [
    {
      "name": "TabularEditor_TranslatedNames",
      "value": "{\"de-DE\":\"Lagerbestand SPLY\",\"en-US\":\"#SKU on Stock SPLY\",\"nl-NL\":\"Artikelen op voorraad SPLY\"}"
    },
    {
      "name": "TabularEditor_TranslatedDescriptions",
      "value": "{\"de-DE\":\"Abteilungen/Lager/Historie/Historie/Artikelposten/Zeilen\",\"en-US\":\"Count of unique items which have an inventory quantity higher than 0 \",\"nl-NL\":\"Telling van uniek aantal artikelen met een voorraadhoeveelheid hoger dan 0 \"}"
    },
    {
      "name": "TabularEditor_TranslatedDisplayFolders",
      "value": "{\"de-DE\":\"Σ SPLY\",\"en-US\":\"Σ SPLY\",\"nl-NL\":\"Σ SPLY\"}"
    }
  ]
}