{
  "name": "DocumentPurchase",
  "columns": [
    {
      "name": "DocumentPurchaseID",
      "dataType": "int64",
      "description": "System column for technical purposes",
      "isHidden": true,
      "sourceColumn": "DocumentPurchaseID",
      "sourceProviderType": "Int32",
      "annotations": [
        {
          "name": "TabularEditor_TranslatedNames",
          "value": "{\"de-DE\":\"DocumentPurchaseID\",\"en-US\":\"DocumentPurchaseID\",\"nl-NL\":\"DocumentPurchaseID\"}"
        },
        {
          "name": "TabularEditor_TranslatedDescriptions",
          "value": "{\"de-DE\":\"Kennung für DocumentPurchase\",\"en-US\":\"System column for technical purposes\",\"nl-NL\":\"Systeemkolom technische doeleinden\"}"
        }
      ]
    },
    {
      "name": "DocumentNo",
      "dataType": "string",
      "description": "Departments/Purchase/Order Processing",
      "sourceColumn": "DocumentNo",
      "sourceProviderType": "String",
      "annotations": [
        {
          "name": "TabularEditor_TranslatedNames",
          "value": "{\"de-DE\":\"Belegnr.\",\"en-US\":\"Document No\",\"nl-NL\":\"Documentnummer\"}"
        },
        {
          "name": "TabularEditor_TranslatedDescriptions",
          "value": "{\"de-DE\":\"Abteilungen/Finanzmanagement/Periodische Aktivitäten/Finanzbuchhaltung/Belegnr.\",\"en-US\":\"Departments/Purchase/Order Processing\",\"nl-NL\":\"Afdelingen>Inkoop>Orderverwerking\"}"
        }
      ]
    },
    {
      "name": "DocumentTypeCode",
      "dataType": "int64",
      "description": "Departments/Purchase/Order Processing",
      "isHidden": true,
      "sourceColumn": "DocumentTypeCode",
      "sourceProviderType": "Int32",
      "annotations": [
        {
          "name": "TabularEditor_TranslatedNames",
          "value": "{\"de-DE\":\"Belegart\",\"en-US\":\"Document Type\",\"nl-NL\":\"Documenttype\"}"
        },
        {
          "name": "TabularEditor_TranslatedDescriptions",
          "value": "{\"de-DE\":\"Abteilungen/Finanzmanagement/Periodische Aktivitäten/Finanzbuchhaltung/Belegart\",\"en-US\":\"Departments/Purchase/Order Processing\",\"nl-NL\":\"Afdelingen>Inkoop>Orderverwerking\"}"
        }
      ]
    },
    {
      "name": "DocumentTypeDescription",
      "dataType": "string",
      "description": "Departments/Purchase/Order Processing",
      "sourceColumn": "DocumentTypeDescription",
      "sourceProviderType": "String",
      "annotations": [
        {
          "name": "TabularEditor_TranslatedNames",
          "value": "{\"de-DE\":\"Belegart\",\"en-US\":\"Document type\",\"nl-NL\":\"Documentsoort\"}"
        },
        {
          "name": "TabularEditor_TranslatedDescriptions",
          "value": "{\"de-DE\":\"Abteilungen/Finanzmanagement/Periodische Aktivitäten/Finanzbuchhaltung/Belegart\",\"en-US\":\"Departments/Purchase/Order Processing\",\"nl-NL\":\"Afdelingen>Inkoop>Orderverwerking\"}"
        }
      ]
    }
  ],
  "partitions": [
    {
      "name": "DocumentPurchase",
      "source": {
        "type": "query",
        "query": "SELECT * FROM tabular.DocumentPurchase",
        "dataSource": "Birds"
      },
      "annotations": [
        {
          "name": "TabularEditor_TableSchema",
          "value": "{\"Name\":\"DocumentPurchase\",\"Schema\":\"dim\",\"Database\":\"Birds1990\",\"IncludedColumns\":[\"DocumentPurchaseID\",\"StageID\",\"CompanyID\",\"ExecutionTimestamp\",\"ComponentExecutionID\",\"DataConnectionID\",\"DocumentNo\",\"DocumentTypeCode\",\"DocumentTypeDescription\"],\"SelectAll\":true}"
        }
      ]
    }
  ],
  "annotations": [
    {
      "name": "TabularEditor_TranslatedNames",
      "value": "{\"de-DE\":\"Beleg Einkauf\",\"en-US\":\"Document purchase\",\"nl-NL\":\"Document inkoop\"}"
    },
    {
      "name": "TabularEditor_Relationships",
      "value": "[]"
    }
  ]
}