{
  "base_name": "AgeGroup",
  "category": "dim",
  "database_object": {
    "table_identifier": "dim.AgeGroup",
    "columns": [
      {
        "column_name": "AgeGroupID",
        "data_type": "int",
        "character_maximum_length": null,
        "numeric_precision": 10,
        "numeric_scale": 0,
        "nullable": false,
        "business_key": false
      },
      {
        "column_name": "ExecutionTimestamp",
        "data_type": "timestamp",
        "character_maximum_length": null,
        "numeric_precision": null,
        "numeric_scale": null,
        "nullable": false,
        "business_key": false
      },
      {
        "column_name": "ComponentExecutionID",
        "data_type": "int",
        "character_maximum_length": null,
        "numeric_precision": 10,
        "numeric_scale": 0,
        "nullable": false,
        "business_key": false
      },
      {
        "column_name": "AgeGroupCode",
        "data_type": "nvarchar",
        "character_maximum_length": 255,
        "numeric_precision": null,
        "numeric_scale": null,
        "nullable": false,
        "business_key": false
      },
      {
        "column_name": "AgeGroupDesc",
        "data_type": "nvarchar",
        "character_maximum_length": 255,
        "numeric_precision": null,
        "numeric_scale": null,
        "nullable": false,
        "business_key": false
      },
      {
        "column_name": "AgeGroupMin",
        "data_type": "int",
        "character_maximum_length": null,
        "numeric_precision": 10,
        "numeric_scale": 0,
        "nullable": false,
        "business_key": false
      },
      {
        "column_name": "AgeGroupMax",
        "data_type": "int",
        "character_maximum_length": null,
        "numeric_precision": 10,
        "numeric_scale": 0,
        "nullable": false,
        "business_key": false
      }
    ],
    "indexes": []
  },
  "load_procedures": [],
  "views": null,
  "queries": [
    {
      "name": "default",
      "select_file_path": "default.sql",
      "sequence": 200,
      "aliases": []
    }
  ],
  "query_columns": [
    {
      "column_sequence": 1,
      "column_name": "AgeGroupID",
      "data_type_full": "int",
      "type": "business_key"
    },
    {
      "column_sequence": 2,
      "column_name": "AgeGroupCode",
      "data_type_full": "nvarchar(255)",
      "type": "attribute"
    },
    {
      "column_sequence": 3,
      "column_name": "AgeGroupDesc",
      "data_type_full": "nvarchar(255)",
      "type": "attribute"
    },
    {
      "column_sequence": 4,
      "column_name": "AgeGroupMin",
      "data_type_full": "int",
      "type": "attribute"
    },
    {
      "column_sequence": 5,
      "column_name": "AgeGroupMax",
      "data_type_full": "int",
      "type": "attribute"
    }
  ],
  "dimensions": [],
  "load_type": 1,
  "manual_mode": false,
  "is_customized": false
}