{
  "name": "SalesOrderInvoicedAmount_SPLY_Index_SO",
  "description": "Departments/Sales & Marketing/Order Processing/Sales Orders > Lines > Sales Order Invoiced Amount SPLY Index",
  "expression": "DIVIDE ( [SalesOrderInvoicedAmount_SO], [SalesOrderInvoicedAmount_SPLY_SO] ) * 100",
  "formatString": "#,##0.0",
  "displayFolder": "Σ SPLY Variance",
  "annotations": [
    {
      "name": "TabularEditor_TranslatedNames",
      "value": "{\"de-DE\":\"Fakturiert Betrag SPLY Index\",\"en-US\":\"Sales Order Invoiced Amount SPLY Index\",\"nl-NL\":\"Verkooporder gefactureerd bedrag SPLY Index\"}"
    },
    {
      "name": "TabularEditor_TranslatedDescriptions",
      "value": "{\"de-DE\":\"Abteilungen/Verkauf & Marketing/Auftragsabwicklung/Aufträge/Zeilen\",\"en-US\":\"Departments/Sales & Marketing/Order Processing/Sales Orders > Lines > Sales Order Invoiced Amount > Sales Order Invoiced Amount SPLY Index\",\"nl-NL\":\"Afdelingen/Verkoop/Orderverwerking/Verkooporders > De regels in een verkooporder > Verkooporder gefactureerd bedrag SPLY Index\"}"
    },
    {
      "name": "TabularEditor_TranslatedDisplayFolders",
      "value": "{\"de-DE\":\"Σ SPLY Varianz\",\"en-US\":\"Σ SPLY Variance\",\"nl-NL\":\"Σ SPLY Variance\"}"
    }
  ]
}