{
  "name": "SalesOrderShippedQuantity_SPLY_Index_SO",
  "description": "Departments/Sales & Marketing/Order Processing/Sales Orders > Lines > Sales Order Shipped Quantity SPLY Index",
  "expression": "DIVIDE ( [SalesOrderShippedQuantity_SO], [SalesOrderShippedQuantity_SPLY_SO] ) * 100",
  "formatString": "#,##0.0",
  "displayFolder": "Σ SPLY Variance",
  "annotations": [
    {
      "name": "TabularEditor_TranslatedNames",
      "value": "{\"de-DE\":\"Auftrage Menge geliefert SPLY Index\",\"en-US\":\"Sales Order Shipped Quantity SPLY Index\",\"nl-NL\":\"Verkooporder verzonden aantal SPLY Index\"}"
    },
    {
      "name": "TabularEditor_TranslatedDescriptions",
      "value": "{\"de-DE\":\"Abteilungen/Verkauf & Marketing/Auftragsabwicklung/Aufträge/Zeilen\",\"en-US\":\"Departments/Sales & Marketing/Order Processing/Sales Orders > Lines > Sales Order Shipped Quantity > Sales Order Shipped Quantity SPLY Index\",\"nl-NL\":\"Afdelingen/Verkoop/Orderverwerking/Verkooporders > De regels in een verkooporder > Verkooporder verzonden aantal SPLY Index\"}"
    },
    {
      "name": "TabularEditor_TranslatedDisplayFolders",
      "value": "{\"de-DE\":\"Σ SPLY Varianz\",\"en-US\":\"Σ SPLY Variance\",\"nl-NL\":\"Σ SPLY Variance\"}"
    }
  ]
}