{
  "name": "SalesOrderOutstandingQuantity_SPLY_Index_SO",
  "description": "Departments/Sales & Marketing/Order Processing/Sales Orders > Lines > Sales Order Outstanding Quantity SPLY Index",
  "expression": "DIVIDE ( [SalesOrderOutstandingQuantity_SO], [SalesOrderOutstandingQuantity_SPLY_SO] ) * 100",
  "formatString": "#,##0.0",
  "displayFolder": "Σ SPLY Variance",
  "annotations": [
    {
      "name": "TabularEditor_TranslatedNames",
      "value": "{\"de-DE\":\"Restauftragsmenge SPLY Index\",\"en-US\":\"Sales Order Outstanding Quantity SPLY Index\",\"nl-NL\":\"Verkooporder openstaand aantal SPLY Index\"}"
    },
    {
      "name": "TabularEditor_TranslatedDescriptions",
      "value": "{\"de-DE\":\"Abteilungen/Verkauf & Marketing/Auftragsabwicklung/Aufträge/Zeilen\",\"en-US\":\"Departments/Sales & Marketing/Order Processing/Sales Orders > Lines > Sales Order Outstanding Quantity > Sales Order Outstanding Quantity SPLY Index\",\"nl-NL\":\"Afdelingen/Verkoop/Orderverwerking/Verkooporders > De regels in een verkooporder > Verkooporder openstaand aantal SPLY Index\"}"
    },
    {
      "name": "TabularEditor_TranslatedDisplayFolders",
      "value": "{\"de-DE\":\"Σ SPLY Varianz\",\"en-US\":\"Σ SPLY Variance\",\"nl-NL\":\"Σ SPLY Variance\"}"
    }
  ]
}