{
  "name": "SalesOrderInvoicedQuantity_SPLY_Index_SO",
  "description": "Departments/Sales & Marketing/Order Processing/Sales Orders > Lines > Sales Order Invoiced Quantity SPLY Index",
  "expression": "DIVIDE ( [SalesOrderInvoicedQuantity_SO], [SalesOrderInvoicedQuantity_SPLY_SO] ) * 100",
  "formatString": "#,##0.0",
  "displayFolder": "Σ SPLY Variance",
  "annotations": [
    {
      "name": "TabularEditor_TranslatedNames",
      "value": "{\"de-DE\":\"Auftrage Menge fakturiert SPLY Index\",\"en-US\":\"Sales Order Invoiced Quantity SPLY Index\",\"nl-NL\":\"Verkooporder gefactureerd aantal SPLY Index\"}"
    },
    {
      "name": "TabularEditor_TranslatedDescriptions",
      "value": "{\"de-DE\":\"Abteilungen/Verkauf & Marketing/Auftragsabwicklung/Aufträge/Zeilen\",\"en-US\":\"Departments/Sales & Marketing/Order Processing/Sales Orders > Lines > Sales Order Invoiced Quantity > Sales Order Invoiced Quantity SPLY Index\",\"nl-NL\":\"Afdelingen/Verkoop/Orderverwerking/Verkooporders > De regels in een verkooporder > Verkooporder gefactureerd aantal SPLY Index\"}"
    },
    {
      "name": "TabularEditor_TranslatedDisplayFolders",
      "value": "{\"de-DE\":\"Σ SPLY Varianz\",\"en-US\":\"Σ SPLY Variance\",\"nl-NL\":\"Σ SPLY Variance\"}"
    }
  ]
}