{
  "name": "SalesOrderShippedNotInvoicedQuantity_YTD_Variance_SO",
  "description": "Departments/Sales & Marketing/Order Processing/Sales Orders > Lines > Sales Order Shipped Not Invoiced Quantity YTD Variance",
  "expression": "[SalesOrderShippedNotInvoicedQuantity_YTD_SO] - [SalesOrderShippedNotInvoicedQuantity_LYTD_SO]",
  "formatString": "#,##0.00",
  "displayFolder": "Σ YTD Variance",
  "annotations": [
    {
      "name": "TabularEditor_TranslatedNames",
      "value": "{\"de-DE\":\"Auftrage gelieferte, nicht fakturierte Menge YTD Varianz %\",\"en-US\":\"Sales Order Shipped Not Invoiced Quantity YTD Variance\",\"nl-NL\":\"Verkooporder verzonden niet gefactureerd aantal YTD Variance\"}"
    },
    {
      "name": "TabularEditor_TranslatedDescriptions",
      "value": "{\"de-DE\":\"Abteilungen/Verkauf & Marketing/Auftragsabwicklung/Aufträge/Zeilen\",\"en-US\":\"Departments/Sales & Marketing/Order Processing/Sales Orders > Lines > Sales Order Shipped Not Invoiced Quantity > Sales Order Shipped Not Invoiced Quantity YTD Variance\",\"nl-NL\":\"Afdelingen/Verkoop/Orderverwerking/Verkooporders > De regels in een verkooporder > Verkooporder verzonden niet gefactureerd aantal YTD Variance\"}"
    },
    {
      "name": "TabularEditor_TranslatedDisplayFolders",
      "value": "{\"de-DE\":\"Σ YTD Varianz\",\"en-US\":\"Σ YTD Variance\",\"nl-NL\":\"Σ YTD Variance\"}"
    }
  ]
}