{
  "name": "SalesOrderShippedNetWeight_SO",
  "description": "Departments/Sales & Marketing/Order Processing/Sales Orders > Lines > Sales Order Shipped Net Weight",
  "expression": "SUM ( 'factSalesOrder'[SalesOrderShippedNetWeight] )",
  "formatString": "#,##0.00",
  "annotations": [
    {
      "name": "TabularEditor_TranslatedNames",
      "value": "{\"de-DE\":\"Nettogewicht\",\"en-US\":\"Sales Order Shipped Net Weight\",\"nl-NL\":\"Verkooporder verzonden netto gewicht\"}"
    },
    {
      "name": "TabularEditor_TranslatedDescriptions",
      "value": "{\"de-DE\":\"Abteilungen/Verkauf & Marketing/Auftragsabwicklung/Aufträge/Zeilen\",\"en-US\":\"Departments/Sales & Marketing/Order Processing/Sales Orders > Lines > Sales Order Shipped Net Weight > Sales Order Shipped Net Weight\",\"nl-NL\":\"Afdelingen/Verkoop/Orderverwerking/Verkooporders > De regels in een verkooporder > Verkooporder verzonden netto gewicht\"}"
    }
  ]
}