{
  "name": "factPOSSalesEntry",
  "columns": [
    {
      "name": "CompanyID",
      "dataType": "int64",
      "isHidden": true,
      "sourceColumn": "CompanyID",
      "sourceProviderType": "int"
    },
    {
      "name": "StoreID",
      "dataType": "int64",
      "isHidden": true,
      "sourceColumn": "StoreID",
      "sourceProviderType": "int"
    },
    {
      "name": "POSTerminalID",
      "dataType": "int64",
      "isHidden": true,
      "sourceColumn": "POSTerminalID",
      "sourceProviderType": "int"
    },
    {
      "name": "StaffID",
      "dataType": "int64",
      "isHidden": true,
      "sourceColumn": "StaffID",
      "sourceProviderType": "int"
    },
    {
      "name": "SalesPersonID",
      "dataType": "int64",
      "isHidden": true,
      "sourceColumn": "SalesPersonID",
      "sourceProviderType": "int"
    },
    {
      "name": "DateID",
      "dataType": "int64",
      "isHidden": true,
      "sourceColumn": "DateID",
      "sourceProviderType": "int"
    },
    {
      "name": "TimeID",
      "dataType": "int64",
      "isHidden": true,
      "sourceColumn": "TimeID",
      "sourceProviderType": "int"
    },
    {
      "name": "IsReturnSale",
      "dataType": "int64",
      "isHidden": true,
      "sourceColumn": "IsReturnSale",
      "sourceProviderType": "int",
      "annotations": [
        {
          "name": "TabularEditor_TranslatedNames",
          "value": "{\"en-US\":\"IsReturnSale\",\"nl-NL\":\"IsReturnSale\"}"
        }
      ]
    },
    {
      "name": "ItemNumberScanned",
      "dataType": "int64",
      "isHidden": true,
      "sourceColumn": "ItemNumberScanned",
      "sourceProviderType": "int",
      "annotations": [
        {
          "name": "TabularEditor_TranslatedNames",
          "value": "{\"en-US\":\"ItemNumberScanned\",\"nl-NL\":\"ItemNumberScanned\"}"
        }
      ]
    },
    {
      "name": "KeyboardItemEntry",
      "dataType": "int64",
      "isHidden": true,
      "sourceColumn": "KeyboardItemEntry",
      "sourceProviderType": "int",
      "annotations": [
        {
          "name": "TabularEditor_TranslatedNames",
          "value": "{\"en-US\":\"KeyboardItemEntry\",\"nl-NL\":\"KeyboardItemEntry\"}"
        }
      ]
    },
    {
      "name": "PriceBarcode",
      "dataType": "int64",
      "isHidden": true,
      "sourceColumn": "PriceBarcode",
      "sourceProviderType": "int",
      "annotations": [
        {
          "name": "TabularEditor_TranslatedNames",
          "value": "{\"en-US\":\"PriceBarcode\",\"nl-NL\":\"PriceBarcode\"}"
        }
      ]
    },
    {
      "name": "WeightManuallyEntered",
      "dataType": "int64",
      "isHidden": true,
      "sourceColumn": "WeightManuallyEntered",
      "sourceProviderType": "int",
      "annotations": [
        {
          "name": "TabularEditor_TranslatedNames",
          "value": "{\"en-US\":\"WeightManuallyEntered\",\"nl-NL\":\"WeightManuallyEntered\"}"
        }
      ]
    },
    {
      "name": "ScaleItem",
      "dataType": "int64",
      "isHidden": true,
      "sourceColumn": "ScaleItem",
      "sourceProviderType": "int",
      "annotations": [
        {
          "name": "TabularEditor_TranslatedNames",
          "value": "{\"en-US\":\"ScaleItem\",\"nl-NL\":\"ScaleItem\"}"
        }
      ]
    },
    {
      "name": "WeightItem",
      "dataType": "int64",
      "isHidden": true,
      "sourceColumn": "WeightItem",
      "sourceProviderType": "int",
      "annotations": [
        {
          "name": "TabularEditor_TranslatedNames",
          "value": "{\"en-US\":\"WeightItem\",\"nl-NL\":\"WeightItem\"}"
        }
      ]
    },
    {
      "name": "SerialLotNoNotValid",
      "dataType": "int64",
      "isHidden": true,
      "sourceColumn": "SerialLotNoNotValid",
      "sourceProviderType": "int",
      "annotations": [
        {
          "name": "TabularEditor_TranslatedNames",
          "value": "{\"en-US\":\"SerialLotNoNotValid\",\"nl-NL\":\"SerialLotNoNotValid\"}"
        }
      ]
    },
    {
      "name": "PriceChange",
      "dataType": "int64",
      "isHidden": true,
      "sourceColumn": "PriceChange",
      "sourceProviderType": "int",
      "annotations": [
        {
          "name": "TabularEditor_TranslatedNames",
          "value": "{\"en-US\":\"PriceChange\",\"nl-NL\":\"PriceChange\"}"
        }
      ]
    },
    {
      "name": "LineWasDiscounted",
      "dataType": "int64",
      "isHidden": true,
      "sourceColumn": "LineWasDiscounted",
      "sourceProviderType": "int",
      "annotations": [
        {
          "name": "TabularEditor_TranslatedNames",
          "value": "{\"en-US\":\"LineWasDiscounted\",\"nl-NL\":\"LineWasDiscounted\"}"
        }
      ]
    },
    {
      "name": "DealLine",
      "dataType": "int64",
      "isHidden": true,
      "sourceColumn": "DealLine",
      "sourceProviderType": "int",
      "annotations": [
        {
          "name": "TabularEditor_TranslatedNames",
          "value": "{\"en-US\":\"DealLine\",\"nl-NL\":\"DealLine\"}"
        }
      ]
    }
  ],
  "partitions": [
    {
      "name": "POSSalesEntry",
      "source": {
        "type": "query",
        "query": "SELECT * FROM tabular.factPOSSalesEntry",
        "dataSource": "Birds"
      },
      "annotations": [
        {
          "name": "TabularEditor_TableSchema",
          "value": "{\"Name\":\"POSSalesEntry\",\"Schema\":\"fact\",\"Database\":\"Birds-lsretail\",\"IncludedColumns\":[\"StageID\",\"CompanyID\",\"DataConnectionID\",\"ComponentExecutionID\",\"ExecutionFlag\",\"StoreID\",\"POSTerminalID\",\"StaffID\",\"SalesPersonID\",\"DateID\",\"TimeID\",\"POSReceiptID\",\"IsReturnSale\",\"ItemNumberScanned\",\"KeyboardItemEntry\",\"PriceBarcode\",\"WeightManuallyEntered\",\"ScaleItem\",\"WeightItem\",\"SerialLotNoNotValid\",\"PriceChange\",\"LineWasDiscounted\",\"DealLine\"],\"SelectAll\":true}"
        }
      ]
    }
  ],
  "annotations": [
    {
      "name": "Postfix",
      "value": "PSE"
    },
    {
      "name": "TabularEditor_TranslatedNames",
      "value": "{\"en-US\":\"Σ POS Sales Entry\",\"nl-NL\":\"Σ POS Verkoopposten\"}"
    },
    {
      "name": "TabularEditor_TranslatedDescriptions",
      "value": "{\"en-US\":\"POS Sales Entry\",\"nl-NL\":\"POS Verkoopposten\"}"
    },
    {
      "name": "TabularEditor_Relationships",
      "value": [
        "[",
        "  {",
        "    \"fromTable\": \"factPOSSalesEntry\",",
        "    \"fromColumn\": \"CompanyID\",",
        "    \"toTable\": \"Company\",",
        "    \"toColumn\": \"CompanyID\"",
        "  },",
        "  {",
        "    \"fromTable\": \"factPOSSalesEntry\",",
        "    \"fromColumn\": \"DateID\",",
        "    \"toTable\": \"Date\",",
        "    \"toColumn\": \"DateID\"",
        "  },",
        "  {",
        "    \"fromTable\": \"factPOSSalesEntry\",",
        "    \"fromColumn\": \"POSTerminalID\",",
        "    \"toTable\": \"POSTerminal\",",
        "    \"toColumn\": \"POSTerminalID\"",
        "  },",
        "  {",
        "    \"fromTable\": \"factPOSSalesEntry\",",
        "    \"fromColumn\": \"StaffID\",",
        "    \"toTable\": \"Staff\",",
        "    \"toColumn\": \"StaffID\"",
        "  },",
        "  {",
        "    \"fromTable\": \"factPOSSalesEntry\",",
        "    \"fromColumn\": \"StoreID\",",
        "    \"toTable\": \"Store\",",
        "    \"toColumn\": \"StoreID\"",
        "  },",
        "  {",
        "    \"fromTable\": \"factPOSSalesEntry\",",
        "    \"fromColumn\": \"TimeID\",",
        "    \"toTable\": \"Time\",",
        "    \"toColumn\": \"TimeID\"",
        "  }",
        "]"
      ]
    }
  ]
}