{
  "connection_types": [],
  "tables": [
    {
      "table_identifier": "dbo.Posted Statement",
      "columns": [
        {
          "column_name": "Calculated Date",
          "data_type": "datetime",
          "character_maximum_length": 0,
          "numeric_precision": 0,
          "numeric_scale": 0,
          "nullable": false,
          "business_key": false
        },
        {
          "column_name": "Calculated Time",
          "data_type": "datetime",
          "character_maximum_length": 0,
          "numeric_precision": 0,
          "numeric_scale": 0,
          "nullable": false,
          "business_key": false
        },
        {
          "column_name": "Closing Method",
          "data_type": "int",
          "character_maximum_length": 0,
          "numeric_precision": 10,
          "numeric_scale": 0,
          "nullable": false,
          "business_key": false
        },
        {
          "column_name": "Date",
          "data_type": "datetime",
          "character_maximum_length": 0,
          "numeric_precision": 0,
          "numeric_scale": 0,
          "nullable": false,
          "business_key": false
        },
        {
          "column_name": "Method",
          "data_type": "int",
          "character_maximum_length": 0,
          "numeric_precision": 10,
          "numeric_scale": 0,
          "nullable": false,
          "business_key": false
        },
        {
          "column_name": "No_",
          "data_type": "nvarchar",
          "character_maximum_length": 20,
          "numeric_precision": 0,
          "numeric_scale": 0,
          "nullable": false,
          "business_key": true
        },
        {
          "column_name": "Posted Date",
          "data_type": "datetime",
          "character_maximum_length": 0,
          "numeric_precision": 0,
          "numeric_scale": 0,
          "nullable": false,
          "business_key": false
        },
        {
          "column_name": "Posted Time",
          "data_type": "datetime",
          "character_maximum_length": 0,
          "numeric_precision": 0,
          "numeric_scale": 0,
          "nullable": false,
          "business_key": false
        },
        {
          "column_name": "Posting Date",
          "data_type": "datetime",
          "character_maximum_length": 0,
          "numeric_precision": 0,
          "numeric_scale": 0,
          "nullable": false,
          "business_key": false
        },
        {
          "column_name": "Store No_",
          "data_type": "nvarchar",
          "character_maximum_length": 10,
          "numeric_precision": 0,
          "numeric_scale": 0,
          "nullable": false,
          "business_key": false
        },
        {
          "column_name": "timestamp",
          "data_type": "timestamp",
          "character_maximum_length": 0,
          "numeric_precision": 0,
          "numeric_scale": 0,
          "nullable": false,
          "business_key": false
        },
        {
          "column_name": "Trans_ Ending Date",
          "data_type": "datetime",
          "character_maximum_length": 0,
          "numeric_precision": 0,
          "numeric_scale": 0,
          "nullable": false,
          "business_key": false
        },
        {
          "column_name": "Trans_ Ending Time",
          "data_type": "datetime",
          "character_maximum_length": 0,
          "numeric_precision": 0,
          "numeric_scale": 0,
          "nullable": false,
          "business_key": false
        },
        {
          "column_name": "Trans_ Starting Date",
          "data_type": "datetime",
          "character_maximum_length": 0,
          "numeric_precision": 0,
          "numeric_scale": 0,
          "nullable": false,
          "business_key": false
        },
        {
          "column_name": "Trans_ Starting Time",
          "data_type": "datetime",
          "character_maximum_length": 0,
          "numeric_precision": 0,
          "numeric_scale": 0,
          "nullable": false,
          "business_key": false
        }
      ],
      "indexes": []
    },
    {
      "table_identifier": "dbo.Store",
      "columns": [
        {
          "column_name": "City",
          "data_type": "nvarchar",
          "character_maximum_length": 30,
          "numeric_precision": 0,
          "numeric_scale": 0,
          "nullable": false,
          "business_key": false
        },
        {
          "column_name": "Name",
          "data_type": "nvarchar",
          "character_maximum_length": 30,
          "numeric_precision": 0,
          "numeric_scale": 0,
          "nullable": false,
          "business_key": false
        },
        {
          "column_name": "No_",
          "data_type": "nvarchar",
          "character_maximum_length": 10,
          "numeric_precision": 0,
          "numeric_scale": 0,
          "nullable": false,
          "business_key": true
        },
        {
          "column_name": "timestamp",
          "data_type": "timestamp",
          "character_maximum_length": 0,
          "numeric_precision": 0,
          "numeric_scale": 0,
          "nullable": false,
          "business_key": false
        }
      ],
      "indexes": []
    }
  ]
}