{
  "connection_types": [],
  "tables": [
    {
      "table_identifier": "dbo.POS Data Entry",
      "columns": [
        {
          "column_name": "Amount",
          "data_type": "decimal",
          "character_maximum_length": 0,
          "numeric_precision": 38,
          "numeric_scale": 20,
          "nullable": false,
          "business_key": false
        },
        {
          "column_name": "Applied",
          "data_type": "tinyint",
          "character_maximum_length": 0,
          "numeric_precision": 3,
          "numeric_scale": 0,
          "nullable": false,
          "business_key": false
        },
        {
          "column_name": "Applied Amount",
          "data_type": "decimal",
          "character_maximum_length": 0,
          "numeric_precision": 38,
          "numeric_scale": 20,
          "nullable": false,
          "business_key": false
        },
        {
          "column_name": "Applied by Line No_",
          "data_type": "int",
          "character_maximum_length": 0,
          "numeric_precision": 10,
          "numeric_scale": 0,
          "nullable": false,
          "business_key": false
        },
        {
          "column_name": "Applied by Receipt No_",
          "data_type": "nvarchar",
          "character_maximum_length": 20,
          "numeric_precision": 0,
          "numeric_scale": 0,
          "nullable": false,
          "business_key": false
        },
        {
          "column_name": "Contact No_",
          "data_type": "nvarchar",
          "character_maximum_length": 20,
          "numeric_precision": 0,
          "numeric_scale": 0,
          "nullable": false,
          "business_key": false
        },
        {
          "column_name": "Created by Line No_",
          "data_type": "int",
          "character_maximum_length": 0,
          "numeric_precision": 10,
          "numeric_scale": 0,
          "nullable": false,
          "business_key": false
        },
        {
          "column_name": "Created by Receipt No_",
          "data_type": "nvarchar",
          "character_maximum_length": 20,
          "numeric_precision": 0,
          "numeric_scale": 0,
          "nullable": false,
          "business_key": false
        },
        {
          "column_name": "Created in Store No_",
          "data_type": "nvarchar",
          "character_maximum_length": 10,
          "numeric_precision": 0,
          "numeric_scale": 0,
          "nullable": false,
          "business_key": false
        },
        {
          "column_name": "Data Entry Balance",
          "data_type": "decimal",
          "character_maximum_length": 0,
          "numeric_precision": 38,
          "numeric_scale": 20,
          "nullable": false,
          "business_key": false
        },
        {
          "column_name": "Data Entry Expiring Date",
          "data_type": "datetime",
          "character_maximum_length": 0,
          "numeric_precision": 0,
          "numeric_scale": 0,
          "nullable": false,
          "business_key": false
        },
        {
          "column_name": "Date Applied",
          "data_type": "datetime",
          "character_maximum_length": 0,
          "numeric_precision": 0,
          "numeric_scale": 0,
          "nullable": false,
          "business_key": false
        },
        {
          "column_name": "Date Created",
          "data_type": "datetime",
          "character_maximum_length": 0,
          "numeric_precision": 0,
          "numeric_scale": 0,
          "nullable": false,
          "business_key": false
        },
        {
          "column_name": "Entry Code",
          "data_type": "nvarchar",
          "character_maximum_length": 20,
          "numeric_precision": 0,
          "numeric_scale": 0,
          "nullable": false,
          "business_key": true
        },
        {
          "column_name": "Entry Type",
          "data_type": "nvarchar",
          "character_maximum_length": 10,
          "numeric_precision": 0,
          "numeric_scale": 0,
          "nullable": false,
          "business_key": true
        },
        {
          "column_name": "Expiring Date",
          "data_type": "datetime",
          "character_maximum_length": 0,
          "numeric_precision": 0,
          "numeric_scale": 0,
          "nullable": false,
          "business_key": false
        },
        {
          "column_name": "Replication Counter",
          "data_type": "int",
          "character_maximum_length": 0,
          "numeric_precision": 10,
          "numeric_scale": 0,
          "nullable": false,
          "business_key": false
        },
        {
          "column_name": "Reserverd By POS No_",
          "data_type": "nvarchar",
          "character_maximum_length": 10,
          "numeric_precision": 0,
          "numeric_scale": 0,
          "nullable": false,
          "business_key": false
        },
        {
          "column_name": "timestamp",
          "data_type": "timestamp",
          "character_maximum_length": 0,
          "numeric_precision": 0,
          "numeric_scale": 0,
          "nullable": false,
          "business_key": false
        },
        {
          "column_name": "Voucher Remaining Amount (Int)",
          "data_type": "decimal",
          "character_maximum_length": 0,
          "numeric_precision": 38,
          "numeric_scale": 20,
          "nullable": false,
          "business_key": false
        },
        {
          "column_name": "$systemId",
          "data_type": "uniqueidentifier",
          "character_maximum_length": 0,
          "numeric_precision": 0,
          "numeric_scale": 0,
          "nullable": false,
          "business_key": false
        }
      ],
      "indexes": []
    },
    {
      "table_identifier": "dbo.POS Data Entry Type",
      "columns": [
        {
          "column_name": "Barcode Mask Entry No",
          "data_type": "int",
          "character_maximum_length": 0,
          "numeric_precision": 10,
          "numeric_scale": 0,
          "nullable": false,
          "business_key": false
        },
        {
          "column_name": "Check Amount",
          "data_type": "tinyint",
          "character_maximum_length": 0,
          "numeric_precision": 3,
          "numeric_scale": 0,
          "nullable": false,
          "business_key": false
        },
        {
          "column_name": "Code",
          "data_type": "nvarchar",
          "character_maximum_length": 10,
          "numeric_precision": 0,
          "numeric_scale": 0,
          "nullable": false,
          "business_key": true
        },
        {
          "column_name": "Create Barcode",
          "data_type": "tinyint",
          "character_maximum_length": 0,
          "numeric_precision": 3,
          "numeric_scale": 0,
          "nullable": false,
          "business_key": false
        },
        {
          "column_name": "Create Voucher Entry",
          "data_type": "tinyint",
          "character_maximum_length": 0,
          "numeric_precision": 3,
          "numeric_scale": 0,
          "nullable": false,
          "business_key": false
        },
        {
          "column_name": "Data Entry Only Allowed",
          "data_type": "tinyint",
          "character_maximum_length": 0,
          "numeric_precision": 3,
          "numeric_scale": 0,
          "nullable": false,
          "business_key": false
        },
        {
          "column_name": "Description",
          "data_type": "nvarchar",
          "character_maximum_length": 30,
          "numeric_precision": 0,
          "numeric_scale": 0,
          "nullable": false,
          "business_key": false
        },
        {
          "column_name": "Expiration Formula",
          "data_type": "varchar",
          "character_maximum_length": 32,
          "numeric_precision": 0,
          "numeric_scale": 0,
          "nullable": false,
          "business_key": false
        },
        {
          "column_name": "Expiration Policy",
          "data_type": "tinyint",
          "character_maximum_length": 0,
          "numeric_precision": 3,
          "numeric_scale": 0,
          "nullable": false,
          "business_key": false
        },
        {
          "column_name": "No_ Series",
          "data_type": "nvarchar",
          "character_maximum_length": 10,
          "numeric_precision": 0,
          "numeric_scale": 0,
          "nullable": false,
          "business_key": false
        },
        {
          "column_name": "Numbering",
          "data_type": "int",
          "character_maximum_length": 0,
          "numeric_precision": 10,
          "numeric_scale": 0,
          "nullable": false,
          "business_key": false
        },
        {
          "column_name": "One Time Redemption",
          "data_type": "tinyint",
          "character_maximum_length": 0,
          "numeric_precision": 3,
          "numeric_scale": 0,
          "nullable": false,
          "business_key": false
        },
        {
          "column_name": "Print Remaining Balance",
          "data_type": "tinyint",
          "character_maximum_length": 0,
          "numeric_precision": 3,
          "numeric_scale": 0,
          "nullable": false,
          "business_key": false
        },
        {
          "column_name": "Refill",
          "data_type": "tinyint",
          "character_maximum_length": 0,
          "numeric_precision": 3,
          "numeric_scale": 0,
          "nullable": false,
          "business_key": false
        },
        {
          "column_name": "timestamp",
          "data_type": "timestamp",
          "character_maximum_length": 0,
          "numeric_precision": 0,
          "numeric_scale": 0,
          "nullable": false,
          "business_key": false
        },
        {
          "column_name": "Use Full Remaining Balance",
          "data_type": "tinyint",
          "character_maximum_length": 0,
          "numeric_precision": 3,
          "numeric_scale": 0,
          "nullable": false,
          "business_key": false
        },
        {
          "column_name": "$systemId",
          "data_type": "uniqueidentifier",
          "character_maximum_length": 0,
          "numeric_precision": 0,
          "numeric_scale": 0,
          "nullable": false,
          "business_key": false
        }
      ],
      "indexes": []
    },
    {
      "table_identifier": "dbo.Voucher Entries",
      "columns": [
        {
          "column_name": "Amount",
          "data_type": "decimal",
          "character_maximum_length": 0,
          "numeric_precision": 38,
          "numeric_scale": 20,
          "nullable": false,
          "business_key": false
        },
        {
          "column_name": "Date",
          "data_type": "datetime",
          "character_maximum_length": 0,
          "numeric_precision": 0,
          "numeric_scale": 0,
          "nullable": false,
          "business_key": false
        },
        {
          "column_name": "Entry Type",
          "data_type": "int",
          "character_maximum_length": 0,
          "numeric_precision": 10,
          "numeric_scale": 0,
          "nullable": false,
          "business_key": false
        },
        {
          "column_name": "Line No_",
          "data_type": "int",
          "character_maximum_length": 0,
          "numeric_precision": 10,
          "numeric_scale": 0,
          "nullable": false,
          "business_key": true
        },
        {
          "column_name": "One Time Redemption",
          "data_type": "tinyint",
          "character_maximum_length": 0,
          "numeric_precision": 3,
          "numeric_scale": 0,
          "nullable": false,
          "business_key": false
        },
        {
          "column_name": "POS Terminal No_",
          "data_type": "nvarchar",
          "character_maximum_length": 10,
          "numeric_precision": 0,
          "numeric_scale": 0,
          "nullable": false,
          "business_key": true
        },
        {
          "column_name": "Receipt Number",
          "data_type": "nvarchar",
          "character_maximum_length": 20,
          "numeric_precision": 0,
          "numeric_scale": 0,
          "nullable": false,
          "business_key": true
        },
        {
          "column_name": "Remaining Amount Now",
          "data_type": "decimal",
          "character_maximum_length": 0,
          "numeric_precision": 38,
          "numeric_scale": 20,
          "nullable": false,
          "business_key": false
        },
        {
          "column_name": "Replication Counter",
          "data_type": "int",
          "character_maximum_length": 0,
          "numeric_precision": 10,
          "numeric_scale": 0,
          "nullable": false,
          "business_key": false
        },
        {
          "column_name": "Store No_",
          "data_type": "nvarchar",
          "character_maximum_length": 10,
          "numeric_precision": 0,
          "numeric_scale": 0,
          "nullable": false,
          "business_key": true
        },
        {
          "column_name": "Time",
          "data_type": "datetime",
          "character_maximum_length": 0,
          "numeric_precision": 0,
          "numeric_scale": 0,
          "nullable": false,
          "business_key": false
        },
        {
          "column_name": "timestamp",
          "data_type": "timestamp",
          "character_maximum_length": 0,
          "numeric_precision": 0,
          "numeric_scale": 0,
          "nullable": false,
          "business_key": false
        },
        {
          "column_name": "Transaction No_",
          "data_type": "int",
          "character_maximum_length": 0,
          "numeric_precision": 10,
          "numeric_scale": 0,
          "nullable": false,
          "business_key": true
        },
        {
          "column_name": "Unposted",
          "data_type": "tinyint",
          "character_maximum_length": 0,
          "numeric_precision": 3,
          "numeric_scale": 0,
          "nullable": false,
          "business_key": false
        },
        {
          "column_name": "Voided",
          "data_type": "tinyint",
          "character_maximum_length": 0,
          "numeric_precision": 3,
          "numeric_scale": 0,
          "nullable": false,
          "business_key": false
        },
        {
          "column_name": "Voucher No_",
          "data_type": "nvarchar",
          "character_maximum_length": 20,
          "numeric_precision": 0,
          "numeric_scale": 0,
          "nullable": false,
          "business_key": false
        },
        {
          "column_name": "Voucher Type",
          "data_type": "nvarchar",
          "character_maximum_length": 10,
          "numeric_precision": 0,
          "numeric_scale": 0,
          "nullable": false,
          "business_key": false
        },
        {
          "column_name": "Write Off Amount",
          "data_type": "decimal",
          "character_maximum_length": 0,
          "numeric_precision": 38,
          "numeric_scale": 20,
          "nullable": false,
          "business_key": false
        },
        {
          "column_name": "$systemId",
          "data_type": "uniqueidentifier",
          "character_maximum_length": 0,
          "numeric_precision": 0,
          "numeric_scale": 0,
          "nullable": false,
          "business_key": false
        }
      ],
      "indexes": []
    }
  ]
}