{
  "name": "PurchaseReceivedQuantity_YTD_Index_PILE",
  "description": "Received Quantity  / Received Quantity ",
  "expression": "DIVIDE ( [ReceivedQuantity_YTD_PILE], [ReceivedQuantity_LYTD_PILE] ) * 100",
  "formatString": "#,##0.00",
  "displayFolder": "Σ YTD vs LYTD",
  "annotations": [
    {
      "name": "TabularEditor_TranslatedNames",
      "value": "{\"de-DE\":\"Wareneingangsmenge YTD Index\",\"en-US\":\"Purchase Received Quantity YTD Index\",\"nl-NL\":\"Ontvangen aantal YTD Index\"}"
    },
    {
      "name": "TabularEditor_TranslatedDescriptions",
      "value": "{\"de-DE\":\"Wareneingangsmenge - Wareneingangsmenge\",\"en-US\":\"Received Quantity  / Received Quantity \",\"nl-NL\":\"Ontvangen aantal  / Ontvangen aantal \"}"
    },
    {
      "name": "TabularEditor_TranslatedDisplayFolders",
      "value": "{\"de-DE\":\"Σ YTD vs LYTD\",\"en-US\":\"Σ YTD vs LYTD\"}"
    }
  ]
}