{
  "name": "CustomerInvoiceDiscountAmount_YTD_Variance_PTSE",
  "expression": "[CustomerInvoiceDiscountAmount_YTD_PTSE] - [CustomerInvoiceDiscountAmount_LYTD_PTSE]",
  "formatString": "#,##0.00",
  "displayFolder": "Σ YTD Variance",
  "annotations": [
    {
      "name": "TabularEditor_TranslatedNames",
      "value": "{\"en-US\":\"Customer Invoice Discount Amount YTD Variance\",\"nl-NL\":\"Klant factuurkorting YTD Variance\"}"
    },
    {
      "name": "TabularEditor_TranslatedDisplayFolders",
      "value": "{\"en-US\":\"Σ YTD Variance\",\"nl-NL\":\"Σ YTD Variance\"}"
    }
  ]
}