{
  "name": "CustomerInvoiceDiscountAmount_PCY_PTSE",
  "expression": "SUM ( 'factPOSTransactionSalesEntry'[CustomerInvoiceDiscountAmount_PCY] )",
  "formatString": "#,##0.00",
  "displayFolder": "Σ Posted Currency",
  "annotations": [
    {
      "name": "TabularEditor_TranslatedNames",
      "value": "{\"en-US\":\"CustomerInvoiceDiscountAmount_PCY\",\"nl-NL\":\"CustomerInvoiceDiscountAmount_PCY\"}"
    }
  ]
}