{
  "name": "DiscountAmount_PCY_PTSE",
  "expression": "SUM ( 'factPOSTransactionSalesEntry'[DiscountAmount_PCY] )",
  "formatString": "#,##0.00",
  "displayFolder": "Σ Posted Currency",
  "annotations": [
    {
      "name": "TabularEditor_TranslatedNames",
      "value": "{\"en-US\":\"DiscountAmount_PCY\",\"nl-NL\":\"DiscountAmount_PCY\"}"
    }
  ]
}