{
  "name": "DiscountAmount_SPLY_Variance%_PTSE",
  "expression": "DIVIDE ( [DiscountAmount_PTSE] - [DiscountAmount_SPLY_PTSE], [DiscountAmount_SPLY_PTSE] )",
  "formatString": "#,##0.0 %",
  "displayFolder": "Σ SPLY Variance",
  "annotations": [
    {
      "name": "TabularEditor_TranslatedNames",
      "value": "{\"en-US\":\"Discount Amount SPLY Variance %\",\"nl-NL\":\"Kortingsbedrag SPLY Variance %\"}"
    },
    {
      "name": "TabularEditor_TranslatedDisplayFolders",
      "value": "{\"en-US\":\"Σ SPLY Variance\",\"nl-NL\":\"Σ SPLY Variance\"}"
    }
  ]
}