{
  "name": "GrossAmountInclVAT_YTD_Variance_PTSE",
  "expression": "[GrossAmountInclVAT_YTD_PTSE] - [GrossAmountInclVAT_LYTD_PTSE]",
  "formatString": "#,##0.00",
  "displayFolder": "Σ YTD Variance",
  "annotations": [
    {
      "name": "TabularEditor_TranslatedNames",
      "value": "{\"en-US\":\"Gross Amount Incl VAT YTD Variance\",\"nl-NL\":\"Bruto bedrag incl btw YTD Variance\"}"
    },
    {
      "name": "TabularEditor_TranslatedDisplayFolders",
      "value": "{\"en-US\":\"Σ YTD Variance\",\"nl-NL\":\"Σ YTD Variance\"}"
    }
  ]
}