{
  "name": "NetAmountPerSqmtr_PTSE",
  "expression": [
    "DIVIDE (",
    "    [NetSalesAmountInclVAT_PTSE],",
    "    SUM ( 'StorePlan'[StoreSizeSquareMeters] )",
    ")"
  ],
  "formatString": "#,##0.00",
  "annotations": [
    {
      "name": "TabularEditor_TranslatedNames",
      "value": "{\"en-US\":\"Net Sales Amount Per Sqr Mtr\",\"nl-NL\":\"Netto verkoopbedrag per m2\"}"
    }
  ]
}