{
  "name": "NetSalesAmount_YTD_Index_PTSE",
  "expression": "DIVIDE ( [NetSalesAmount_YTD_PTSE], [NetSalesAmount_LYTD_PTSE] ) * 100",
  "formatString": "#,##0.0",
  "displayFolder": "Σ YTD Variance",
  "annotations": [
    {
      "name": "TabularEditor_TranslatedNames",
      "value": "{\"en-US\":\"Net Sales Amount YTD Index\",\"nl-NL\":\"Netto verkoopbedrag YTD Index\"}"
    },
    {
      "name": "TabularEditor_TranslatedDisplayFolders",
      "value": "{\"en-US\":\"Σ YTD Variance\",\"nl-NL\":\"Σ YTD Variance\"}"
    }
  ]
}