{
  "name": "TotalDiscountAmount_SPLY_Index_PTSE",
  "expression": "DIVIDE ( [TotalDiscountAmount_PTSE], [TotalDiscountAmount_SPLY_PTSE] ) * 100",
  "formatString": "#,##0.0",
  "displayFolder": "Σ SPLY Variance",
  "annotations": [
    {
      "name": "TabularEditor_TranslatedNames",
      "value": "{\"en-US\":\"Total Discount Amount SPLY Index\",\"nl-NL\":\"Totaal kortingsbedrag SPLY Index\"}"
    },
    {
      "name": "TabularEditor_TranslatedDisplayFolders",
      "value": "{\"en-US\":\"Σ SPLY Variance\",\"nl-NL\":\"Σ SPLY Variance\"}"
    }
  ]
}