{
  "name": "VATAmount_YTD_Index_PTSE",
  "expression": "DIVIDE ( [VATAmount_YTD_PTSE], [VATAmount_LYTD_PTSE] ) * 100",
  "formatString": "#,##0.0",
  "displayFolder": "Σ YTD Variance",
  "annotations": [
    {
      "name": "TabularEditor_TranslatedNames",
      "value": "{\"en-US\":\"VAT Amount YTD Index\",\"nl-NL\":\"BTW bedrag YTD Index\"}"
    },
    {
      "name": "TabularEditor_TranslatedDisplayFolders",
      "value": "{\"en-US\":\"Σ YTD Variance\",\"nl-NL\":\"Σ YTD Variance\"}"
    }
  ]
}