{
  "name": "VATAmount_SPLY_Index_PTSE",
  "expression": "DIVIDE ( [VATAmount_PTSE], [VATAmount_SPLY_PTSE] ) * 100",
  "formatString": "#,##0.0",
  "displayFolder": "Σ SPLY Variance",
  "annotations": [
    {
      "name": "TabularEditor_TranslatedNames",
      "value": "{\"en-US\":\"VAT Amount SPLY Index\",\"nl-NL\":\"BTW bedrag SPLY Index\"}"
    },
    {
      "name": "TabularEditor_TranslatedDisplayFolders",
      "value": "{\"en-US\":\"Σ SPLY Variance\",\"nl-NL\":\"Σ SPLY Variance\"}"
    }
  ]
}