{
  "base_name": "Time",
  "category": "dim",
  "database_object": {
    "table_identifier": "dim.Time",
    "columns": [
      {
        "column_name": "TimeID",
        "data_type": "int",
        "character_maximum_length": null,
        "numeric_precision": 10,
        "numeric_scale": 0,
        "nullable": false,
        "business_key": false
      },
      {
        "column_name": "ExecutionTimestamp",
        "data_type": "timestamp",
        "character_maximum_length": null,
        "numeric_precision": null,
        "numeric_scale": null,
        "nullable": false,
        "business_key": false
      },
      {
        "column_name": "ComponentExecutionID",
        "data_type": "int",
        "character_maximum_length": null,
        "numeric_precision": 10,
        "numeric_scale": 0,
        "nullable": false,
        "business_key": false
      },
      {
        "column_name": "TimeStrSecond",
        "data_type": "nvarchar",
        "character_maximum_length": 255,
        "numeric_precision": null,
        "numeric_scale": null,
        "nullable": false,
        "business_key": false
      },
      {
        "column_name": "Time",
        "data_type": "int",
        "character_maximum_length": null,
        "numeric_precision": 10,
        "numeric_scale": 0,
        "nullable": false,
        "business_key": false
      },
      {
        "column_name": "Hours",
        "data_type": "int",
        "character_maximum_length": null,
        "numeric_precision": 10,
        "numeric_scale": 0,
        "nullable": false,
        "business_key": false
      },
      {
        "column_name": "Quarters",
        "data_type": "int",
        "character_maximum_length": null,
        "numeric_precision": 10,
        "numeric_scale": 0,
        "nullable": false,
        "business_key": false
      },
      {
        "column_name": "Minutes",
        "data_type": "int",
        "character_maximum_length": null,
        "numeric_precision": 10,
        "numeric_scale": 0,
        "nullable": false,
        "business_key": false
      },
      {
        "column_name": "Seconds",
        "data_type": "int",
        "character_maximum_length": null,
        "numeric_precision": 10,
        "numeric_scale": 0,
        "nullable": false,
        "business_key": false
      },
      {
        "column_name": "TimeStrMinutes",
        "data_type": "nvarchar",
        "character_maximum_length": 255,
        "numeric_precision": null,
        "numeric_scale": null,
        "nullable": false,
        "business_key": false
      },
      {
        "column_name": "HourIntervalStr",
        "data_type": "nvarchar",
        "character_maximum_length": 255,
        "numeric_precision": null,
        "numeric_scale": null,
        "nullable": false,
        "business_key": false
      },
      {
        "column_name": "QuarterIntervalStr",
        "data_type": "nvarchar",
        "character_maximum_length": 255,
        "numeric_precision": null,
        "numeric_scale": null,
        "nullable": false,
        "business_key": false
      }
    ],
    "indexes": []
  },
  "load_procedures": [],
  "views": null,
  "queries": [
    {
      "name": "default",
      "select_file_path": "default.sql",
      "sequence": 200,
      "aliases": []
    }
  ],
  "query_columns": [
    {
      "column_sequence": 1,
      "column_name": "TimeID",
      "data_type_full": "int",
      "type": "attribute"
    },
    {
      "column_sequence": 2,
      "column_name": "Time",
      "data_type_full": "int",
      "type": "attribute"
    },
    {
      "column_sequence": 3,
      "column_name": "Hours",
      "data_type_full": "int",
      "type": "attribute"
    },
    {
      "column_sequence": 4,
      "column_name": "Quarters",
      "data_type_full": "int",
      "type": "attribute"
    },
    {
      "column_sequence": 5,
      "column_name": "Minutes",
      "data_type_full": "int",
      "type": "attribute"
    },
    {
      "column_sequence": 6,
      "column_name": "Seconds",
      "data_type_full": "int",
      "type": "attribute"
    },
    {
      "column_sequence": 7,
      "column_name": "TimeStrMinutes",
      "data_type_full": "nvarchar(255)",
      "type": "attribute"
    },
    {
      "column_sequence": 8,
      "column_name": "TimeStrSecond",
      "data_type_full": "nvarchar(255)",
      "type": "business_key"
    },
    {
      "column_sequence": 9,
      "column_name": "HourIntervalStr",
      "data_type_full": "nvarchar(255)",
      "type": "attribute"
    },
    {
      "column_sequence": 10,
      "column_name": "QuarterIntervalStr",
      "data_type_full": "nvarchar(255)",
      "type": "attribute"
    }
  ],
  "dimensions": [],
  "load_type": 0,
  "manual_mode": false,
  "is_customized": false
}