{
  "name": "SalesBudget",
  "columns": [
    {
      "name": "SalesBudgetID",
      "dataType": "int64",
      "description": "Unique key for dimension Sales Budget",
      "isHidden": true,
      "sourceColumn": "SalesBudgetID",
      "sourceProviderType": "int",
      "annotations": [
        {
          "name": "TabularEditor_TranslatedNames",
          "value": "{\"de-DE\":\"SalesBudgetID\",\"en-US\":\"SalesBudgetID\",\"nl-NL\":\"Salesbudgetid\"}"
        },
        {
          "name": "TabularEditor_TranslatedDescriptions",
          "value": "{\"de-DE\":\"Kennung für SalesBudget\",\"en-US\":\"Unique key for dimension Sales Budget\",\"nl-NL\":\"Unieke sleutel voor de de dimensie Artikelbudget\"}"
        }
      ]
    },
    {
      "name": "SalesBudgetCode",
      "dataType": "string",
      "description": "Sales > Analysis & Reporting > Sales Budgets > Name",
      "isHidden": true,
      "sourceColumn": "SalesBudgetCode",
      "sourceProviderType": "nvarchar",
      "annotations": [
        {
          "name": "TabularEditor_TranslatedNames",
          "value": "{\"de-DE\":\"Verkaufsbudgets Nr.\",\"en-US\":\"Sales Budget Code\",\"nl-NL\":\"Artikelbudgetcode\"}"
        },
        {
          "name": "TabularEditor_TranslatedDescriptions",
          "value": "{\"de-DE\":\"Abteilungen/Verkauf & Marketing/Analyse & Berichtswesen/VerkaufsBudgets\",\"en-US\":\"Sales > Analysis & Reporting > Sales Budgets > Name\",\"nl-NL\":\"Afdelingen/Verkoop/Analyse en rapportage > verkoopbudgetten\"}"
        }
      ]
    },
    {
      "name": "SalesBudgetDescription",
      "dataType": "string",
      "description": "Description of the sales budget",
      "isHidden": true,
      "sourceColumn": "SalesBudgetDescription",
      "sourceProviderType": "nvarchar",
      "annotations": [
        {
          "name": "TabularEditor_TranslatedNames",
          "value": "{\"de-DE\":\"Verkaufsbudgets Beschreibung\",\"en-US\":\"Sales Budget Desc\",\"nl-NL\":\"Artikelbudgetomschrijving\"}"
        },
        {
          "name": "TabularEditor_TranslatedDescriptions",
          "value": "{\"de-DE\":\"Abteilungen/Verkauf & Marketing/Analyse & Berichtswesen/VerkaufsBudgets\",\"en-US\":\"Description of the sales budget\",\"nl-NL\":\"Afdelingen/Verkoop/Analyse en rapportage > verkoopbudgetten\"}"
        }
      ]
    },
    {
      "name": "SalesBudgetCodeDescription",
      "dataType": "string",
      "description": "Sales > Analysis & Reporting > Sales Budgets > Description",
      "sourceColumn": "SalesBudgetCodeDescription",
      "sourceProviderType": "nvarchar",
      "annotations": [
        {
          "name": "TabularEditor_TranslatedNames",
          "value": "{\"de-DE\":\"Verkaufsbudgets Nr. Beschreibung\",\"en-US\":\"Sales Budget\",\"nl-NL\":\"Artikelbudget\"}"
        },
        {
          "name": "TabularEditor_TranslatedDescriptions",
          "value": "{\"de-DE\":\"Abteilungen/Verkauf & Marketing/Analyse & Berichtswesen/VerkaufsBudgets\",\"en-US\":\"Sales > Analysis & Reporting > Sales Budgets > Description\",\"nl-NL\":\"Afdelingen/Verkoop/Analyse en rapportage > verkoopbudgetten\"}"
        }
      ]
    }
  ],
  "partitions": [
    {
      "name": "SalesBudget",
      "source": {
        "type": "query",
        "query": "SELECT * FROM tabular.SalesBudget",
        "dataSource": "Birds"
      },
      "annotations": [
        {
          "name": "TabularEditor_TableSchema",
          "value": "{\"Name\":\"SalesBudget\",\"Schema\":\"dim\",\"Database\":\"Birds\",\"IncludedColumns\":[\"SalesBudgetID\",\"StageID\",\"CompanyID\",\"DataConnectionID\",\"ExecutionTimestamp\",\"ComponentExecutionID\",\"SalesBudgetCode\",\"SalesBudgetDescription\",\"SalesBudgetCodeDescription\"],\"SelectAll\":true}"
        }
      ]
    }
  ],
  "annotations": [
    {
      "name": "TabularEditor_TranslatedNames",
      "value": "{\"de-DE\":\"Verkaufsbudget\",\"en-US\":\"Sales Budget\",\"nl-NL\":\"Verkoopbudget\"}"
    },
    {
      "name": "TabularEditor_Relationships",
      "value": "[]"
    }
  ]
}