{
  "name": "FinancialDimensions",
  "levels": [
    {
      "name": "LevelCodeName0",
      "ordinal": 0,
      "column": "LevelCodeName0",
      "annotations": [
        {
          "name": "TabularEditor_TranslatedNames",
          "value": "{\"en-US\":\"Level 0\",\"nl-NL\":\"Niveau 0\"}"
        }
      ]
    },
    {
      "name": "LevelCodeName1",
      "ordinal": 1,
      "column": "LevelCodeName1",
      "annotations": [
        {
          "name": "TabularEditor_TranslatedNames",
          "value": "{\"en-US\":\"Level 1\",\"nl-NL\":\"Niveau 1\"}"
        }
      ]
    },
    {
      "name": "LevelCodeName2",
      "ordinal": 2,
      "column": "LevelCodeName2",
      "annotations": [
        {
          "name": "TabularEditor_TranslatedNames",
          "value": "{\"en-US\":\"Level  2\",\"nl-NL\":\"Niveau 2\"}"
        }
      ]
    },
    {
      "name": "LevelCodeName3",
      "ordinal": 3,
      "column": "LevelCodeName3",
      "annotations": [
        {
          "name": "TabularEditor_TranslatedNames",
          "value": "{\"en-US\":\"Level 3\",\"nl-NL\":\"Niveau 3\"}"
        }
      ]
    },
    {
      "name": "LevelCodeName4",
      "ordinal": 4,
      "column": "LevelCodeName4",
      "annotations": [
        {
          "name": "TabularEditor_TranslatedNames",
          "value": "{\"en-US\":\"Level 4\",\"nl-NL\":\"Niveau 4\"}"
        }
      ]
    },
    {
      "name": "DimensionValueCodeName",
      "ordinal": 5,
      "column": "DimensionValueCodeName",
      "annotations": [
        {
          "name": "TabularEditor_TranslatedNames",
          "value": "{\"en-US\":\"Dimension Value\",\"nl-NL\":\"Financiele dimensie\"}"
        }
      ]
    }
  ],
  "annotations": [
    {
      "name": "TabularEditor_TranslatedNames",
      "value": "{\"en-US\":\"Financial Dimensions\",\"nl-NL\":\"Financiele Dimensies\"}"
    }
  ]
}