{
  "name": "DifferenceSafeAmount_YTD_Index_PSS",
  "expression": "DIVIDE ( [DifferenceSafeAmount_YTD_PSS], [DifferenceSafeAmount_LYTD_PSS] ) * 100",
  "formatString": "#,##0.0",
  "displayFolder": "Σ YTD Variance",
  "annotations": [
    {
      "name": "TabularEditor_TranslatedNames",
      "value": "{\"en-US\":\"Difference Safe Amount YTD Index\",\"nl-NL\":\"Verschil kas bedrag YTD Index\"}"
    },
    {
      "name": "TabularEditor_TranslatedDisplayFolders",
      "value": "{\"en-US\":\"Σ YTD Variance\",\"nl-NL\":\"Σ YTD Variance\"}"
    }
  ]
}