{
  "name": "DifferenceSafeAmount_SPLY_Variance%_PSS",
  "expression": "DIVIDE ( [DifferenceSafeAmount_PSS] - [DifferenceSafeAmount_SPLY_PSS], [DifferenceSafeAmount_SPLY_PSS] )",
  "formatString": "#,##0.0 %",
  "displayFolder": "Σ SPLY Variance",
  "annotations": [
    {
      "name": "TabularEditor_TranslatedNames",
      "value": "{\"en-US\":\"Difference Safe Amount SPLY Variance %\",\"nl-NL\":\"Verschil kas bedrag SPLY Variance %\"}"
    },
    {
      "name": "TabularEditor_TranslatedDisplayFolders",
      "value": "{\"en-US\":\"Σ SPLY Variance\",\"nl-NL\":\"Σ SPLY Variance\"}"
    }
  ]
}