{
  "name": "TransSafeAmount_SPLY_Index_PSS",
  "expression": "DIVIDE ( [TransSafeAmount_PSS], [TransSafeAmount_SPLY_PSS] ) * 100",
  "formatString": "#,##0.0",
  "displayFolder": "Σ SPLY Variance",
  "annotations": [
    {
      "name": "TabularEditor_TranslatedNames",
      "value": "{\"en-US\":\"Transaction Safe Amount SPLY Index\",\"nl-NL\":\"Kas bedrag SPLY Index\"}"
    },
    {
      "name": "TabularEditor_TranslatedDisplayFolders",
      "value": "{\"en-US\":\"Σ SPLY Variance\",\"nl-NL\":\"Σ SPLY Variance\"}"
    }
  ]
}