{
  "name": "Lot",
  "description": "Lot",
  "columns": [
    {
      "name": "LotID",
      "dataType": "int64",
      "description": "Unique identifier for dimension Lot",
      "isHidden": true,
      "sourceColumn": "LotID",
      "sourceProviderType": "int",
      "annotations": [
        {
          "name": "TabularEditor_TranslatedNames",
          "value": "{\"de-DE\":\"LotID\",\"en-US\":\"LotID\",\"nl-NL\":\"LotID\"}"
        },
        {
          "name": "TabularEditor_TranslatedDescriptions",
          "value": "{\"de-DE\":\"Kennung für Lot\",\"en-US\":\"Inventory and Warehouse > History\",\"nl-NL\":\"Voorraad en magazijn > Historie\"}"
        }
      ]
    },
    {
      "name": "ItemCode",
      "dataType": "string",
      "isHidden": true,
      "sourceColumn": "ItemCode",
      "sourceProviderType": "nvarchar",
      "annotations": [
        {
          "name": "TabularEditor_TranslatedNames",
          "value": "{\"de-DE\":\"Artikelnr.\",\"en-US\":\"Item Code\",\"nl-NL\":\"Artikelcode\"}"
        },
        {
          "name": "TabularEditor_TranslatedDescriptions",
          "value": "{\"de-DE\":\"Abteilungen/Lager/Aufgaben/Artikelablaufverfolgung/Chargennr.Filter\",\"en-US\":\"Inventory and Warehouse > History\",\"nl-NL\":\"Voorraad en magazijn > Historie\"}"
        }
      ]
    },
    {
      "name": "LotCode",
      "dataType": "string",
      "sourceColumn": "LotCode",
      "sourceProviderType": "nvarchar",
      "annotations": [
        {
          "name": "TabularEditor_TranslatedNames",
          "value": "{\"de-DE\":\"Chargennr.\",\"en-US\":\"Lot No\",\"nl-NL\":\"Lotnr\"}"
        },
        {
          "name": "TabularEditor_TranslatedDescriptions",
          "value": "{\"de-DE\":\"Abteilungen/Lager/Aufgaben/Artikelablaufverfolgung/Chargennr.Filter\",\"en-US\":\"Inventory and Warehouse > History\",\"nl-NL\":\"Voorraad en magazijn > Historie\"}"
        }
      ]
    },
    {
      "name": "LotDescription",
      "dataType": "string",
      "isHidden": true,
      "sourceColumn": "LotDescription",
      "sourceProviderType": "nvarchar",
      "annotations": [
        {
          "name": "TabularEditor_TranslatedNames",
          "value": "{\"de-DE\":\"Chargen Beschreibung\",\"en-US\":\"Lot Desc.\",\"nl-NL\":\"Lot Oms.\"}"
        },
        {
          "name": "TabularEditor_TranslatedDescriptions",
          "value": "{\"de-DE\":\"Abteilungen/Lager/Aufgaben/Artikelablaufverfolgung/Chargennr.Filter\",\"en-US\":\"Inventory and Warehouse > History\",\"nl-NL\":\"Voorraad en magazijn > Historie\"}"
        }
      ]
    },
    {
      "name": "LotCodeDescription",
      "dataType": "string",
      "sourceColumn": "LotCodeDescription",
      "sourceProviderType": "nvarchar",
      "annotations": [
        {
          "name": "TabularEditor_TranslatedNames",
          "value": "{\"de-DE\":\"Chargennr. Beschreibung\",\"en-US\":\"Lot\",\"nl-NL\":\"Lot\"}"
        },
        {
          "name": "TabularEditor_TranslatedDescriptions",
          "value": "{\"de-DE\":\"Abteilungen/Lager/Aufgaben/Artikelablaufverfolgung/Chargennr.Filter\",\"en-US\":\"Inventory and Warehouse > History\",\"nl-NL\":\"Voorraad en magazijn > Historie\"}"
        }
      ]
    },
    {
      "name": "LotTestQuality",
      "dataType": "int64",
      "sourceColumn": "LotTestQuality",
      "sourceProviderType": "int",
      "annotations": [
        {
          "name": "TabularEditor_TranslatedNames",
          "value": "{\"de-DE\":\"Chargen Qualität\",\"en-US\":\"Test Quality\",\"nl-NL\":\"Testkwaliteit\"}"
        },
        {
          "name": "TabularEditor_TranslatedDescriptions",
          "value": "{\"de-DE\":\"Abteilungen/Lager/Aufgaben/Artikelablaufverfolgung/Chargennr.Filter\",\"en-US\":\"Inventory and Warehouse > History\",\"nl-NL\":\"Voorraad en magazijn > Historie\"}"
        }
      ]
    },
    {
      "name": "LotCertificateNumber",
      "dataType": "string",
      "sourceColumn": "LotCertificateNumber",
      "sourceProviderType": "nvarchar",
      "annotations": [
        {
          "name": "TabularEditor_TranslatedNames",
          "value": "{\"de-DE\":\"Chargen Zertifikatsnr.\",\"en-US\":\"Certificate No\",\"nl-NL\":\"Certificaatnr.\"}"
        },
        {
          "name": "TabularEditor_TranslatedDescriptions",
          "value": "{\"de-DE\":\"Abteilungen/Lager/Aufgaben/Artikelablaufverfolgung/Chargennr.Filter\",\"en-US\":\"Inventory and Warehouse > History\",\"nl-NL\":\"Voorraad en magazijn > Historie\"}"
        }
      ]
    },
    {
      "name": "LotBlocked",
      "dataType": "string",
      "sourceColumn": "LotBlocked",
      "sourceProviderType": "nvarchar",
      "annotations": [
        {
          "name": "TabularEditor_TranslatedNames",
          "value": "{\"de-DE\":\"Chargen Gesperrt\",\"en-US\":\"Blocked\",\"nl-NL\":\"Geblokkeerd\"}"
        },
        {
          "name": "TabularEditor_TranslatedDescriptions",
          "value": "{\"de-DE\":\"Abteilungen/Lager/Aufgaben/Artikelablaufverfolgung/Chargennr.Filter\",\"en-US\":\"Inventory and Warehouse > History\",\"nl-NL\":\"Voorraad en magazijn > Historie\"}"
        }
      ]
    },
    {
      "name": "ItemVariantCode",
      "dataType": "string",
      "isHidden": true,
      "sourceColumn": "ItemVariantCode",
      "annotations": [
        {
          "name": "TabularEditor_TranslatedNames",
          "value": "{\"de-DE\":\"Variantencode\",\"en-US\":\"Variant\",\"nl-NL\":\"Variant\"}"
        },
        {
          "name": "TabularEditor_TranslatedDescriptions",
          "value": "{\"de-DE\":\"Abteilungen/Lager/Aufgaben/Artikelablaufverfolgung/Chargennr.Filter\",\"en-US\":\"Inventory and Warehouse > History\",\"nl-NL\":\"Voorraad en magazijn > Historie\"}"
        }
      ]
    }
  ],
  "partitions": [
    {
      "name": "Lot",
      "source": {
        "type": "query",
        "query": [
          "SELECT",
          "\t*",
          "FROM",
          "\t[tabular].[Lot]"
        ],
        "dataSource": "Birds"
      },
      "annotations": [
        {
          "name": "TabularEditor_TableSchema",
          "value": "{\"Name\":\"Lot\",\"Schema\":\"tabular\",\"Database\":\"nav_standard\",\"IncludedColumns\":[\"LotID\",\"ItemCode\",\"VariantCode\",\"LotCode\",\"LotDescription\",\"LotCodeDescription\",\"LotTestQuality\",\"LotCertificateNumber\",\"LotBlocked\"],\"SelectAll\":true}"
        }
      ]
    }
  ],
  "annotations": [
    {
      "name": "TabularEditor_TranslatedNames",
      "value": "{\"de-DE\":\"Chargen\",\"en-US\":\"Lot\",\"nl-NL\":\"Lot\"}"
    },
    {
      "name": "TabularEditor_TranslatedDescriptions",
      "value": "{\"en-US\":\"Inventory and Warehouse > History\",\"nl-NL\":\"Voorraad en magazijn > Historie\"}"
    },
    {
      "name": "TabularEditor_Relationships",
      "value": "[]"
    }
  ]
}