{
  "name": "InvoicedQuantity_YTD_PRS",
  "description": "Purchase > Order Processing > Purchase Orders > Quantity Invoiced (for orders with order type Return Order)",
  "expression": [
    "VAR YTD0 =",
    "    FILTER (",
    "        ALL ( 'Date' ),",
    "        'Date'[CYearNo] = MAX ( 'Date'[CYearNo] )",
    "            && 'Date'[DateID] <= MAX ( 'Date'[DateID] )",
    "    )",
    "RETURN",
    "    CALCULATE ( [InvoicedQuantity_PRS], YTD0 )"
  ],
  "formatString": "#,##0",
  "displayFolder": "Σ YTD",
  "annotations": [
    {
      "name": "TabularEditor_TranslatedNames",
      "value": "{\"de-DE\":\"Reklamation fakturierte Menge YTD\",\"en-US\":\"Return Quantity Invoiced YTD\",\"nl-NL\":\"Gefactureerd retour aantal YTD\"}"
    },
    {
      "name": "TabularEditor_TranslatedDescriptions",
      "value": "{\"de-DE\":\"Abteilungen/Einkauf/Bestellungsabwicklung/Bestellungen\",\"en-US\":\"Purchase > Order Processing > Purchase Orders > Quantity Invoiced (for orders with order type Return Order)\",\"nl-NL\":\"Inkoop > Orderverwerking > Inkooporders > Gefactureerd aantal (van de orders waarbij order type is retour order)\"}"
    },
    {
      "name": "TabularEditor_TranslatedDisplayFolders",
      "value": "{\"de-DE\":\"Σ YTD\",\"en-US\":\"Σ YTD\",\"nl-NL\":\"Σ YTD\"}"
    }
  ]
}