{
  "name": "ShippedAmount_PRS",
  "description": "Purchase > Order Processing > Purchase Orders > Amount received (for orders with order type Return Order)",
  "expression": "SUM ( 'factPurchaseReturnShipment'[ShippedAmount_RCY] )",
  "formatString": "#,##0.00",
  "annotations": [
    {
      "name": "TabularEditor_TranslatedNames",
      "value": "{\"de-DE\":\"Reklamation Betrag geliefert\",\"en-US\":\"Returned Amount\",\"nl-NL\":\"Retour bedrag\"}"
    },
    {
      "name": "TabularEditor_TranslatedDescriptions",
      "value": "{\"de-DE\":\"Abteilungen/Einkauf/Bestellungsabwicklung/Bestellungen\",\"en-US\":\"Purchase > Order Processing > Purchase Orders > Amount received (for orders with order type Return Order)\",\"nl-NL\":\"Inkoop > Orderverwerking > Inkooporders > Ontvangen bedrag (van de orders waarbij order type is retour order)\"}"
    }
  ]
}