{
  "name": "ShippedQuantity_PRS",
  "description": "Purchase > Order Processing > Purchase Orders > Quantity received (for orders with order type Return Order)",
  "expression": "SUM ( 'factPurchaseReturnShipment'[ShippedQuantity] )",
  "formatString": "#,##0",
  "annotations": [
    {
      "name": "TabularEditor_TranslatedNames",
      "value": "{\"de-DE\":\"Reklamation Menge geliefert\",\"en-US\":\"Returned Quantity\",\"nl-NL\":\"Retour ontvangen aantal\"}"
    },
    {
      "name": "TabularEditor_TranslatedDescriptions",
      "value": "{\"de-DE\":\"Abteilungen/Einkauf/Bestellungsabwicklung/Bestellungen\",\"en-US\":\"Purchase > Order Processing > Purchase Orders > Quantity received (for orders with order type Return Order)\",\"nl-NL\":\"Inkoop > Orderverwerking > Inkooporders > Ontvangen aantal (van de orders waarbij order type is retour order)\"}"
    }
  ]
}