{
  "name": "ShippedAmount_SPLY_Variance%_PRS",
  "description": "Purchase > Order Processing > Purchase Orders > Amount received (for orders with order type Return Order)",
  "expression": "DIVIDE ( [ShippedAmount_SPLY_Variance_PRS], [ShippedAmount_SPLY_PRS] )",
  "formatString": "#,##0.0 %",
  "displayFolder": "Σ SPLY Variance",
  "annotations": [
    {
      "name": "TabularEditor_TranslatedNames",
      "value": "{\"de-DE\":\"Reklamation Betrag geliefert SPLY Varianz %\",\"en-US\":\"Returned Amount SPLY Variance %\",\"nl-NL\":\"Retour bedrag SPLY verschil %\"}"
    },
    {
      "name": "TabularEditor_TranslatedDescriptions",
      "value": "{\"de-DE\":\"Abteilungen/Einkauf/Bestellungsabwicklung/Bestellungen\",\"en-US\":\"Purchase > Order Processing > Purchase Orders > Amount received (for orders with order type Return Order)\",\"nl-NL\":\"Inkoop > Orderverwerking > Inkooporders > Ontvangen bedrag \"}"
    },
    {
      "name": "TabularEditor_TranslatedDisplayFolders",
      "value": "{\"de-DE\":\"Σ SPLY Varianz\",\"en-US\":\"Σ SPLY Variance\"}"
    }
  ]
}