{
  "name": "factPOSTransactionInfoCodeEntry",
  "columns": [
    {
      "name": "CompanyID",
      "dataType": "int64",
      "isHidden": true,
      "sourceColumn": "CompanyID",
      "sourceProviderType": "int"
    },
    {
      "name": "StoreID",
      "dataType": "int64",
      "isHidden": true,
      "sourceColumn": "StoreID",
      "sourceProviderType": "int"
    },
    {
      "name": "POSTerminalID",
      "dataType": "int64",
      "isHidden": true,
      "sourceColumn": "POSTerminalID",
      "sourceProviderType": "int"
    },
    {
      "name": "StaffID",
      "dataType": "int64",
      "isHidden": true,
      "sourceColumn": "StaffID",
      "sourceProviderType": "int"
    },
    {
      "name": "DateID",
      "dataType": "int64",
      "isHidden": true,
      "sourceColumn": "DateID",
      "sourceProviderType": "int"
    },
    {
      "name": "TimeID",
      "dataType": "int64",
      "isHidden": true,
      "sourceColumn": "TimeID",
      "sourceProviderType": "int"
    },
    {
      "name": "InfoCodeID",
      "dataType": "int64",
      "isHidden": true,
      "sourceColumn": "InfoCodeID",
      "sourceProviderType": "int"
    },
    {
      "name": "InfoAmount_PCY",
      "dataType": "decimal",
      "isHidden": true,
      "sourceColumn": "InfoAmount_PCY",
      "sourceProviderType": "decimal",
      "annotations": [
        {
          "name": "TabularEditor_TranslatedNames",
          "value": "{\"en-US\":\"InfoAmount_PCY\",\"nl-NL\":\"InfoAmount_PCY\"}"
        }
      ]
    },
    {
      "name": "Amount_PCY",
      "dataType": "decimal",
      "isHidden": true,
      "sourceColumn": "Amount_PCY",
      "sourceProviderType": "decimal",
      "annotations": [
        {
          "name": "TabularEditor_TranslatedNames",
          "value": "{\"en-US\":\"Amount_PCY\",\"nl-NL\":\"Amount_PCY\"}"
        }
      ]
    },
    {
      "name": "InfoAmount_RCY",
      "dataType": "decimal",
      "isHidden": true,
      "sourceColumn": "InfoAmount_RCY",
      "sourceProviderType": "decimal",
      "annotations": [
        {
          "name": "TabularEditor_TranslatedNames",
          "value": "{\"en-US\":\"InfoAmount_RCY\",\"nl-NL\":\"InfoAmount_RCY\"}"
        }
      ]
    },
    {
      "name": "Amount_RCY",
      "dataType": "decimal",
      "isHidden": true,
      "sourceColumn": "Amount_RCY",
      "sourceProviderType": "decimal",
      "annotations": [
        {
          "name": "TabularEditor_TranslatedNames",
          "value": "{\"en-US\":\"Amount_RCY\",\"nl-NL\":\"Amount_RCY\"}"
        }
      ]
    }
  ],
  "partitions": [
    {
      "name": "POSTransactionInfoCodeEntry",
      "source": {
        "type": "query",
        "query": "SELECT * FROM tabular.factPOSTransactionInfoCodeEntry",
        "dataSource": "Birds"
      },
      "annotations": [
        {
          "name": "TabularEditor_TableSchema",
          "value": "{\"Name\":\"POSTransactionInfoCodeEntry\",\"Schema\":\"fact\",\"Database\":\"Birds-lsretail\",\"IncludedColumns\":[\"StageID\",\"CompanyID\",\"DataConnectionID\",\"ComponentExecutionID\",\"ExecutionFlag\",\"StoreID\",\"POSTerminalID\",\"StaffID\",\"DateID\",\"TimeID\",\"POSReceiptID\",\"TenderID\",\"InfoCodeID\",\"InfoAmount_PCY\",\"Amount_PCY\",\"InfoAmount_RCY\",\"Amount_RCY\"],\"SelectAll\":true}"
        }
      ]
    }
  ],
  "annotations": [
    {
      "name": "Postfix",
      "value": "PTICE"
    },
    {
      "name": "TabularEditor_TranslatedNames",
      "value": "{\"en-US\":\"Σ POS Transaction Info Code Entry\",\"nl-NL\":\"Σ POS Transactie info code posten\"}"
    },
    {
      "name": "TabularEditor_Relationships",
      "value": [
        "[",
        "  {",
        "    \"fromTable\": \"factPOSTransactionInfoCodeEntry\",",
        "    \"fromColumn\": \"CompanyID\",",
        "    \"toTable\": \"Company\",",
        "    \"toColumn\": \"CompanyID\"",
        "  },",
        "  {",
        "    \"fromTable\": \"factPOSTransactionInfoCodeEntry\",",
        "    \"fromColumn\": \"DateID\",",
        "    \"toTable\": \"Date\",",
        "    \"toColumn\": \"DateID\"",
        "  },",
        "  {",
        "    \"fromTable\": \"factPOSTransactionInfoCodeEntry\",",
        "    \"fromColumn\": \"InfoCodeID\",",
        "    \"toTable\": \"InfoCode\",",
        "    \"toColumn\": \"InfoCodeID\"",
        "  },",
        "  {",
        "    \"fromTable\": \"factPOSTransactionInfoCodeEntry\",",
        "    \"fromColumn\": \"POSTerminalID\",",
        "    \"toTable\": \"POSTerminal\",",
        "    \"toColumn\": \"POSTerminalID\"",
        "  },",
        "  {",
        "    \"fromTable\": \"factPOSTransactionInfoCodeEntry\",",
        "    \"fromColumn\": \"StaffID\",",
        "    \"toTable\": \"Staff\",",
        "    \"toColumn\": \"StaffID\"",
        "  },",
        "  {",
        "    \"fromTable\": \"factPOSTransactionInfoCodeEntry\",",
        "    \"fromColumn\": \"StoreID\",",
        "    \"toTable\": \"Store\",",
        "    \"toColumn\": \"StoreID\"",
        "  },",
        "  {",
        "    \"fromTable\": \"factPOSTransactionInfoCodeEntry\",",
        "    \"fromColumn\": \"TimeID\",",
        "    \"toTable\": \"Time\",",
        "    \"toColumn\": \"TimeID\"",
        "  }",
        "]"
      ]
    }
  ]
}