{
  "name": "Amount_LCY_GLB",
  "description": "Budget Amount in local currency",
  "expression": [
    "SUMX (",
    "    FILTER (",
    "        'factGeneralLedgerBudget',",
    "        'factGeneralLedgerBudget'[IsCreditID] >= [IsCreditMinCode]",
    "            && 'factGeneralLedgerBudget'[IsCreditID] <= [IsCreditMaxCode]",
    "    ),",
    "    'factGeneralLedgerBudget'[Amount_LCY]",
    ")"
  ],
  "formatString": "#,##0.00",
  "displayFolder": "Σ Local Currency",
  "annotations": [
    {
      "name": "TabularEditor_TranslatedNames",
      "value": "{\"de-DE\":\"Betrag\",\"en-US\":\"Amount\",\"nl-NL\":\"Budget bedrag\"}"
    },
    {
      "name": "TabularEditor_TranslatedDescriptions",
      "value": "{\"de-DE\":\"Abteilungen/Finanzmanagement/Finanzbuchhaltung/Fibu-Budgets\",\"en-US\":\"Budget Amount in local currency\",\"nl-NL\":\"Afdelingen/Financieel/Stamgegevens/Algemeen/Budgetten > Bedrag \"}"
    },
    {
      "name": "TabularEditor_TranslatedDisplayFolders",
      "value": "{\"de-DE\":\"Σ Local Währung\",\"en-US\":\"Σ Local Currency\",\"nl-NL\":\"Σ Lokale Valuta\"}"
    }
  ]
}