{
  "name": "AmountDebit_GLB",
  "description": "Finance > Basic Data > General > Budgets > Budget Matrix > G/L Account Balance Budget by Period > Debit Amount",
  "expression": [
    "SUMX (",
    "    'factGeneralLedgerBudget',",
    "    IF (",
    "        'factGeneralLedgerBudget'[IsCreditID] <> 1,",
    "        'factGeneralLedgerBudget'[Amount_RCY]",
    "    )",
    ")"
  ],
  "formatString": "#,##0.00",
  "annotations": [
    {
      "name": "TabularEditor_TranslatedNames",
      "value": "{\"de-DE\":\"Betrag Soll\",\"en-US\":\"Amount Debit\",\"nl-NL\":\"Budget bedrag debet\"}"
    },
    {
      "name": "TabularEditor_TranslatedDescriptions",
      "value": "{\"de-DE\":\"Abteilungen/Finanzmanagement/Finanzbuchhaltung/Fibu-Budgets\",\"en-US\":\"Finance > Basic Data > General > Budgets > Budget Matrix > G/L Account Balance Budget by Period > Debit Amount\",\"nl-NL\":\"Afdelingen/Financieel/Stamgegevens/Algemeen/Budgetten > Bedrag  debit\"}"
    }
  ]
}