{
  "name": "AmountCredit_LCY_GLB",
  "description": "Finance > Basic Data > General > Budgets > Budget Matrix > G/L Account Balance Budget by Period > Budgeted Credit Amount",
  "expression": [
    "- SUMX (",
    "    'factGeneralLedgerBudget',",
    "    IF (",
    "        'factGeneralLedgerBudget'[IsCreditID] = 1,",
    "        'factGeneralLedgerBudget'[Amount_LCY]",
    "    )",
    ")"
  ],
  "formatString": "#,##0.00",
  "displayFolder": "Σ Local Currency",
  "annotations": [
    {
      "name": "TabularEditor_TranslatedNames",
      "value": "{\"de-DE\":\"Betrag Haben\",\"en-US\":\"Amount Credit\",\"nl-NL\":\"Budget bedrag credit\"}"
    },
    {
      "name": "TabularEditor_TranslatedDescriptions",
      "value": "{\"de-DE\":\"Abteilungen/Finanzmanagement/Finanzbuchhaltung/Fibu-Budgets\",\"en-US\":\"Finance > Basic Data > General > Budgets > Budget Matrix > G/L Account Balance Budget by Period > Budgeted Credit Amount\",\"nl-NL\":\"Afdelingen/Financieel/Stamgegevens/Algemeen/Budgetten > Bedrag  credit\"}"
    },
    {
      "name": "TabularEditor_TranslatedDisplayFolders",
      "value": "{\"de-DE\":\"Σ Local Währung\",\"en-US\":\"Σ Local Currency\",\"nl-NL\":\"Σ Lokale Valuta\"}"
    }
  ]
}