{
  "name": "AmountBalance_GLB",
  "description": "Running total of Amount to reflect the Balance Amount at the selected date",
  "expression": [
    "VAR YTD0 =",
    "    FILTER (",
    "        ALL ( 'Date' ),",
    "        'Date'[CYearNo] = MAX ( 'Date'[CYearNo] )",
    "            && 'Date'[DateID] <= MAX ( 'Date'[DateID] )",
    "    )",
    "RETURN",
    "    CALCULATE (",
    "        SUMX (",
    "            FILTER (",
    "                'factGeneralLedgerBudget',",
    "                'factGeneralLedgerBudget'[IsCreditID] >= 0 //[IsCreditMinCode]",
    "                    && 'factGeneralLedgerBudget'[IsCreditID] <= 1 //[IsCreditMaxCode]",
    "            ),",
    "            IF (",
    "                'factGeneralLedgerBudget'[IsBalanceID] = 1,",
    "                'factGeneralLedgerBudget'[Amount_RCY]",
    "            )",
    "        ),",
    "        YTD0",
    "    )"
  ],
  "formatString": "#,##0.00",
  "annotations": [
    {
      "name": "TabularEditor_TranslatedNames",
      "value": "{\"de-DE\":\"Budget Balance Betrag\",\"en-US\":\"Amount Balance\",\"nl-NL\":\"Budget balans waarde\"}"
    },
    {
      "name": "TabularEditor_TranslatedDescriptions",
      "value": "{\"de-DE\":\"Abteilungen/Finanzmanagement/Finanzbuchhaltung/Fibu-Budgets\",\"en-US\":\"Running total of Amount to reflect the Balance Amount at the selected date\",\"nl-NL\":\"Afdelingen/Financieel/Stamgegevens/Algemeen/Budgetten > Bedrag  balans\"}"
    }
  ]
}