{
  "name": "NetChangeBudgetActualIndexGLB",
  "description": "Finance > Basic Data > General > Budgets > Budget Matrix > The net change",
  "expression": "DIVIDE ( [NetChange_GL], [NetChange_GLB] ) * 100",
  "formatString": "#,##0.00",
  "displayFolder": "Σ GL vs GLB",
  "annotations": [
    {
      "name": "TabularEditor_TranslatedNames",
      "value": "{\"de-DE\":\"Soll-Ist-Vergleich Index\",\"en-US\":\"Budget vs Actual Index\",\"nl-NL\":\"Budget tov werkelijk Index\"}"
    },
    {
      "name": "TabularEditor_TranslatedDescriptions",
      "value": "{\"de-DE\":\"Abteilungen/Finanzmanagement/Finanzbuchhaltung/Fibu-Budgets\",\"en-US\":\"Finance > Basic Data > General > Budgets > Budget Matrix > The net change\",\"nl-NL\":\"Afdelingen/Financieel/Stamgegevens/Algemeen/Budgetten > Bruto netto mutatie\"}"
    },
    {
      "name": "TabularEditor_TranslatedDisplayFolders",
      "value": "{\"de-DE\":\"Σ GL vs GLB\",\"en-US\":\"Σ GL vs GLB\",\"nl-NL\":\"Σ GL vs GLB\"}"
    }
  ]
}