{
  "name": "NetChangeBudgetActual_Variance%_GLB",
  "description": "Finance > Basic Data > General > Budgets > Budget Matrix > The net change",
  "expression": "DIVIDE ( ( [NetChange_GL] - [NetChange_GLB] ), [NetChange_GLB] )",
  "formatString": "#,##0.0 %",
  "displayFolder": "Σ GL vs GLB",
  "annotations": [
    {
      "name": "TabularEditor_TranslatedNames",
      "value": "{\"de-DE\":\"Soll-Ist-Vergleich Bewegung %\",\"en-US\":\"Budget vs Actual Variance %\",\"nl-NL\":\"Budget tov werkelijk verschil %\"}"
    },
    {
      "name": "TabularEditor_TranslatedDescriptions",
      "value": "{\"de-DE\":\"Abteilungen/Finanzmanagement/Finanzbuchhaltung/Fibu-Budgets\",\"en-US\":\"Finance > Basic Data > General > Budgets > Budget Matrix > The net change\",\"nl-NL\":\"Afdelingen/Financieel/Stamgegevens/Algemeen/Budgetten > Bruto netto mutatie\"}"
    },
    {
      "name": "TabularEditor_TranslatedDisplayFolders",
      "value": "{\"de-DE\":\"Σ GL vs GLB\",\"en-US\":\"Σ GL vs GLB\",\"nl-NL\":\"Σ GL vs GLB\"}"
    }
  ]
}