{
  "name": "AvgAmountBalance_LYTD_IVE",
  "description": "Average Amount Balance ",
  "expression": [
    "VAR LYTD =",
    "    FILTER (",
    "        ALL ( 'Date' ),",
    "        'Date'[CYearNo]",
    "            = MAX ( 'Date'[CYearNo] ) - 1",
    "            && 'Date'[Date] <= MAX ( 'Date'[TDatePY] )",
    "    )",
    "RETURN",
    "    CALCULATE ( [AvgAmountBalance_IVE], LYTD )"
  ],
  "formatString": "#,##0.00",
  "displayFolder": "Σ LYTD",
  "annotations": [
    {
      "name": "TabularEditor_TranslatedNames",
      "value": "{\"de-DE\":\"Ø Betrag Balance LYTD\",\"en-US\":\"Average Amount Balance LYTD\",\"nl-NL\":\"Gemiddelde balans waarde LYTD\"}"
    },
    {
      "name": "TabularEditor_TranslatedDescriptions",
      "value": "{\"de-DE\":\"Ø Betrag Balance \",\"en-US\":\"Average Amount Balance \",\"nl-NL\":\"Gemiddelde balans waarde \"}"
    },
    {
      "name": "TabularEditor_TranslatedDisplayFolders",
      "value": "{\"de-DE\":\"Σ LYTD\",\"en-US\":\"Σ LYTD\",\"nl-NL\":\"Σ LYTD\"}"
    }
  ]
}