{
  "name": "CostAmount_MTD_IVE",
  "description": "Departments/Item Management/General Data/Items > Entries > Value Entries  > Cost Amount Actual",
  "expression": [
    "VAR MTD0 =",
    "    FILTER (",
    "        ALL ( 'Date' ),",
    "        'Date'[DateID] <= MAX ( 'Date'[DateID] )",
    "            && 'Date'[CYearMonthNo] = MAX ( 'Date'[CYearMonthNo] )",
    "    )",
    "RETURN",
    "    CALCULATE ( [CostAmount_IVE], MTD0 )"
  ],
  "formatString": "#,##0.00",
  "displayFolder": "Σ MTD",
  "annotations": [
    {
      "name": "TabularEditor_TranslatedNames",
      "value": "{\"de-DE\":\"Einstandsbetrag MTD\",\"en-US\":\"Cost Amount MTD\",\"nl-NL\":\"Kosten MTD\"}"
    },
    {
      "name": "TabularEditor_TranslatedDescriptions",
      "value": "{\"de-DE\":\"Abteilungen/Lager/Historie/Historie/Artikelposten/Zeilen\",\"en-US\":\"Departments/Item Management/General Data/Items > Entries > Value Entries  > Cost Amount Actual\",\"nl-NL\":\"Afdelingen/Artikelbeheer/Stamgegevens/Artikelen > Posten > Waardeposten >  Totaal Werkelijke kosten\"}"
    },
    {
      "name": "TabularEditor_TranslatedDisplayFolders",
      "value": "{\"de-DE\":\"Σ MTD\",\"en-US\":\"Σ MTD\",\"nl-NL\":\"Σ MTD\"}"
    }
  ]
}