{
  "name": "OpeningBalanceAmount_IVE",
  "description": "Balance - Cost Amount",
  "expression": "[AmountBalance_IVE] - [CostAmount_IVE]",
  "formatString": "#,##0.00",
  "annotations": [
    {
      "name": "TabularEditor_TranslatedNames",
      "value": "{\"de-DE\":\"Anfang Balance Betrag\",\"en-US\":\"Opening Balance Amount\",\"nl-NL\":\"Start balansbedrag\"}"
    },
    {
      "name": "TabularEditor_TranslatedDescriptions",
      "value": "{\"de-DE\":\"Balance - Einstandsbetrag\",\"en-US\":\"Balance - Cost Amount\",\"nl-NL\":\"Balans - Kosten\"}"
    }
  ]
}