{
  "name": "PositiveInvoicedQuantity_SPLY_IVE",
  "description": "The Invoiced Quantity, where the Invoiced Quantity > 0",
  "expression": [
    "VAR SPLY0 =",
    "    FILTER (",
    "        ALL ( 'Date' ),",
    "        'Date'[Date] <= MAX ( 'Date'[TDatePY] )",
    "            && 'Date'[Date] >= MIN ( 'Date'[TDatePY] )",
    "    )",
    "RETURN",
    "    CALCULATE ( [PositiveInvoicedQuantity_IVE], SPLY0 )"
  ],
  "formatString": "#,##0",
  "displayFolder": "Σ SPLY",
  "annotations": [
    {
      "name": "TabularEditor_TranslatedNames",
      "value": "{\"de-DE\":\"Positive Fakturierte Menge SPLY\",\"en-US\":\"Positive Invoiced Quantity SPLY\",\"nl-NL\":\"Positief gefactureerde aantallen SPLY\"}"
    },
    {
      "name": "TabularEditor_TranslatedDescriptions",
      "value": "{\"de-DE\":\"Abteilungen/Lager/Historie/Historie/Artikelposten/Zeilen\",\"en-US\":\"The Invoiced Quantity, where the Invoiced Quantity > 0\",\"nl-NL\":\"De geboekte aantallen, waarbij de aantallen > 0\"}"
    },
    {
      "name": "TabularEditor_TranslatedDisplayFolders",
      "value": "{\"de-DE\":\"Σ SPLY\",\"en-US\":\"Σ SPLY\",\"nl-NL\":\"Σ SPLY\"}"
    }
  ]
}