{
  "base_name": "SalesItemLedgerEntry",
  "category": "help",
  "database_object": {
    "table_identifier": "help.SalesItemLedgerEntry",
    "columns": [
      {
        "column_name": "StageID",
        "data_type": "bigint",
        "character_maximum_length": null,
        "numeric_precision": 19,
        "numeric_scale": 0,
        "nullable": false,
        "business_key": false
      },
      {
        "column_name": "Company_ID",
        "data_type": "int",
        "character_maximum_length": null,
        "numeric_precision": 10,
        "numeric_scale": 0,
        "nullable": false,
        "business_key": false
      },
      {
        "column_name": "Data_Connection_ID",
        "data_type": "int",
        "character_maximum_length": null,
        "numeric_precision": 10,
        "numeric_scale": 0,
        "nullable": false,
        "business_key": false
      },
      {
        "column_name": "Component_Execution_ID",
        "data_type": "int",
        "character_maximum_length": null,
        "numeric_precision": 10,
        "numeric_scale": 0,
        "nullable": false,
        "business_key": false
      },
      {
        "column_name": "Execution_Flag",
        "data_type": "nvarchar",
        "character_maximum_length": 10,
        "numeric_precision": null,
        "numeric_scale": null,
        "nullable": false,
        "business_key": false
      },
      {
        "column_name": "EntryNo",
        "data_type": "int",
        "character_maximum_length": null,
        "numeric_precision": 10,
        "numeric_scale": 0,
        "nullable": false,
        "business_key": false
      },
      {
        "column_name": "DocumentType",
        "data_type": "int",
        "character_maximum_length": null,
        "numeric_precision": 10,
        "numeric_scale": 0,
        "nullable": false,
        "business_key": false
      },
      {
        "column_name": "DocumentNo",
        "data_type": "nvarchar",
        "character_maximum_length": 100,
        "numeric_precision": null,
        "numeric_scale": null,
        "nullable": true,
        "business_key": false
      },
      {
        "column_name": "PostingDate",
        "data_type": "datetime",
        "character_maximum_length": null,
        "numeric_precision": null,
        "numeric_scale": null,
        "nullable": true,
        "business_key": false
      },
      {
        "column_name": "DocumentPostingDate",
        "data_type": "datetime",
        "character_maximum_length": null,
        "numeric_precision": null,
        "numeric_scale": null,
        "nullable": true,
        "business_key": false
      },
      {
        "column_name": "SelltoCustomerNo",
        "data_type": "nvarchar",
        "character_maximum_length": 100,
        "numeric_precision": null,
        "numeric_scale": null,
        "nullable": true,
        "business_key": false
      },
      {
        "column_name": "BilltoCustomerNo",
        "data_type": "nvarchar",
        "character_maximum_length": 100,
        "numeric_precision": null,
        "numeric_scale": null,
        "nullable": true,
        "business_key": false
      }
    ],
    "indexes": []
  },
  "load_procedures": [
    {
      "sequence": 700,
      "identifier": "help.LoadSalesItemLedgerEntry"
    }
  ],
  "views": null,
  "queries": [],
  "query_columns": [],
  "dimensions": [],
  "load_type": 0,
  "manual_mode": true,
  "is_customized": false
}