{
  "base_name": "Lot",
  "category": "dim",
  "database_object": {
    "table_identifier": "dim.Lot",
    "columns": [
      {
        "column_name": "LotID",
        "data_type": "int",
        "character_maximum_length": null,
        "numeric_precision": 10,
        "numeric_scale": 0,
        "nullable": false,
        "business_key": false
      },
      {
        "column_name": "ExecutionTimestamp",
        "data_type": "timestamp",
        "character_maximum_length": null,
        "numeric_precision": null,
        "numeric_scale": null,
        "nullable": false,
        "business_key": false
      },
      {
        "column_name": "ComponentExecutionID",
        "data_type": "int",
        "character_maximum_length": null,
        "numeric_precision": 10,
        "numeric_scale": 0,
        "nullable": false,
        "business_key": false
      },
      {
        "column_name": "ItemCode",
        "data_type": "nvarchar",
        "character_maximum_length": 20,
        "numeric_precision": null,
        "numeric_scale": null,
        "nullable": false,
        "business_key": false
      },
      {
        "column_name": "ItemVariantCode",
        "data_type": "nvarchar",
        "character_maximum_length": 10,
        "numeric_precision": null,
        "numeric_scale": null,
        "nullable": false,
        "business_key": false
      },
      {
        "column_name": "LotCode",
        "data_type": "nvarchar",
        "character_maximum_length": 20,
        "numeric_precision": null,
        "numeric_scale": null,
        "nullable": false,
        "business_key": false
      },
      {
        "column_name": "CompanyID",
        "data_type": "int",
        "character_maximum_length": null,
        "numeric_precision": 10,
        "numeric_scale": 0,
        "nullable": false,
        "business_key": false
      },
      {
        "column_name": "DataConnectionID",
        "data_type": "int",
        "character_maximum_length": null,
        "numeric_precision": 10,
        "numeric_scale": 0,
        "nullable": false,
        "business_key": false
      },
      {
        "column_name": "StageID",
        "data_type": "int",
        "character_maximum_length": null,
        "numeric_precision": 10,
        "numeric_scale": 0,
        "nullable": false,
        "business_key": false
      },
      {
        "column_name": "LotDescription",
        "data_type": "nvarchar",
        "character_maximum_length": 50,
        "numeric_precision": null,
        "numeric_scale": null,
        "nullable": false,
        "business_key": false
      },
      {
        "column_name": "LotCodeDescription",
        "data_type": "nvarchar",
        "character_maximum_length": 73,
        "numeric_precision": null,
        "numeric_scale": null,
        "nullable": false,
        "business_key": false
      },
      {
        "column_name": "LotTestQuality",
        "data_type": "int",
        "character_maximum_length": null,
        "numeric_precision": 10,
        "numeric_scale": 0,
        "nullable": false,
        "business_key": false
      },
      {
        "column_name": "LotCertificateNumber",
        "data_type": "nvarchar",
        "character_maximum_length": 20,
        "numeric_precision": null,
        "numeric_scale": null,
        "nullable": false,
        "business_key": false
      },
      {
        "column_name": "LotBlocked",
        "data_type": "nvarchar",
        "character_maximum_length": 255,
        "numeric_precision": null,
        "numeric_scale": null,
        "nullable": false,
        "business_key": false
      }
    ],
    "indexes": []
  },
  "load_procedures": [],
  "views": null,
  "queries": [
    {
      "name": "default",
      "select_file_path": "default.sql",
      "sequence": 200,
      "aliases": []
    }
  ],
  "query_columns": [
    {
      "column_sequence": 1,
      "column_name": "StageID",
      "data_type_full": "int",
      "type": "attribute"
    },
    {
      "column_sequence": 2,
      "column_name": "CompanyID",
      "data_type_full": "int",
      "type": "system_key"
    },
    {
      "column_sequence": 3,
      "column_name": "DataConnectionID",
      "data_type_full": "int",
      "type": "system_key"
    },
    {
      "column_sequence": 4,
      "column_name": "ItemCode",
      "data_type_full": "nvarchar(20)",
      "type": "business_key"
    },
    {
      "column_sequence": 5,
      "column_name": "ItemVariantCode",
      "data_type_full": "nvarchar(10)",
      "type": "business_key"
    },
    {
      "column_sequence": 6,
      "column_name": "LotCode",
      "data_type_full": "nvarchar(20)",
      "type": "business_key"
    },
    {
      "column_sequence": 7,
      "column_name": "LotDescription",
      "data_type_full": "nvarchar(50)",
      "type": "attribute"
    },
    {
      "column_sequence": 8,
      "column_name": "LotCodeDescription",
      "data_type_full": "nvarchar(73)",
      "type": "attribute"
    },
    {
      "column_sequence": 9,
      "column_name": "LotTestQuality",
      "data_type_full": "int",
      "type": "attribute"
    },
    {
      "column_sequence": 10,
      "column_name": "LotCertificateNumber",
      "data_type_full": "nvarchar(20)",
      "type": "attribute"
    },
    {
      "column_sequence": 11,
      "column_name": "LotBlocked",
      "data_type_full": "nvarchar(255)",
      "type": "attribute"
    }
  ],
  "dimensions": [],
  "load_type": 1,
  "manual_mode": false,
  "is_customized": false
}