{
  "name": "factInventoryItemLedger",
  "columns": [
    {
      "name": "CompanyID",
      "dataType": "int64",
      "description": "Unique identifier of the company",
      "isHidden": true,
      "sourceColumn": "CompanyID",
      "sourceProviderType": "int",
      "annotations": [
        {
          "name": "TabularEditor_TranslatedNames",
          "value": "{\"de-DE\":\"CompanyID\",\"en-US\":\"CompanyID\",\"nl-NL\":\"Companyid\"}"
        },
        {
          "name": "TabularEditor_TranslatedDescriptions",
          "value": "{\"de-DE\":\"Kennung für Company\",\"en-US\":\"Unique identifier of the company\",\"nl-NL\":\"Unieke sleutel voor bedrijf\"}"
        }
      ]
    },
    {
      "name": "LocationID",
      "dataType": "int64",
      "description": "Unique key field to dimension key",
      "isHidden": true,
      "sourceColumn": "LocationID",
      "sourceProviderType": "int",
      "annotations": [
        {
          "name": "TabularEditor_TranslatedNames",
          "value": "{\"de-DE\":\"LocationID\",\"en-US\":\"LocationID\",\"nl-NL\":\"Locationid\"}"
        },
        {
          "name": "TabularEditor_TranslatedDescriptions",
          "value": "{\"de-DE\":\"Kennung für Location\",\"en-US\":\"Unique key field to dimension key\",\"nl-NL\":\"Unieke sleutel naar de unieke sleutel van de dimensie\"}"
        }
      ]
    },
    {
      "name": "ItemID",
      "dataType": "int64",
      "description": "Unique key field to dimension key",
      "isHidden": true,
      "sourceColumn": "ItemID",
      "sourceProviderType": "int",
      "annotations": [
        {
          "name": "TabularEditor_TranslatedNames",
          "value": "{\"de-DE\":\"ItemID\",\"en-US\":\"ItemID\",\"nl-NL\":\"Itemid\"}"
        },
        {
          "name": "TabularEditor_TranslatedDescriptions",
          "value": "{\"de-DE\":\"Kennung für Item\",\"en-US\":\"Unique key field to dimension key\",\"nl-NL\":\"Unieke sleutel naar de unieke sleutel van de dimensie\"}"
        }
      ]
    },
    {
      "name": "DocumentInventoryID",
      "dataType": "int64",
      "description": "Unique key field to dimension key",
      "isHidden": true,
      "sourceColumn": "DocumentInventoryID",
      "sourceProviderType": "int",
      "annotations": [
        {
          "name": "TabularEditor_TranslatedNames",
          "value": "{\"de-DE\":\"DocumentinventoryID\",\"en-US\":\"DocumentInventoryID\",\"nl-NL\":\"Documentinventoryid\"}"
        },
        {
          "name": "TabularEditor_TranslatedDescriptions",
          "value": "{\"de-DE\":\"Kennung für DocumentInventory\",\"en-US\":\"Unique key field to dimension key\",\"nl-NL\":\"Unieke sleutel naar de unieke sleutel van de dimensie\"}"
        }
      ]
    },
    {
      "name": "FinancialDimension1ID",
      "dataType": "int64",
      "description": "Unique key field to dimension key",
      "isHidden": true,
      "sourceColumn": "FinancialDimension1ID",
      "sourceProviderType": "int",
      "annotations": [
        {
          "name": "TabularEditor_TranslatedNames",
          "value": "{\"de-DE\":\"Financialdimension1ID\",\"en-US\":\"FinancialDimension1ID\",\"nl-NL\":\"Financialdimension1id\"}"
        },
        {
          "name": "TabularEditor_TranslatedDescriptions",
          "value": "{\"de-DE\":\"Kennung für Financialdimension1\",\"en-US\":\"Unique key field to dimension key\",\"nl-NL\":\"Unieke sleutel naar de unieke sleutel van de dimensie\"}"
        }
      ]
    },
    {
      "name": "FinancialDimension2ID",
      "dataType": "int64",
      "description": "Unique key field to dimension key",
      "isHidden": true,
      "sourceColumn": "FinancialDimension2ID",
      "sourceProviderType": "int",
      "annotations": [
        {
          "name": "TabularEditor_TranslatedNames",
          "value": "{\"de-DE\":\"Financialdimension2ID\",\"en-US\":\"FinancialDimension2ID\",\"nl-NL\":\"Financialdimension2id\"}"
        },
        {
          "name": "TabularEditor_TranslatedDescriptions",
          "value": "{\"de-DE\":\"Kennung für Financialdimension2\",\"en-US\":\"Unique key field to dimension key\",\"nl-NL\":\"Unieke sleutel naar de unieke sleutel van de dimensie\"}"
        }
      ]
    },
    {
      "name": "FinancialDimension3ID",
      "dataType": "int64",
      "description": "Unique key field to dimension key",
      "isHidden": true,
      "sourceColumn": "FinancialDimension3ID",
      "sourceProviderType": "int",
      "annotations": [
        {
          "name": "TabularEditor_TranslatedNames",
          "value": "{\"de-DE\":\"Financialdimension3ID\",\"en-US\":\"FinancialDimension3ID\",\"nl-NL\":\"Financialdimension3id\"}"
        },
        {
          "name": "TabularEditor_TranslatedDescriptions",
          "value": "{\"de-DE\":\"Kennung für Financialdimension3\",\"en-US\":\"Unique key field to dimension key\",\"nl-NL\":\"Unieke sleutel naar de unieke sleutel van de dimensie\"}"
        }
      ]
    },
    {
      "name": "FinancialDimension4ID",
      "dataType": "int64",
      "description": "Unique key field to dimension key",
      "isHidden": true,
      "sourceColumn": "FinancialDimension4ID",
      "sourceProviderType": "int",
      "annotations": [
        {
          "name": "TabularEditor_TranslatedNames",
          "value": "{\"de-DE\":\"Financialdimension4ID\",\"en-US\":\"FinancialDimension4ID\",\"nl-NL\":\"Financialdimension4id\"}"
        },
        {
          "name": "TabularEditor_TranslatedDescriptions",
          "value": "{\"de-DE\":\"Kennung für Financialdimension4\",\"en-US\":\"Unique key field to dimension key\",\"nl-NL\":\"Unieke sleutel naar de unieke sleutel van de dimensie\"}"
        }
      ]
    },
    {
      "name": "FinancialDimension5ID",
      "dataType": "int64",
      "description": "Unique key field to dimension key",
      "isHidden": true,
      "sourceColumn": "FinancialDimension5ID",
      "sourceProviderType": "int",
      "annotations": [
        {
          "name": "TabularEditor_TranslatedNames",
          "value": "{\"de-DE\":\"Financialdimension5ID\",\"en-US\":\"FinancialDimension5ID\",\"nl-NL\":\"Financialdimension5id\"}"
        },
        {
          "name": "TabularEditor_TranslatedDescriptions",
          "value": "{\"de-DE\":\"Kennung für Financialdimension5\",\"en-US\":\"Unique key field to dimension key\",\"nl-NL\":\"Unieke sleutel naar de unieke sleutel van de dimensie\"}"
        }
      ]
    },
    {
      "name": "FinancialDimension6ID",
      "dataType": "int64",
      "description": "Unique key field to dimension key",
      "isHidden": true,
      "sourceColumn": "FinancialDimension6ID",
      "sourceProviderType": "int",
      "annotations": [
        {
          "name": "TabularEditor_TranslatedNames",
          "value": "{\"de-DE\":\"Financialdimension6ID\",\"en-US\":\"FinancialDimension6ID\",\"nl-NL\":\"Financialdimension6id\"}"
        },
        {
          "name": "TabularEditor_TranslatedDescriptions",
          "value": "{\"de-DE\":\"Kennung für Financialdimension6\",\"en-US\":\"Unique key field to dimension key\",\"nl-NL\":\"Unieke sleutel naar de unieke sleutel van de dimensie\"}"
        }
      ]
    },
    {
      "name": "FinancialDimension7ID",
      "dataType": "int64",
      "description": "Unique key field to dimension key",
      "isHidden": true,
      "sourceColumn": "FinancialDimension7ID",
      "sourceProviderType": "int",
      "annotations": [
        {
          "name": "TabularEditor_TranslatedNames",
          "value": "{\"de-DE\":\"Financialdimension7ID\",\"en-US\":\"FinancialDimension7ID\",\"nl-NL\":\"Financialdimension7id\"}"
        },
        {
          "name": "TabularEditor_TranslatedDescriptions",
          "value": "{\"de-DE\":\"Kennung für Financialdimension7\",\"en-US\":\"Unique key field to dimension key\",\"nl-NL\":\"Unieke sleutel naar de unieke sleutel van de dimensie\"}"
        }
      ]
    },
    {
      "name": "FinancialDimension8ID",
      "dataType": "int64",
      "description": "Unique key field to dimension key",
      "isHidden": true,
      "sourceColumn": "FinancialDimension8ID",
      "sourceProviderType": "int",
      "annotations": [
        {
          "name": "TabularEditor_TranslatedNames",
          "value": "{\"de-DE\":\"Financialdimension8ID\",\"en-US\":\"FinancialDimension8ID\",\"nl-NL\":\"Financialdimension8id\"}"
        },
        {
          "name": "TabularEditor_TranslatedDescriptions",
          "value": "{\"de-DE\":\"Kennung für Financialdimension8\",\"en-US\":\"Unique key field to dimension key\",\"nl-NL\":\"Unieke sleutel naar de unieke sleutel van de dimensie\"}"
        }
      ]
    },
    {
      "name": "Quantity",
      "dataType": "decimal",
      "description": "Departments/Item Management/General Data/Items > Entries > Ledger Entry > Quantity ",
      "isHidden": true,
      "sourceColumn": "Quantity",
      "sourceProviderType": "decimal",
      "annotations": [
        {
          "name": "TabularEditor_TranslatedNames",
          "value": "{\"de-DE\":\"Menge\",\"en-US\":\"Quantity\",\"nl-NL\":\"Aantallen\"}"
        },
        {
          "name": "TabularEditor_TranslatedDescriptions",
          "value": "{\"de-DE\":\"Abteilungen/Lager/Historie/Historie/Artikelposten/Zeilen\",\"en-US\":\"Departments/Item Management/General Data/Items > Entries > Ledger Entry > Quantity \",\"nl-NL\":\"Afdelingen/Artikelbeheer/Stamgegevens/Artikelen > Posten > Posten > Aantal waar volgnummer = 1,3,5\"}"
        }
      ]
    },
    {
      "name": "PositiveQuantity",
      "dataType": "decimal",
      "description": "Departments/Item Management/General Data/Items > Entries > Ledger Entry > Quantity  where entry type = 1,3,5",
      "isHidden": true,
      "sourceColumn": "PositiveQuantity",
      "sourceProviderType": "decimal",
      "annotations": [
        {
          "name": "TabularEditor_TranslatedNames",
          "value": "{\"de-DE\":\"positive Menge\",\"en-US\":\"Positive Quantity\",\"nl-NL\":\"Positieve hoeveelheid\"}"
        },
        {
          "name": "TabularEditor_TranslatedDescriptions",
          "value": "{\"de-DE\":\"Abteilungen/Lager/Historie/Historie/Artikelposten/Zeilen\",\"en-US\":\"Departments/Item Management/General Data/Items > Entries > Ledger Entry > Quantity  where entry type = 1,3,5\",\"nl-NL\":\"Afdelingen/Artikelbeheer/Stamgegevens/Artikelen > Posten > Posten > Aantal waar volgnummer = 1,3,5\"}"
        }
      ]
    },
    {
      "name": "NegativeQuantity",
      "dataType": "decimal",
      "description": "Departments/Item Management/General Data/Items > Entries > Ledger Entry > Quantity  where entry type = 0,2,6",
      "isHidden": true,
      "sourceColumn": "NegativeQuantity",
      "sourceProviderType": "decimal",
      "annotations": [
        {
          "name": "TabularEditor_TranslatedNames",
          "value": "{\"de-DE\":\"Negative Menge\",\"en-US\":\"Negative Quantity\",\"nl-NL\":\"Negatieve hoeveelheid\"}"
        },
        {
          "name": "TabularEditor_TranslatedDescriptions",
          "value": "{\"de-DE\":\"Abteilungen/Lager/Historie/Historie/Artikelposten/Zeilen\",\"en-US\":\"Departments/Item Management/General Data/Items > Entries > Ledger Entry > Quantity  where entry type = 0,2,6\",\"nl-NL\":\"Afdelingen/Artikelbeheer/Stamgegevens/Artikelen > Posten > Posten > Aantal waar volgnummer = 0,2,6\"}"
        }
      ]
    },
    {
      "name": "PostingDateID",
      "dataType": "int64",
      "description": "Unique key field to dimension key",
      "isHidden": true,
      "sourceColumn": "PostingDateID",
      "annotations": [
        {
          "name": "TabularEditor_TranslatedNames",
          "value": "{\"de-DE\":\"PostingDatumID\",\"en-US\":\"PostingDateID\",\"nl-NL\":\"Postingdateid\"}"
        },
        {
          "name": "TabularEditor_TranslatedDescriptions",
          "value": "{\"de-DE\":\"Kennung für PostingDatum\",\"en-US\":\"Unique key field to dimension key\",\"nl-NL\":\"Unieke sleutel naar de unieke sleutel van de dimensie\"}"
        }
      ]
    },
    {
      "name": "IssueQuantity",
      "dataType": "decimal",
      "description": "Departments/Item Management/General Data/Items > Entries > Ledger Entry > Invoiced Quantity",
      "isHidden": true,
      "sourceColumn": "IssueQuantity",
      "annotations": [
        {
          "name": "TabularEditor_TranslatedNames",
          "value": "{\"de-DE\":\"Ausgabemenge\",\"en-US\":\"Issue Quantity\",\"nl-NL\":\"Verzonden hoeveelheid\"}"
        },
        {
          "name": "TabularEditor_TranslatedDescriptions",
          "value": "{\"de-DE\":\"Abteilungen/Lager/Historie/Historie/Artikelposten/Zeilen\",\"en-US\":\"Departments/Item Management/General Data/Items > Entries > Ledger Entry > Invoiced Quantity\",\"nl-NL\":\"Afdelingen/Artikelbeheer/Stamgegevens/Artikelen > Posten > Posten > Geboekt Aantal\"}"
        }
      ]
    },
    {
      "name": "ReceiptQuantity",
      "dataType": "decimal",
      "description": "Departments/Item Management/General Data/Items > Entries > Ledger Entry > Invoiced Quantity ",
      "isHidden": true,
      "sourceColumn": "ReceiptQuantity",
      "annotations": [
        {
          "name": "TabularEditor_TranslatedNames",
          "value": "{\"de-DE\":\"Empfangsmenge\",\"en-US\":\"Receipt Quantity\",\"nl-NL\":\"Ontvangen aantallen\"}"
        },
        {
          "name": "TabularEditor_TranslatedDescriptions",
          "value": "{\"de-DE\":\"Abteilungen/Lager/Historie/Historie/Artikelposten/Zeilen\",\"en-US\":\"Departments/Item Management/General Data/Items > Entries > Ledger Entry > Invoiced Quantity \",\"nl-NL\":\"Afdelingen/Artikelbeheer/Stamgegevens/Artikelen > Posten > Posten > Geboekt aantal\"}"
        }
      ]
    },
    {
      "name": "ItemVariantID",
      "dataType": "int64",
      "description": "Unique key field to dimension key",
      "isHidden": true,
      "sourceColumn": "ItemVariantID",
      "annotations": [
        {
          "name": "TabularEditor_TranslatedNames",
          "value": "{\"de-DE\":\"ItemvariantID\",\"en-US\":\"ItemVariantID\",\"nl-NL\":\"Itemvariantid\"}"
        },
        {
          "name": "TabularEditor_TranslatedDescriptions",
          "value": "{\"de-DE\":\"Kennung für ItemVariant\",\"en-US\":\"Unique key field to dimension key\",\"nl-NL\":\"Unieke sleutel naar de unieke sleutel van de dimensie\"}"
        }
      ]
    },
    {
      "name": "ItemLedgerEntryTypeID",
      "dataType": "int64",
      "isHidden": true,
      "sourceColumn": "ItemLedgerEntryTypeID"
    }
  ],
  "partitions": [
    {
      "name": "InventoryItemLedger",
      "source": {
        "type": "query",
        "query": "SELECT * FROM tabular.factInventoryItemLedger",
        "dataSource": "Birds"
      },
      "annotations": [
        {
          "name": "TabularEditor_TableSchema",
          "value": "{\"Name\":\"InventoryItemLedger\",\"Schema\":\"fact\",\"Database\":\"birds_nav_standard_2017\",\"IncludedColumns\":[\"StageID\",\"CompanyID\",\"DataConnectionID\",\"ComponentExecutionID\",\"ExecutionFlag\",\"DateID\",\"LocationID\",\"ItemID\",\"DocumentInventoryID\",\"FinancialDimension1ID\",\"FinancialDimension2ID\",\"FinancialDimension3ID\",\"FinancialDimension4ID\",\"FinancialDimension5ID\",\"FinancialDimension6ID\",\"FinancialDimension7ID\",\"FinancialDimension8ID\",\"ItemLedgerEntryCode\",\"Quantity\",\"PositiveQuantity\",\"NegativeQuantity\"],\"SelectAll\":true}"
        }
      ]
    }
  ],
  "annotations": [
    {
      "name": "Postfix",
      "value": "IIL"
    },
    {
      "name": "TabularEditor_TranslatedNames",
      "value": "{\"de-DE\":\"Σ Lager Lagerposten\",\"en-US\":\"Σ Inventory Item Ledger\",\"nl-NL\":\"Σ Voorraad Artikelposten\"}"
    },
    {
      "name": "TabularEditor_Relationships",
      "value": [
        "[",
        "  {",
        "    \"fromTable\": \"factInventoryItemLedger\",",
        "    \"fromColumn\": \"CompanyID\",",
        "    \"toTable\": \"Company\",",
        "    \"toColumn\": \"CompanyID\"",
        "  },",
        "  {",
        "    \"fromTable\": \"factInventoryItemLedger\",",
        "    \"fromColumn\": \"DocumentInventoryID\",",
        "    \"toTable\": \"DocumentInventory\",",
        "    \"toColumn\": \"DocumentInventoryID\"",
        "  },",
        "  {",
        "    \"fromTable\": \"factInventoryItemLedger\",",
        "    \"fromColumn\": \"FinancialDimension1ID\",",
        "    \"toTable\": \"FinancialDimension1\",",
        "    \"toColumn\": \"FinancialDimension1ID\"",
        "  },",
        "  {",
        "    \"fromTable\": \"factInventoryItemLedger\",",
        "    \"fromColumn\": \"FinancialDimension2ID\",",
        "    \"toTable\": \"FinancialDimension2\",",
        "    \"toColumn\": \"FinancialDimension2ID\"",
        "  },",
        "  {",
        "    \"fromTable\": \"factInventoryItemLedger\",",
        "    \"fromColumn\": \"FinancialDimension3ID\",",
        "    \"toTable\": \"FinancialDimension3\",",
        "    \"toColumn\": \"FinancialDimension3ID\"",
        "  },",
        "  {",
        "    \"fromTable\": \"factInventoryItemLedger\",",
        "    \"fromColumn\": \"FinancialDimension4ID\",",
        "    \"toTable\": \"FinancialDimension4\",",
        "    \"toColumn\": \"FinancialDimension4ID\"",
        "  },",
        "  {",
        "    \"fromTable\": \"factInventoryItemLedger\",",
        "    \"fromColumn\": \"FinancialDimension5ID\",",
        "    \"toTable\": \"FinancialDimension5\",",
        "    \"toColumn\": \"FinancialDimension5ID\"",
        "  },",
        "  {",
        "    \"fromTable\": \"factInventoryItemLedger\",",
        "    \"fromColumn\": \"FinancialDimension6ID\",",
        "    \"toTable\": \"FinancialDimension6\",",
        "    \"toColumn\": \"FinancialDimension6ID\"",
        "  },",
        "  {",
        "    \"fromTable\": \"factInventoryItemLedger\",",
        "    \"fromColumn\": \"FinancialDimension7ID\",",
        "    \"toTable\": \"FinancialDimension7\",",
        "    \"toColumn\": \"FinancialDimension7ID\"",
        "  },",
        "  {",
        "    \"fromTable\": \"factInventoryItemLedger\",",
        "    \"fromColumn\": \"FinancialDimension8ID\",",
        "    \"toTable\": \"FinancialDimension8\",",
        "    \"toColumn\": \"FinancialDimension8ID\"",
        "  },",
        "  {",
        "    \"fromTable\": \"factInventoryItemLedger\",",
        "    \"fromColumn\": \"ItemID\",",
        "    \"toTable\": \"Item\",",
        "    \"toColumn\": \"ItemID\"",
        "  },",
        "  {",
        "    \"fromTable\": \"factInventoryItemLedger\",",
        "    \"fromColumn\": \"ItemLedgerEntryTypeID\",",
        "    \"toTable\": \"ItemLedgerEntryType\",",
        "    \"toColumn\": \"ItemLedgerEntryTypeID\"",
        "  },",
        "  {",
        "    \"fromTable\": \"factInventoryItemLedger\",",
        "    \"fromColumn\": \"ItemVariantID\",",
        "    \"toTable\": \"ItemVariant\",",
        "    \"toColumn\": \"ItemVariantID\"",
        "  },",
        "  {",
        "    \"fromTable\": \"factInventoryItemLedger\",",
        "    \"fromColumn\": \"LocationID\",",
        "    \"toTable\": \"Location\",",
        "    \"toColumn\": \"LocationID\"",
        "  },",
        "  {",
        "    \"fromTable\": \"factInventoryItemLedger\",",
        "    \"fromColumn\": \"PostingDateID\",",
        "    \"toTable\": \"Date\",",
        "    \"toColumn\": \"DateID\"",
        "  },",
        "  {",
        "    \"fromTable\": \"factInventoryItemLedger\",",
        "    \"fromColumn\": \"PostingDateID\",",
        "    \"toTable\": \"PostingDate\",",
        "    \"toColumn\": \"DateID\"",
        "  }",
        "]"
      ]
    }
  ]
}