{
  "name": "AmountDiscount_AR",
  "description": "Departments/Sales/General Data/Customers > Ledger Entries > Navigate > Detailed Cust. Ledg. Entry > Amount Discount",
  "expression": "SUM ( 'factAccountsReceivable'[AmountDiscount_RCY] )",
  "formatString": "#,##0.00",
  "annotations": [
    {
      "name": "TabularEditor_TranslatedNames",
      "value": "{\"de-DE\":\"Rabatt\",\"en-US\":\"Amount Discount\",\"nl-NL\":\"Korting\"}"
    },
    {
      "name": "TabularEditor_TranslatedDescriptions",
      "value": "{\"de-DE\":\"Abteilungen > Verkauf & Marketing > Verkauf > Debitoren > Navigate > Posten\",\"en-US\":\"Departments/Sales/General Data/Customers > Ledger Entries > Navigate > Detailed Cust. Ledg. Entry > Amount Discount\",\"nl-NL\":\"Afdelingen/Verkoop/Stamgegevens/Klanten > Posten > Navigeren > Gedetailleerde klantenpost > Korting\"}"
    }
  ]
}