{
  "name": "AmountCredit_LCY_AR",
  "description": "Departments/Sales/General Data/Customers > Ledger Entries > Navigate > Detailed Cust. Ledg. Entry > Amount",
  "expression": "SUM ( 'factAccountsReceivable'[AmountCredit_LCY] )",
  "formatString": "#,##0.00",
  "displayFolder": "Σ Local Currency",
  "annotations": [
    {
      "name": "TabularEditor_TranslatedNames",
      "value": "{\"de-DE\":\"Betrag Haben lv\",\"en-US\":\"Amount Credit LCY\",\"nl-NL\":\"Bedrag credit lv\"}"
    },
    {
      "name": "TabularEditor_TranslatedDescriptions",
      "value": "{\"de-DE\":\"Abteilungen > Verkauf & Marketing > Verkauf > Debitoren > Navigate > Posten\",\"en-US\":\"Departments/Sales/General Data/Customers > Ledger Entries > Navigate > Detailed Cust. Ledg. Entry > Amount\",\"nl-NL\":\"Afdelingen/Verkoop/Stamgegevens/Klanten > Posten > Navigeren > Gedetailleerde klantenpost > Bedrag credit lv\"}"
    },
    {
      "name": "TabularEditor_TranslatedDisplayFolders",
      "value": "{\"de-DE\":\"Σ Local Währung\",\"en-US\":\"Σ Local Currency\",\"nl-NL\":\"Σ Lokale Valuta\"}"
    }
  ]
}