{
  "name": "Balance_AR",
  "description": "Departments/Sales/General Data/Customers > Ledger Entries > Navigate > Detailed Cust. Ledg. Entry > Amount up to selected date",
  "expression": [
    "VAR Balance =",
    "    FILTER ( ALL ( 'Date' ), 'Date'[DateID] <= MAX ( 'Date'[DateID] ) )",
    "VAR BalanceAmount =",
    "    CALCULATE ( [Amount_AR], Balance )",
    "RETURN",
    "    IF (",
    "        BalanceAmount <> 0",
    "            || [Amount_AR] <> 0",
    "            || [AmountCredit_AR] <> 0",
    "            || [AmountDebit_AR] <> 0,",
    "        BalanceAmount",
    "    )"
  ],
  "formatString": "#,##0.00",
  "annotations": [
    {
      "name": "TabularEditor_TranslatedNames",
      "value": "{\"de-DE\":\"Debitorenbilanz\",\"en-US\":\"AR Balance\",\"nl-NL\":\"Debiteurensaldo\"}"
    },
    {
      "name": "TabularEditor_TranslatedDescriptions",
      "value": "{\"de-DE\":\"Abteilungen > Verkauf & Marketing > Verkauf > Debitoren > Navigate > Posten\",\"en-US\":\"Departments/Sales/General Data/Customers > Ledger Entries > Navigate > Detailed Cust. Ledg. Entry > Amount up to selected date\",\"nl-NL\":\"Afdelingen/Verkoop/Stamgegevens/Klanten > Posten > Navigeren > Gedetailleerde klantenpost > Debiteurensaldo\"}"
    }
  ]
}