{
  "name": "OpenInvoicesDueDaysAgeGroup_AR",
  "description": "Departments/Sales/General Data/Customers > Ledger Entries > Navigate > Detailed Cust. Ledg. Entry",
  "expression": [
    "VAR MaxDate =",
    "    MAX ( 'Date'[Date] )",
    "RETURN",
    "    CALCULATE (",
    "        DISTINCTCOUNT ( 'factAccountsReceivable'[CustomerInvoiceID] ),",
    "        FILTER (",
    "            ADDCOLUMNS (",
    "                FILTER (",
    "                    'CustomerInvoice',",
    "                    'CustomerInvoice'[CustomerInvoicePaidDate] > MaxDate",
    "                        && 'CustomerInvoice'[CustomerInvoicePostingDate] <= MaxDate",
    "                        && 'CustomerInvoice'[CustomerInvoiceID] <> 0",
    "                ),",
    "                \"OverdueDays\", IF (",
    "                    'CustomerInvoice'[CustomerInvoiceDueDate] < MaxDate,",
    "                    DATEDIFF ( 'CustomerInvoice'[CustomerInvoiceDueDate], MaxDate, DAY ),",
    "                    DATEDIFF ( MaxDate, 'CustomerInvoice'[CustomerInvoiceDueDate], DAY ) * -1",
    "                )",
    "            ),",
    "            [OverdueDays] >= [DueDaysAgeGroupMinLowerBoundary]",
    "                && [OverdueDays] <= [DueDaysAgeGroupMaxUpperBoundary]",
    "                && [OverdueDays] >= [AgeGroupMinLowerBoundary]",
    "                && [OverdueDays] <= [AgeGroupMaxUpperBoundary]",
    "        ),",
    "        FILTER ( ALL ( 'Date' ), 'Date'[Date] <= MaxDate )",
    "    )"
  ],
  "formatString": "#,##0",
  "displayFolder": "Σ Age Group (by invoice date)",
  "annotations": [
    {
      "name": "TabularEditor_TranslatedNames",
      "value": "{\"de-DE\":\"# Offene Rechnungen\",\"en-US\":\"# Open Invoices\",\"nl-NL\":\"# Openstaande facturen\"}"
    },
    {
      "name": "TabularEditor_TranslatedDescriptions",
      "value": "{\"de-DE\":\"Abteilungen > Verkauf & Marketing > Verkauf > Debitoren > Navigate > Posten\",\"en-US\":\"Departments/Sales/General Data/Customers > Ledger Entries > Navigate > Detailed Cust. Ledg. Entry\",\"nl-NL\":\"Afdelingen/Verkoop/Stamgegevens/Klanten > Posten > Navigeren > Gedetailleerde klantenpost > # Openstaande facturen\"}"
    },
    {
      "name": "TabularEditor_TranslatedDisplayFolders",
      "value": "{\"de-DE\":\"Σ Altersgruppe (by Sachkonto Datum)\",\"en-US\":\"Σ Age Group (by invoice date)\",\"nl-NL\":\"Σ Ouderdomsanalyse (op factuurdatum)\"}"
    }
  ]
}