{
  "name": "OpenInvoices_AR",
  "description": "Departments/Sales/General Data/Customers > Ledger Entries > Navigate > Detailed Cust. Ledg. Entry",
  "expression": [
    "VAR MaxDate =",
    "    MAX ( 'Date'[Date] )",
    "VAR OpenInvoices =",
    "    FILTER (",
    "        'CustomerInvoice',",
    "        'CustomerInvoice'[CustomerInvoicePaidDate] > MaxDate",
    "            && 'CustomerInvoice'[CustomerInvoicePostingDate] <= MaxDate",
    "            && 'CustomerInvoice'[CustomerInvoiceID] <> 0",
    "    )",
    "VAR Balance =",
    "    FILTER ( ALL ( 'Date' ), 'Date'[Date] <= MaxDate )",
    "RETURN",
    "    CALCULATE (",
    "        DISTINCTCOUNT ( 'factAccountsReceivable'[CustomerInvoiceID] ),",
    "        OpenInvoices,",
    "        Balance",
    "    )"
  ],
  "formatString": "#,##0",
  "displayFolder": "Σ # Invoices",
  "annotations": [
    {
      "name": "TabularEditor_TranslatedNames",
      "value": "{\"de-DE\":\"# Offene Rechnungen\",\"en-US\":\"# Open Invoices\",\"nl-NL\":\"# Openstaande facturen\"}"
    },
    {
      "name": "TabularEditor_TranslatedDescriptions",
      "value": "{\"de-DE\":\"Abteilungen > Verkauf & Marketing > Verkauf > Debitoren > Navigate > Posten\",\"en-US\":\"Departments/Sales/General Data/Customers > Ledger Entries > Navigate > Detailed Cust. Ledg. Entry\",\"nl-NL\":\"Afdelingen/Verkoop/Stamgegevens/Klanten > Posten > Navigeren > Gedetailleerde klantenpost > # Openstaande facturen\"}"
    }
  ]
}