{
  "name": "WarehouseEntryCubage_WHE",
  "expression": "SUM ( 'factWarehouseEntry'[WarehouseEntryCubage] )",
  "formatString": "#,##0.00",
  "annotations": [
    {
      "name": "TabularEditor_TranslatedNames",
      "value": "{\"de-DE\":\"Lagerplatzposten Volumen\",\"en-US\":\"Cubage\",\"nl-NL\":\"Kubieke Inhoud\"}"
    },
    {
      "name": "TabularEditor_TranslatedDescriptions",
      "value": "{\"de-DE\":\"Abteilungen/Lager/Historie/Historie/Lagerplatzposten\",\"en-US\":\"Departments/Inventory and Warehouse/History\",\"nl-NL\":\"Afdelingen/Voorraad en magazijn/Historie\"}"
    }
  ]
}