{
  "name": "WarehouseEntryWeight_YTD_Variance%_WHE",
  "description": " YTD Variance %",
  "expression": "DIVIDE ( [WarehouseEntryWeight_YTD_WHE] - [WarehouseEntryWeight_LYTD_WHE], [WarehouseEntryWeight_LYTD_WHE] )",
  "formatString": "#,##0.0 %",
  "displayFolder": "Σ YTD Variance",
  "annotations": [
    {
      "name": "TabularEditor_TranslatedNames",
      "value": "{\"de-DE\":\"Lagerplatzposten Gewicht YTD Varianz %\",\"en-US\":\"Weight YTD Variance %\",\"nl-NL\":\"Gewicht YTD Variance %\"}"
    },
    {
      "name": "TabularEditor_TranslatedDescriptions",
      "value": "{\"de-DE\":\"Abteilungen/Lager/Historie/Historie/Lagerplatzposten\",\"en-US\":\"Departments/Inventory and Warehouse/History YTD Variance %\",\"nl-NL\":\"Afdelingen/Voorraad en magazijn/Historie YTD Variance %\"}"
    },
    {
      "name": "TabularEditor_TranslatedDisplayFolders",
      "value": "{\"de-DE\":\"Σ YTD Varianz\",\"en-US\":\"Σ YTD Variance\",\"nl-NL\":\"Σ YTD Variance\"}"
    }
  ]
}