{
  "name": "WarehouseEntryCubage_LYTD_WHE",
  "description": " LYTD",
  "expression": [
    "VAR LYTD =",
    "    FILTER (",
    "        ALL ( 'Date' ),",
    "        'Date'[CYearNo]",
    "            = MAX ( 'Date'[CYearNo] ) - 1",
    "            && 'Date'[Date] <= MAX ( 'Date'[TDatePY] )",
    "    )",
    "RETURN",
    "    CALCULATE ( [WarehouseEntryCubage_WHE], LYTD )"
  ],
  "formatString": "#,##0.00",
  "displayFolder": "Σ LYTD",
  "annotations": [
    {
      "name": "TabularEditor_TranslatedNames",
      "value": "{\"de-DE\":\"Lagerplatzposten Volumen LYTD\",\"en-US\":\"Cubage LYTD\",\"nl-NL\":\"Kubieke Inhoud LYTD\"}"
    },
    {
      "name": "TabularEditor_TranslatedDescriptions",
      "value": "{\"de-DE\":\"Abteilungen/Lager/Historie/Historie/Lagerplatzposten\",\"en-US\":\"Departments/Inventory and Warehouse/History LYTD\",\"nl-NL\":\"Afdelingen/Voorraad en magazijn/Historie LYTD\"}"
    },
    {
      "name": "TabularEditor_TranslatedDisplayFolders",
      "value": "{\"de-DE\":\"Σ LYTD\",\"en-US\":\"Σ LYTD\",\"nl-NL\":\"Σ LYTD\"}"
    }
  ]
}