{
  "name": "WarehouseEntryCubage_LYMTD_WHE",
  "description": " LYMTD",
  "expression": [
    "VAR LYMTD =",
    "    FILTER (",
    "        ALL ( 'Date' ),",
    "        'Date'[Date] <= MAX ( 'Date'[TDatePY] )",
    "            && 'Date'[CMonthNo] = MAX ( 'Date'[CMonthNo] )",
    "            && 'Date'[CYearNo]",
    "                = MAX ( 'Date'[CYearNo] ) - 1",
    "    )",
    "RETURN",
    "    CALCULATE ( [WarehouseEntryCubage_WHE], LYMTD )",
    ""
  ],
  "formatString": "#,##0.00",
  "displayFolder": "Σ LYMTD",
  "annotations": [
    {
      "name": "TabularEditor_TranslatedNames",
      "value": "{\"de-DE\":\"Lagerplatzposten Volumen LYMTD\",\"en-US\":\"Cubage LYMTD\",\"nl-NL\":\"Kubieke Inhoud LYMTD\"}"
    },
    {
      "name": "TabularEditor_TranslatedDescriptions",
      "value": "{\"de-DE\":\"Abteilungen/Lager/Historie/Historie/Lagerplatzposten\",\"en-US\":\"Departments/Inventory and Warehouse/History LYMTD\",\"nl-NL\":\"Afdelingen/Voorraad en magazijn/Historie LYMTD\"}"
    },
    {
      "name": "TabularEditor_TranslatedDisplayFolders",
      "value": "{\"de-DE\":\"Σ LYMTD\",\"en-US\":\"Σ LYMTD\",\"nl-NL\":\"Σ LYMTD\"}"
    }
  ]
}