{
  "name": "GeneralBusinessPostingGroup",
  "columns": [
    {
      "name": "GeneralBusinessPostingGroupID",
      "dataType": "int64",
      "description": "Unique identifier for dimension General Business Posting Group",
      "isHidden": true,
      "sourceColumn": "GeneralBusinessPostingGroupID",
      "sourceProviderType": "Integer",
      "annotations": [
        {
          "name": "TabularEditor_TranslatedNames",
          "value": "{\"de-DE\":\"GeneralBusinessPostingGroupID\",\"en-US\":\"GeneralBusinessPostingGroupID\",\"nl-NL\":\"Generalbusinesspostinggroupid\"}"
        },
        {
          "name": "TabularEditor_TranslatedDescriptions",
          "value": "{\"de-DE\":\"Kennung für GeneralBusinessPostingGroup\",\"en-US\":\"Unique identifier for dimension General Business Posting Group\",\"nl-NL\":\"Unieke sleutel voor dimensie Generieke Bedrijfsboekingsgroep\"}"
        }
      ]
    },
    {
      "name": "GeneralBusinessPostingGroupCode",
      "dataType": "string",
      "description": "Functional Management > Finance > Posting Groups > Gen Business Posting Groups > Code",
      "isHidden": true,
      "sourceColumn": "GeneralBusinessPostingGroupCode",
      "sourceProviderType": "WChar",
      "annotations": [
        {
          "name": "TabularEditor_TranslatedNames",
          "value": "{\"de-DE\":\"Geschäftsbuchungsgruppe Code\",\"en-US\":\"Gen Business Posting Group Code\",\"nl-NL\":\"Bedrijfsboekingsgroepcode\"}"
        },
        {
          "name": "TabularEditor_TranslatedDescriptions",
          "value": "{\"de-DE\":\"Abteilungen/Finanzmanagement/Einrichtung/Buchungsgruppen\",\"en-US\":\"Functional Management > Finance > Posting Groups > Gen Business Posting Groups > Code\",\"nl-NL\":\"Functioneel beheer > Financieel > Boekingsgroepen > Bedrijfsboekingsgroepen > Code\"}"
        }
      ]
    },
    {
      "name": "GeneralBusinessPostingGroupDescription",
      "dataType": "string",
      "description": "Functional Management > Finance > Posting Groups > Gen Business Posting Groups > Description",
      "isHidden": true,
      "sourceColumn": "GeneralBusinessPostingGroupDescription",
      "sourceProviderType": "WChar",
      "annotations": [
        {
          "name": "TabularEditor_TranslatedNames",
          "value": "{\"de-DE\":\"Geschäftsbuchungsgruppe Beschreibung\",\"en-US\":\"Gen Business Posting Group Desc\",\"nl-NL\":\"Bedrijfsboekingsgroepomschrijving\"}"
        },
        {
          "name": "TabularEditor_TranslatedDescriptions",
          "value": "{\"de-DE\":\"Abteilungen/Finanzmanagement/Einrichtung/Buchungsgruppen\",\"en-US\":\"Functional Management > Finance > Posting Groups > Gen Business Posting Groups > Description\",\"nl-NL\":\"Functioneel beheer > Financieel > Boekingsgroepen > Bedrijfsboekingsgroepen > Omschrijving\"}"
        }
      ]
    },
    {
      "name": "GeneralBusinessPostingGroupCodeDescription",
      "dataType": "string",
      "description": "Functional Management > Finance > Posting Groups > Gen Business Posting Groups > Code and Description",
      "sourceColumn": "GeneralBusinessPostingGroupCodeDescription",
      "sourceProviderType": "WChar",
      "annotations": [
        {
          "name": "TabularEditor_TranslatedNames",
          "value": "{\"de-DE\":\"Geschäftsbuchungsgruppe Code Beschreibung\",\"en-US\":\"Gen Business Posting Group\",\"nl-NL\":\"Bedrijfsboekingsgroep\"}"
        },
        {
          "name": "TabularEditor_TranslatedDescriptions",
          "value": "{\"de-DE\":\"Abteilungen/Finanzmanagement/Einrichtung/Buchungsgruppen\",\"en-US\":\"Functional Management > Finance > Posting Groups > Gen Business Posting Groups > Code and Description\",\"nl-NL\":\"Functioneel beheer > Financieel > Boekingsgroepen > Bedrijfsboekingsgroepen > Code en Omschrijving\"}"
        }
      ]
    }
  ],
  "partitions": [
    {
      "name": "GeneralBusinessPostingGroup",
      "dataView": "full",
      "source": {
        "type": "query",
        "query": "SELECT * FROM tabular.GeneralBusinessPostingGroup",
        "dataSource": "Birds"
      }
    }
  ],
  "annotations": [
    {
      "name": "_TM_ExtProp_QueryDefinition",
      "value": " SELECT [dim].[GeneralBusinessPostingGroup].* FROM [dim].[GeneralBusinessPostingGroup] "
    },
    {
      "name": "_TM_ExtProp_DbTableName",
      "value": "GeneralBusinessPostingGroup"
    },
    {
      "name": "_TM_ExtProp_DbSchemaName",
      "value": "dim"
    },
    {
      "name": "ContentPacks",
      "value": "Standard"
    },
    {
      "name": "TabularEditor_TranslatedNames",
      "value": "{\"de-DE\":\"Geschäftsbuchungsgruppe\",\"en-US\":\"General Business Posting Group\",\"nl-NL\":\"Bedrijfsboekingsgroep\"}"
    },
    {
      "name": "TabularEditor_Relationships",
      "value": "[]"
    }
  ]
}