{
  "base_name": "DocumentWarehouse",
  "category": "dim",
  "database_object": {
    "table_identifier": "dim.DocumentWarehouse",
    "columns": [
      {
        "column_name": "DocumentWarehouseID",
        "data_type": "int",
        "character_maximum_length": null,
        "numeric_precision": 10,
        "numeric_scale": 0,
        "nullable": false,
        "business_key": false
      },
      {
        "column_name": "ExecutionTimestamp",
        "data_type": "timestamp",
        "character_maximum_length": null,
        "numeric_precision": null,
        "numeric_scale": null,
        "nullable": false,
        "business_key": false
      },
      {
        "column_name": "ComponentExecutionID",
        "data_type": "int",
        "character_maximum_length": null,
        "numeric_precision": 10,
        "numeric_scale": 0,
        "nullable": false,
        "business_key": false
      },
      {
        "column_name": "WarehouseDocumentCode",
        "data_type": "nvarchar",
        "character_maximum_length": 20,
        "numeric_precision": null,
        "numeric_scale": null,
        "nullable": false,
        "business_key": false
      },
      {
        "column_name": "WarehouseDocumentTypeCode",
        "data_type": "int",
        "character_maximum_length": null,
        "numeric_precision": 10,
        "numeric_scale": 0,
        "nullable": false,
        "business_key": false
      },
      {
        "column_name": "CompanyID",
        "data_type": "int",
        "character_maximum_length": null,
        "numeric_precision": 10,
        "numeric_scale": 0,
        "nullable": false,
        "business_key": false
      },
      {
        "column_name": "DataConnectionID",
        "data_type": "int",
        "character_maximum_length": null,
        "numeric_precision": 10,
        "numeric_scale": 0,
        "nullable": false,
        "business_key": false
      },
      {
        "column_name": "DocumentTypeDescription",
        "data_type": "nvarchar",
        "character_maximum_length": 255,
        "numeric_precision": null,
        "numeric_scale": null,
        "nullable": false,
        "business_key": false
      },
      {
        "column_name": "PostingDate",
        "data_type": "datetime2",
        "character_maximum_length": null,
        "numeric_precision": null,
        "numeric_scale": null,
        "nullable": false,
        "business_key": false
      },
      {
        "column_name": "VendorShipmentNo",
        "data_type": "nvarchar",
        "character_maximum_length": 35,
        "numeric_precision": null,
        "numeric_scale": null,
        "nullable": false,
        "business_key": false
      },
      {
        "column_name": "AssignmentDate",
        "data_type": "datetime2",
        "character_maximum_length": null,
        "numeric_precision": null,
        "numeric_scale": null,
        "nullable": false,
        "business_key": false
      },
      {
        "column_name": "AssignmentTime",
        "data_type": "datetime2",
        "character_maximum_length": null,
        "numeric_precision": null,
        "numeric_scale": null,
        "nullable": false,
        "business_key": false
      }
    ],
    "indexes": []
  },
  "load_procedures": [],
  "views": null,
  "queries": [
    {
      "name": "default",
      "select_file_path": "default.sql",
      "sequence": 200,
      "aliases": []
    }
  ],
  "query_columns": [
    {
      "column_sequence": 1,
      "column_name": "CompanyID",
      "data_type_full": "int",
      "type": "system_key"
    },
    {
      "column_sequence": 2,
      "column_name": "DataConnectionID",
      "data_type_full": "int",
      "type": "system_key"
    },
    {
      "column_sequence": 3,
      "column_name": "WarehouseDocumentCode",
      "data_type_full": "nvarchar(20)",
      "type": "business_key"
    },
    {
      "column_sequence": 4,
      "column_name": "WarehouseDocumentTypeCode",
      "data_type_full": "int",
      "type": "business_key"
    },
    {
      "column_sequence": 5,
      "column_name": "DocumentTypeDescription",
      "data_type_full": "nvarchar(255)",
      "type": "attribute"
    },
    {
      "column_sequence": 6,
      "column_name": "PostingDate",
      "data_type_full": "datetime2",
      "type": "attribute"
    },
    {
      "column_sequence": 7,
      "column_name": "VendorShipmentNo",
      "data_type_full": "nvarchar(35)",
      "type": "attribute"
    },
    {
      "column_sequence": 8,
      "column_name": "AssignmentDate",
      "data_type_full": "datetime2",
      "type": "attribute"
    },
    {
      "column_sequence": 9,
      "column_name": "AssignmentTime",
      "data_type_full": "datetime2",
      "type": "attribute"
    }
  ],
  "dimensions": [],
  "load_type": 1,
  "manual_mode": false,
  "is_customized": false
}