{
  "name": "DueDaysAgeGroup",
  "isHidden": true,
  "columns": [
    {
      "type": "calculatedTableColumn",
      "name": "AgeGroupCode",
      "dataType": "string",
      "isNameInferred": true,
      "isDataTypeInferred": true,
      "description": "Age Group for Due Days",
      "sourceColumn": "AgeGroup[AgeGroupCode]",
      "sortByColumn": "AgeGroupMin",
      "annotations": [
        {
          "name": "TabularEditor_TranslatedNames",
          "value": "{\"de-DE\":\"Altersgruppe Code\",\"en-US\":\"Age Group\",\"nl-NL\":\"Ouderdomsgroep\"}"
        },
        {
          "name": "TabularEditor_TranslatedDescriptions",
          "value": "{\"de-DE\":\"Altersgruppe Code\",\"en-US\":\"Age Group for Due Days\",\"nl-NL\":\"Ouderdomsgroepcode\"}"
        }
      ]
    },
    {
      "type": "calculatedTableColumn",
      "name": "AgeGroupDesc",
      "dataType": "string",
      "isNameInferred": true,
      "isDataTypeInferred": true,
      "description": "Age Group description (e.g. 0 - 30 days)",
      "isHidden": true,
      "sourceColumn": "AgeGroup[AgeGroupDesc]",
      "sortByColumn": "AgeGroupMin",
      "annotations": [
        {
          "name": "TabularEditor_TranslatedNames",
          "value": "{\"de-DE\":\"Altersgruppe Beschreibung\",\"en-US\":\"Age Group Desc\",\"nl-NL\":\"Ouderdomsgroepomschrijving\"}"
        },
        {
          "name": "TabularEditor_TranslatedDescriptions",
          "value": "{\"de-DE\":\"Altersgruppe Beschreibung\",\"en-US\":\"Age Group description (e.g. 0 - 30 days)\",\"nl-NL\":\"Ouderdomsgroepomschrijving (bijv 0 - 30 dagen)\"}"
        }
      ]
    },
    {
      "type": "calculatedTableColumn",
      "name": "AgeGroupID",
      "dataType": "int64",
      "isNameInferred": true,
      "isDataTypeInferred": true,
      "description": "Unique identifier for the Age Group",
      "isHidden": true,
      "sourceColumn": "AgeGroup[AgeGroupID]",
      "annotations": [
        {
          "name": "TabularEditor_TranslatedNames",
          "value": "{\"de-DE\":\"AgeGroupID\",\"en-US\":\"AgeGroupID\",\"nl-NL\":\"Agegroupid\"}"
        },
        {
          "name": "TabularEditor_TranslatedDescriptions",
          "value": "{\"de-DE\":\"Kennung für AgeGroup\",\"en-US\":\"Unique identifier for the Age Group\",\"nl-NL\":\"Unieke sleutel voor ouderdomsgroep\"}"
        }
      ]
    },
    {
      "type": "calculatedTableColumn",
      "name": "AgeGroupMax",
      "dataType": "int64",
      "isNameInferred": true,
      "isDataTypeInferred": true,
      "description": "Maximum value within the age group",
      "isHidden": true,
      "sourceColumn": "AgeGroup[AgeGroupMax]",
      "annotations": [
        {
          "name": "TabularEditor_TranslatedNames",
          "value": "{\"de-DE\":\"Altersgruppe Min\",\"en-US\":\"Age Group Max\",\"nl-NL\":\"Ouderdomsgroep max\"}"
        },
        {
          "name": "TabularEditor_TranslatedDescriptions",
          "value": "{\"de-DE\":\"Höchsten Wert in Der Altersgruppe\",\"en-US\":\"Maximum value within the age group\",\"nl-NL\":\"Maximale ouderdom binnen de ouderdomsgroep\"}"
        }
      ]
    },
    {
      "type": "calculatedTableColumn",
      "name": "AgeGroupMin",
      "dataType": "int64",
      "isNameInferred": true,
      "isDataTypeInferred": true,
      "description": "Minimum value within the age group",
      "isHidden": true,
      "sourceColumn": "AgeGroup[AgeGroupMin]",
      "annotations": [
        {
          "name": "TabularEditor_TranslatedNames",
          "value": "{\"de-DE\":\"Altersgruppe Max\",\"en-US\":\"Age Group Min\",\"nl-NL\":\"Ouderdomsgroep min\"}"
        },
        {
          "name": "TabularEditor_TranslatedDescriptions",
          "value": "{\"de-DE\":\"Unterste Wert in Der Altersgruppe\",\"en-US\":\"Minimum value within the age group\",\"nl-NL\":\"Minimale ouderdom binnen de ouderdomsgroep\"}"
        }
      ]
    }
  ],
  "partitions": [
    {
      "name": "Calculated Table",
      "source": {
        "type": "calculated",
        "expression": "ALL('AgeGroup')"
      }
    }
  ],
  "annotations": [
    {
      "name": "ContentPacks",
      "value": "Standard"
    },
    {
      "name": "TabularEditor_TranslatedNames",
      "value": "{\"de-DE\":\"Alterungsgruppe (Fälligkeitsdatum)\",\"en-US\":\"Age Group (due days)\",\"nl-NL\":\"Ouderdomsgroep (vervaldatum)\"}"
    },
    {
      "name": "TabularEditor_Relationships",
      "value": "[]"
    }
  ]
}