{
  "name": "ChangeAmount_YTD_Index_PPE",
  "expression": "DIVIDE ( [ChangeAmount_YTD_PPE], [ChangeAmount_LYTD_PPE] ) * 100",
  "formatString": "#,##0.0",
  "displayFolder": "Σ YTD Variance",
  "annotations": [
    {
      "name": "TabularEditor_TranslatedNames",
      "value": "{\"en-US\":\"Change Amount YTD Index\",\"nl-NL\":\"Wisselgeld YTD Index\"}"
    },
    {
      "name": "TabularEditor_TranslatedDisplayFolders",
      "value": "{\"en-US\":\"Σ YTD Variance\",\"nl-NL\":\"Σ YTD Variance\"}"
    }
  ]
}