{
  "name": "PaidAmountCurrency_YTD_Index_PPE",
  "expression": "DIVIDE ( [PaidAmountCurrency_YTD_PPE], [PaidAmountCurrency_LYTD_PPE] ) * 100",
  "formatString": "#,##0.0",
  "displayFolder": "Σ YTD Variance",
  "annotations": [
    {
      "name": "TabularEditor_TranslatedNames",
      "value": "{\"en-US\":\"Paid Amount Currency YTD Index\",\"nl-NL\":\"Betaald bedrag valuta YTD Index\"}"
    },
    {
      "name": "TabularEditor_TranslatedDisplayFolders",
      "value": "{\"en-US\":\"Σ YTD Variance\",\"nl-NL\":\"Σ YTD Variance\"}"
    }
  ]
}