{
  "name": "RemainingQuantity_SILE",
  "description": "Remaining Quantity from Item Ledger Entry",
  "expression": "SUM ( 'factSalesItemLedgerEntry'[RemainingQuantity] )",
  "formatString": "#,##0",
  "annotations": [
    {
      "name": "TabularEditor_TranslatedNames",
      "value": "{\"de-DE\":\"Restmenge\",\"en-US\":\"Remaining Quantity\",\"nl-NL\":\"Resterend aantal\"}"
    },
    {
      "name": "TabularEditor_TranslatedDescriptions",
      "value": "{\"de-DE\":\"Abteilungen/Verkauf & Marketing/Auftragsabwicklung/Aufträge/Lieferungen\",\"en-US\":\"Remaining Quantity from Item Ledger Entry\",\"nl-NL\":\"Resterend aantal vanuit de Artikelposten\"}"
    }
  ]
}