{
  "name": "IsCreditMaxCode",
  "description": "Field to define max credit code",
  "expression": "MAX ( 'IsCredit'[YesNoCode] )",
  "isHidden": true,
  "annotations": [
    {
      "name": "TabularEditor_TranslatedNames",
      "value": "{\"de-DE\":\"IsHabenMaxCode\",\"en-US\":\"Is Credit Max Code\",\"nl-NL\":\"Is krediet code max\"}"
    },
    {
      "name": "TabularEditor_TranslatedDescriptions",
      "value": "{\"de-DE\":\"IsHabenMaxCode\",\"en-US\":\"Field to define max credit code\",\"nl-NL\":\"De hoogste krediet code\"}"
    }
  ]
}