{
  "base_name": "Warehouse",
  "category": "fact",
  "database_object": {
    "table_identifier": "fact.Warehouse",
    "columns": [
      {
        "column_name": "ExecutionTimestamp",
        "data_type": "timestamp",
        "character_maximum_length": null,
        "numeric_precision": null,
        "numeric_scale": null,
        "nullable": false,
        "business_key": false
      },
      {
        "column_name": "ComponentExecutionID",
        "data_type": "int",
        "character_maximum_length": null,
        "numeric_precision": 10,
        "numeric_scale": 0,
        "nullable": false,
        "business_key": false
      },
      {
        "column_name": "ExecutionFlag",
        "data_type": "nvarchar",
        "character_maximum_length": 10,
        "numeric_precision": null,
        "numeric_scale": null,
        "nullable": false,
        "business_key": false
      },
      {
        "column_name": "Status",
        "data_type": "int",
        "character_maximum_length": null,
        "numeric_precision": 10,
        "numeric_scale": 0,
        "nullable": true,
        "business_key": false
      },
      {
        "column_name": "SourceDocument",
        "data_type": "int",
        "character_maximum_length": null,
        "numeric_precision": 10,
        "numeric_scale": 0,
        "nullable": true,
        "business_key": false
      },
      {
        "column_name": "ZoneCode",
        "data_type": "nvarchar",
        "character_maximum_length": 255,
        "numeric_precision": null,
        "numeric_scale": null,
        "nullable": true,
        "business_key": false
      },
      {
        "column_name": "StageID",
        "data_type": "int",
        "character_maximum_length": null,
        "numeric_precision": 10,
        "numeric_scale": 0,
        "nullable": false,
        "business_key": false
      },
      {
        "column_name": "WarehouseType",
        "data_type": "int",
        "character_maximum_length": null,
        "numeric_precision": 10,
        "numeric_scale": 0,
        "nullable": false,
        "business_key": false
      },
      {
        "column_name": "CompanyID",
        "data_type": "int",
        "character_maximum_length": null,
        "numeric_precision": 10,
        "numeric_scale": 0,
        "nullable": false,
        "business_key": false
      },
      {
        "column_name": "DataConnectionID",
        "data_type": "int",
        "character_maximum_length": null,
        "numeric_precision": 10,
        "numeric_scale": 0,
        "nullable": false,
        "business_key": false
      },
      {
        "column_name": "ActionTypeID",
        "data_type": "int",
        "character_maximum_length": null,
        "numeric_precision": 10,
        "numeric_scale": 0,
        "nullable": false,
        "business_key": false
      },
      {
        "column_name": "ActivityTypeID",
        "data_type": "int",
        "character_maximum_length": null,
        "numeric_precision": 10,
        "numeric_scale": 0,
        "nullable": false,
        "business_key": false
      },
      {
        "column_name": "DocumentWarehouseID",
        "data_type": "int",
        "character_maximum_length": null,
        "numeric_precision": 10,
        "numeric_scale": 0,
        "nullable": false,
        "business_key": false
      },
      {
        "column_name": "ItemID",
        "data_type": "int",
        "character_maximum_length": null,
        "numeric_precision": 10,
        "numeric_scale": 0,
        "nullable": false,
        "business_key": false
      },
      {
        "column_name": "LotID",
        "data_type": "int",
        "character_maximum_length": null,
        "numeric_precision": 10,
        "numeric_scale": 0,
        "nullable": false,
        "business_key": false
      },
      {
        "column_name": "SourceID",
        "data_type": "int",
        "character_maximum_length": null,
        "numeric_precision": 10,
        "numeric_scale": 0,
        "nullable": false,
        "business_key": false
      },
      {
        "column_name": "DateID",
        "data_type": "int",
        "character_maximum_length": null,
        "numeric_precision": 10,
        "numeric_scale": 0,
        "nullable": false,
        "business_key": false
      },
      {
        "column_name": "PostingDateID",
        "data_type": "int",
        "character_maximum_length": null,
        "numeric_precision": 10,
        "numeric_scale": 0,
        "nullable": false,
        "business_key": false
      },
      {
        "column_name": "WarrantyDateID",
        "data_type": "int",
        "character_maximum_length": null,
        "numeric_precision": 10,
        "numeric_scale": 0,
        "nullable": false,
        "business_key": false
      },
      {
        "column_name": "ExpirationDateID",
        "data_type": "int",
        "character_maximum_length": null,
        "numeric_precision": 10,
        "numeric_scale": 0,
        "nullable": false,
        "business_key": false
      },
      {
        "column_name": "ItemVariantID",
        "data_type": "int",
        "character_maximum_length": null,
        "numeric_precision": 10,
        "numeric_scale": 0,
        "nullable": false,
        "business_key": false
      },
      {
        "column_name": "WarehouseEmployeeID",
        "data_type": "int",
        "character_maximum_length": null,
        "numeric_precision": 10,
        "numeric_scale": 0,
        "nullable": false,
        "business_key": false
      },
      {
        "column_name": "BinID",
        "data_type": "int",
        "character_maximum_length": null,
        "numeric_precision": 10,
        "numeric_scale": 0,
        "nullable": false,
        "business_key": false
      },
      {
        "column_name": "WarehouseQuantityBase",
        "data_type": "decimal",
        "character_maximum_length": null,
        "numeric_precision": 19,
        "numeric_scale": 4,
        "nullable": true,
        "business_key": false
      },
      {
        "column_name": "WarehouseQuantityPutAwayBase",
        "data_type": "decimal",
        "character_maximum_length": null,
        "numeric_precision": 19,
        "numeric_scale": 4,
        "nullable": true,
        "business_key": false
      },
      {
        "column_name": "WarehouseCubage",
        "data_type": "decimal",
        "character_maximum_length": null,
        "numeric_precision": 19,
        "numeric_scale": 4,
        "nullable": true,
        "business_key": false
      },
      {
        "column_name": "WarehouseWeight",
        "data_type": "decimal",
        "character_maximum_length": null,
        "numeric_precision": 19,
        "numeric_scale": 4,
        "nullable": true,
        "business_key": false
      }
    ],
    "indexes": []
  },
  "load_procedures": [],
  "views": null,
  "queries": [
    {
      "name": "default",
      "select_file_path": "default.sql",
      "sequence": 200,
      "aliases": [
        {
          "name": "PWRL",
          "type": "primary"
        },
        {
          "name": "PWRH",
          "type": "non_primary"
        }
      ]
    },
    {
      "name": "Shipment",
      "select_file_path": "Shipment.sql",
      "sequence": 201,
      "aliases": [
        {
          "name": "PWSL",
          "type": "primary"
        },
        {
          "name": "PWSH",
          "type": "non_primary"
        }
      ]
    },
    {
      "name": "Activity",
      "select_file_path": "Activity.sql",
      "sequence": 202,
      "aliases": [
        {
          "name": "RWAL",
          "type": "primary"
        },
        {
          "name": "RWAH",
          "type": "non_primary"
        }
      ]
    }
  ],
  "query_columns": [
    {
      "column_sequence": 1,
      "column_name": "StageID",
      "data_type_full": "int",
      "type": "incremental_key"
    },
    {
      "column_sequence": 2,
      "column_name": "CompanyID",
      "data_type_full": "int",
      "type": "system_key"
    },
    {
      "column_sequence": 3,
      "column_name": "DataConnectionID",
      "data_type_full": "int",
      "type": "system_key"
    },
    {
      "column_sequence": 4,
      "column_name": "WarehouseType",
      "data_type_full": "int",
      "type": "incremental_key"
    },
    {
      "column_sequence": 5,
      "column_name": "WarehouseDocumentCode",
      "data_type_full": "nvarchar(255)",
      "type": "dimension_business_key"
    },
    {
      "column_sequence": 6,
      "column_name": "LocationCode",
      "data_type_full": "nvarchar(255)",
      "type": "dimension_business_key"
    },
    {
      "column_sequence": 7,
      "column_name": "Status",
      "data_type_full": "int",
      "type": "attribute"
    },
    {
      "column_sequence": 8,
      "column_name": "SourceDocument",
      "data_type_full": "int",
      "type": "attribute"
    },
    {
      "column_sequence": 9,
      "column_name": "SourceCode",
      "data_type_full": "nvarchar(255)",
      "type": "dimension_business_key"
    },
    {
      "column_sequence": 10,
      "column_name": "BinCode",
      "data_type_full": "nvarchar(255)",
      "type": "dimension_business_key"
    },
    {
      "column_sequence": 11,
      "column_name": "ZoneCode",
      "data_type_full": "nvarchar(255)",
      "type": "attribute"
    },
    {
      "column_sequence": 12,
      "column_name": "ItemCode",
      "data_type_full": "nvarchar(255)",
      "type": "dimension_business_key"
    },
    {
      "column_sequence": 13,
      "column_name": "LotCode",
      "data_type_full": "nvarchar(255)",
      "type": "dimension_business_key"
    },
    {
      "column_sequence": 14,
      "column_name": "ItemVariantCode",
      "data_type_full": "nvarchar(255)",
      "type": "dimension_business_key"
    },
    {
      "column_sequence": 15,
      "column_name": "WarehouseEmployeeCode",
      "data_type_full": "nvarchar(255)",
      "type": "dimension_business_key"
    },
    {
      "column_sequence": 16,
      "column_name": "PostingDate",
      "data_type_full": "datetime2",
      "type": "dimension_business_key"
    },
    {
      "column_sequence": 17,
      "column_name": "WarrantyDate",
      "data_type_full": "datetime2",
      "type": "dimension_business_key"
    },
    {
      "column_sequence": 18,
      "column_name": "ExpirationDate",
      "data_type_full": "datetime2",
      "type": "dimension_business_key"
    },
    {
      "column_sequence": 19,
      "column_name": "WarehouseDocumentTypeCode",
      "data_type_full": "int",
      "type": "dimension_business_key"
    },
    {
      "column_sequence": 20,
      "column_name": "ActionTypeCode",
      "data_type_full": "int",
      "type": "dimension_business_key"
    },
    {
      "column_sequence": 21,
      "column_name": "ActivityTypeCode",
      "data_type_full": "int",
      "type": "dimension_business_key"
    },
    {
      "column_sequence": 22,
      "column_name": "WarehouseQuantityBase",
      "data_type_full": "decimal(19, 4)",
      "type": "measure"
    },
    {
      "column_sequence": 23,
      "column_name": "WarehouseQuantityPutAwayBase",
      "data_type_full": "decimal(19, 4)",
      "type": "measure"
    },
    {
      "column_sequence": 24,
      "column_name": "WarehouseCubage",
      "data_type_full": "decimal(19, 4)",
      "type": "measure"
    },
    {
      "column_sequence": 25,
      "column_name": "WarehouseWeight",
      "data_type_full": "decimal(19, 4)",
      "type": "measure"
    }
  ],
  "dimensions": [
    {
      "dimension": "ActionType",
      "role_playing": "ActionType",
      "dimension_joins": [
        {
          "delta_column": "ActionTypeCode",
          "dimension_column": "ActionTypeCode"
        },
        {
          "delta_column": "DataConnectionID",
          "dimension_column": "DataConnectionID"
        }
      ]
    },
    {
      "dimension": "ActivityType",
      "role_playing": "ActivityType",
      "dimension_joins": [
        {
          "delta_column": "ActivityTypeCode",
          "dimension_column": "ActivityTypeCode"
        },
        {
          "delta_column": "DataConnectionID",
          "dimension_column": "DataConnectionID"
        }
      ]
    },
    {
      "dimension": "DocumentWarehouse",
      "role_playing": "DocumentWarehouse",
      "dimension_joins": [
        {
          "delta_column": "CompanyID",
          "dimension_column": "CompanyID"
        },
        {
          "delta_column": "DataConnectionID",
          "dimension_column": "DataConnectionID"
        },
        {
          "delta_column": "WarehouseDocumentCode",
          "dimension_column": "WarehouseDocumentCode"
        },
        {
          "delta_column": "WarehouseDocumentTypeCode",
          "dimension_column": "WarehouseDocumentTypeCode"
        }
      ]
    },
    {
      "dimension": "Item",
      "role_playing": "Item",
      "dimension_joins": [
        {
          "delta_column": "CompanyID",
          "dimension_column": "CompanyID"
        },
        {
          "delta_column": "DataConnectionID",
          "dimension_column": "DataConnectionID"
        },
        {
          "delta_column": "ItemCode",
          "dimension_column": "ItemCode"
        }
      ]
    },
    {
      "dimension": "Lot",
      "role_playing": "Lot",
      "dimension_joins": [
        {
          "delta_column": "CompanyID",
          "dimension_column": "CompanyID"
        },
        {
          "delta_column": "DataConnectionID",
          "dimension_column": "DataConnectionID"
        },
        {
          "delta_column": "ItemCode",
          "dimension_column": "ItemCode"
        },
        {
          "delta_column": "ItemVariantCode",
          "dimension_column": "ItemVariantCode"
        },
        {
          "delta_column": "LotCode",
          "dimension_column": "LotCode"
        }
      ]
    },
    {
      "dimension": "Source",
      "role_playing": "Source",
      "dimension_joins": [
        {
          "delta_column": "CompanyID",
          "dimension_column": "CompanyID"
        },
        {
          "delta_column": "DataConnectionID",
          "dimension_column": "DataConnectionID"
        },
        {
          "delta_column": "SourceCode",
          "dimension_column": "SourceCode"
        }
      ]
    },
    {
      "dimension": "Date",
      "role_playing": "Date",
      "dimension_joins": [
        {
          "delta_column": "PostingDate",
          "dimension_column": "Date"
        }
      ]
    },
    {
      "dimension": "Date",
      "role_playing": "PostingDate",
      "dimension_joins": [
        {
          "delta_column": "PostingDate",
          "dimension_column": "Date"
        }
      ]
    },
    {
      "dimension": "Date",
      "role_playing": "WarrantyDate",
      "dimension_joins": [
        {
          "delta_column": "WarrantyDate",
          "dimension_column": "Date"
        }
      ]
    },
    {
      "dimension": "Date",
      "role_playing": "ExpirationDate",
      "dimension_joins": [
        {
          "delta_column": "ExpirationDate",
          "dimension_column": "Date"
        }
      ]
    },
    {
      "dimension": "ItemVariant",
      "role_playing": "ItemVariant",
      "dimension_joins": [
        {
          "delta_column": "CompanyID",
          "dimension_column": "CompanyID"
        },
        {
          "delta_column": "DataConnectionID",
          "dimension_column": "DataConnectionID"
        },
        {
          "delta_column": "ItemCode",
          "dimension_column": "ItemCode"
        },
        {
          "delta_column": "ItemVariantCode",
          "dimension_column": "ItemVariantCode"
        }
      ]
    },
    {
      "dimension": "WarehouseEmployee",
      "role_playing": "WarehouseEmployee",
      "dimension_joins": [
        {
          "delta_column": "CompanyID",
          "dimension_column": "CompanyID"
        },
        {
          "delta_column": "DataConnectionID",
          "dimension_column": "DataConnectionID"
        },
        {
          "delta_column": "WarehouseEmployeeCode",
          "dimension_column": "WarehouseEmployeeCode"
        },
        {
          "delta_column": "LocationCode",
          "dimension_column": "LocationCode"
        }
      ]
    },
    {
      "dimension": "Bin",
      "role_playing": "Bin",
      "dimension_joins": [
        {
          "delta_column": "CompanyID",
          "dimension_column": "CompanyID"
        },
        {
          "delta_column": "DataConnectionID",
          "dimension_column": "DataConnectionID"
        },
        {
          "delta_column": "BinCode",
          "dimension_column": "BinCode"
        },
        {
          "delta_column": "LocationCode",
          "dimension_column": "LocationCode"
        }
      ]
    }
  ],
  "load_type": 1,
  "manual_mode": false,
  "is_customized": false
}