{
  "name": "PurchaseOrderToInvoiceQuantity_YTD_Index_PO",
  "description": "Departments/Projects/Control > Project Control > Purchase > Purchase quantity not invoiced YTD Index",
  "expression": "DIVIDE ( [PurchaseOrderToInvoiceQuantity_YTD_PO], [PurchaseOrderToInvoiceQuantity_LYTD_PO] ) * 100",
  "formatString": "#,##0.0",
  "displayFolder": "Σ YTD Variance",
  "annotations": [
    {
      "name": "TabularEditor_TranslatedNames",
      "value": "{\"de-DE\":\"Menge akt. Rechnung YTD Index\",\"en-US\":\"Purchase Order To Invoice Quantity YTD Index\",\"nl-NL\":\"Inkooporder te factureren aantallen YTD Index\"}"
    },
    {
      "name": "TabularEditor_TranslatedDescriptions",
      "value": "{\"de-DE\":\"Abteilungen/Einkauf/Bestellungsabwicklung/Bestellungen\",\"en-US\":\"Departments/Projects/Control > Project Control > Purchase > Purchase quantity not invoiced YTD Index\",\"nl-NL\":\"Afdelingen/Projecten/Bewaking > Projectbewaking > Inkoop > Inkoopaantallen nog te ontvangen orders YTD Index\"}"
    },
    {
      "name": "TabularEditor_TranslatedDisplayFolders",
      "value": "{\"de-DE\":\"Σ YTD Varianz\",\"en-US\":\"Σ YTD Variance\",\"nl-NL\":\"Σ YTD Variance\"}"
    }
  ]
}