{
  "name": "PurchaseOrderAmount_YTD_Variance_PO",
  "description": "Departments/Projects/Control > Project Control > Purchase > Purchase Order > Amount YTD Variance",
  "expression": "[PurchaseOrderAmount_YTD_PO] - [PurchaseOrderAmount_LYTD_PO]",
  "formatString": "#,##0.00",
  "displayFolder": "Σ YTD Variance",
  "annotations": [
    {
      "name": "TabularEditor_TranslatedNames",
      "value": "{\"de-DE\":\"Bestellungen Betrag YTD Varianz\",\"en-US\":\"Purchase Order Amount YTD Variance\",\"nl-NL\":\"Inkooporder bedrag YTD Variance\"}"
    },
    {
      "name": "TabularEditor_TranslatedDescriptions",
      "value": "{\"de-DE\":\"Abteilungen/Einkauf/Bestellungsabwicklung/Bestellungen\",\"en-US\":\"Departments/Projects/Control > Project Control > Purchase > Purchase Order > Amount YTD Variance\",\"nl-NL\":\"Afdelingen/Projecten/Bewaking > Projectbewaking > Inkoop > Bedrag YTD Variance\"}"
    },
    {
      "name": "TabularEditor_TranslatedDisplayFolders",
      "value": "{\"de-DE\":\"Σ YTD Varianz\",\"en-US\":\"Σ YTD Variance\",\"nl-NL\":\"Σ YTD Variance\"}"
    }
  ]
}