{
  "name": "PurchaseOrderDiscountAmount_SPLY_Variance_PO",
  "description": "Departments/Projects/Control > Project Control > Purchase > Purchase Order > Discount SPLY Variance",
  "expression": "[PurchaseOrderDiscountAmount_PO] - [PurchaseOrderDiscountAmount_SPLY_PO]",
  "formatString": "#,##0.00",
  "displayFolder": "Σ SPLY Variance",
  "annotations": [
    {
      "name": "TabularEditor_TranslatedNames",
      "value": "{\"de-DE\":\"Bestellungen Rabattbetrag SPLY Varianz\",\"en-US\":\"Purchase Order Discount Amount SPLY Variance\",\"nl-NL\":\"Inkooporder korting bedrag SPLY Variance\"}"
    },
    {
      "name": "TabularEditor_TranslatedDescriptions",
      "value": "{\"de-DE\":\"Abteilungen/Einkauf/Bestellungsabwicklung/Bestellungen\",\"en-US\":\"Departments/Projects/Control > Project Control > Purchase > Purchase Order > Discount SPLY Variance\",\"nl-NL\":\"Afdelingen/Projecten/Bewaking > Projectbewaking > Inkoop > Korting SPLY Variance\"}"
    },
    {
      "name": "TabularEditor_TranslatedDisplayFolders",
      "value": "{\"de-DE\":\"Σ SPLY Varianz\",\"en-US\":\"Σ SPLY Variance\",\"nl-NL\":\"Σ SPLY Variance\"}"
    }
  ]
}