{
  "name": "PurchaseOrderReceivedAmount_SPLY_Variance%_PO",
  "description": "Departments/Projects/Control > Project Control > Purchase > Received Amount SPLY Variance %",
  "expression": "DIVIDE ( [PurchaseOrderReceivedAmount_PO] - [PurchaseOrderReceivedAmount_SPLY_PO], [PurchaseOrderReceivedAmount_SPLY_PO] )",
  "formatString": "#,##0.0 %",
  "displayFolder": "Σ SPLY Variance",
  "annotations": [
    {
      "name": "TabularEditor_TranslatedNames",
      "value": "{\"de-DE\":\"Bereits gelief. Betrag SPLY Varianz %\",\"en-US\":\"Purchase Order Received Amount SPLY Variance %\",\"nl-NL\":\"Inkooporder ontvangen bedrag SPLY Variance %\"}"
    },
    {
      "name": "TabularEditor_TranslatedDescriptions",
      "value": "{\"de-DE\":\"Abteilungen/Einkauf/Bestellungsabwicklung/Bestellungen\",\"en-US\":\"Departments/Projects/Control > Project Control > Purchase > Received Amount SPLY Variance %\",\"nl-NL\":\"Afdelingen/Projecten/Bewaking > Projectbewaking > Inkoop > Ontvangen aantallen SPLY Variance %\"}"
    },
    {
      "name": "TabularEditor_TranslatedDisplayFolders",
      "value": "{\"de-DE\":\"Σ SPLY Varianz\",\"en-US\":\"Σ SPLY Variance\",\"nl-NL\":\"Σ SPLY Variance\"}"
    }
  ]
}