{
  "name": "PurchaseOrderShippedGrossWeight_SPLY_Index_PO",
  "description": "Departments/Projects/Control > Project Control > Purchase > Gross Weight SPLY Index",
  "expression": "DIVIDE ( [PurchaseOrderShippedGrossWeight_PO], [PurchaseOrderShippedGrossWeight_SPLY_PO] ) * 100",
  "formatString": "#,##0.0",
  "displayFolder": "Σ SPLY Variance",
  "annotations": [
    {
      "name": "TabularEditor_TranslatedNames",
      "value": "{\"de-DE\":\"Bruttogewicht SPLY Index\",\"en-US\":\"Purchase Order Shipped Gross Weight SPLY Index\",\"nl-NL\":\"Inkooporder verzonden bruto gewicht SPLY Index\"}"
    },
    {
      "name": "TabularEditor_TranslatedDescriptions",
      "value": "{\"de-DE\":\"Abteilungen/Einkauf/Bestellungsabwicklung/Bestellungen\",\"en-US\":\"Departments/Projects/Control > Project Control > Purchase > Gross Weight SPLY Index\",\"nl-NL\":\"Afdelingen/Projecten/Bewaking > Projectbewaking > Inkoop > Bruto Gewicht SPLY Index\"}"
    },
    {
      "name": "TabularEditor_TranslatedDisplayFolders",
      "value": "{\"de-DE\":\"Σ SPLY Varianz\",\"en-US\":\"Σ SPLY Variance\",\"nl-NL\":\"Σ SPLY Variance\"}"
    }
  ]
}