{
  "name": "PurchaseOrderReceivedNotInvoicedQuantity_SPLY_Index_PO",
  "description": "Departments/Projects/Control > Project Control > Purchase > Quantity for items not received SPLY Index",
  "expression": "DIVIDE ( [PurchaseOrderReceivedNotInvoicedQuantity_PO], [PurchaseOrderReceivedNotInvoicedQuantity_SPLY_PO] ) * 100",
  "formatString": "#,##0.0",
  "displayFolder": "Σ SPLY Variance",
  "annotations": [
    {
      "name": "TabularEditor_TranslatedNames",
      "value": "{\"de-DE\":\"Lief. nicht fakt. Menge SPLY Index\",\"en-US\":\"Purchase Order Received Not Invoiced Quantity SPLY Index\",\"nl-NL\":\"Inkooporder ontvangen niet gefactureerd aantallen SPLY Index\"}"
    },
    {
      "name": "TabularEditor_TranslatedDescriptions",
      "value": "{\"de-DE\":\"Abteilungen/Einkauf/Bestellungsabwicklung/Bestellungen\",\"en-US\":\"Departments/Projects/Control > Project Control > Purchase > Quantity for items not received SPLY Index\",\"nl-NL\":\"Afdelingen/Projecten/Bewaking > Projectbewaking > Inkoop > Aantallen nog te ontvangen orders SPLY Index\"}"
    },
    {
      "name": "TabularEditor_TranslatedDisplayFolders",
      "value": "{\"de-DE\":\"Σ SPLY Varianz\",\"en-US\":\"Σ SPLY Variance\",\"nl-NL\":\"Σ SPLY Variance\"}"
    }
  ]
}