{
  "name": "PurchaseOrderOutstandingAmount_LCY_PO",
  "description": "Departments/Projects/Control > Project Control > Purchase > Outstanding Amount",
  "expression": "SUM ( 'factPurchaseOrder'[PurchaseOrderOutstandingAmount_LCY] )",
  "formatString": "#,##0.00",
  "displayFolder": "Σ Local Currency",
  "annotations": [
    {
      "name": "TabularEditor_TranslatedNames",
      "value": "{\"de-DE\":\"Restbestellbetrag\",\"en-US\":\"Purchase Order Outstanding Amount\",\"nl-NL\":\"Inkooporder openstaand bedrag\"}"
    },
    {
      "name": "TabularEditor_TranslatedDescriptions",
      "value": "{\"de-DE\":\"Abteilungen/Einkauf/Bestellungsabwicklung/Bestellungen\",\"en-US\":\"Departments/Projects/Control > Project Control > Purchase > Outstanding Amount\",\"nl-NL\":\"Afdelingen/Projecten/Bewaking > Projectbewaking > Inkoop > Openstaand bedrag\"}"
    },
    {
      "name": "TabularEditor_TranslatedDisplayFolders",
      "value": "{\"de-DE\":\"Σ Local Währung\",\"en-US\":\"Σ Local Currency\",\"nl-NL\":\"Σ Lokale Valuta\"}"
    }
  ]
}