{
  "name": "PurchaseOrderReceivedNotInvoicedQuantity_YTD_Index_PO",
  "description": "Departments/Projects/Control > Project Control > Purchase > Quantity for items not received YTD Index",
  "expression": "DIVIDE ( [PurchaseOrderReceivedNotInvoicedQuantity_YTD_PO], [PurchaseOrderReceivedNotInvoicedQuantity_LYTD_PO] ) * 100",
  "formatString": "#,##0.0",
  "displayFolder": "Σ YTD Variance",
  "annotations": [
    {
      "name": "TabularEditor_TranslatedNames",
      "value": "{\"de-DE\":\"Lief. nicht fakt. Menge YTD Index\",\"en-US\":\"Purchase Order Received Not Invoiced Quantity YTD Index\",\"nl-NL\":\"Inkooporder ontvangen niet gefactureerd aantallen YTD Index\"}"
    },
    {
      "name": "TabularEditor_TranslatedDescriptions",
      "value": "{\"de-DE\":\"Abteilungen/Einkauf/Bestellungsabwicklung/Bestellungen\",\"en-US\":\"Departments/Projects/Control > Project Control > Purchase > Quantity for items not received YTD Index\",\"nl-NL\":\"Afdelingen/Projecten/Bewaking > Projectbewaking > Inkoop > Aantallen nog te ontvangen orders YTD Index\"}"
    },
    {
      "name": "TabularEditor_TranslatedDisplayFolders",
      "value": "{\"de-DE\":\"Σ YTD Varianz\",\"en-US\":\"Σ YTD Variance\",\"nl-NL\":\"Σ YTD Variance\"}"
    }
  ]
}