{
  "name": "PurchaseOrderToReceiveQuantity_SPLY_Index_PO",
  "description": "Departments/Projects/Control > Project Control > Purchase > Purchase quantity not yet received SPLY Index",
  "expression": "DIVIDE ( [PurchaseOrderToReceiveQuantity_PO], [PurchaseOrderToReceiveQuantity_SPLY_PO] ) * 100",
  "formatString": "#,##0.0",
  "displayFolder": "Σ SPLY Variance",
  "annotations": [
    {
      "name": "TabularEditor_TranslatedNames",
      "value": "{\"de-DE\":\"Menge akt. Lieferung SPLY Index\",\"en-US\":\"Purchase Order To Receive Quantity SPLY Index\",\"nl-NL\":\"Inkooporder te ontvangen aantallen SPLY Index\"}"
    },
    {
      "name": "TabularEditor_TranslatedDescriptions",
      "value": "{\"de-DE\":\"Abteilungen/Einkauf/Bestellungsabwicklung/Bestellungen\",\"en-US\":\"Departments/Projects/Control > Project Control > Purchase > Purchase quantity not yet received SPLY Index\",\"nl-NL\":\"Afdelingen/Projecten/Bewaking > Projectbewaking > Inkoop > Inkoopaantallen nog te ontvangen orders SPLY Index\"}"
    },
    {
      "name": "TabularEditor_TranslatedDisplayFolders",
      "value": "{\"de-DE\":\"Σ SPLY Varianz\",\"en-US\":\"Σ SPLY Variance\",\"nl-NL\":\"Σ SPLY Variance\"}"
    }
  ]
}