{
  "name": "PurchaseOrderReceivedQuantity_PO",
  "description": "Departments/Projects/Control > Project Control > Purchase > Quantity for items received",
  "expression": "SUM ( 'factPurchaseOrder'[PurchaseOrderReceivedQuantity] )",
  "formatString": "#,##0",
  "annotations": [
    {
      "name": "TabularEditor_TranslatedNames",
      "value": "{\"de-DE\":\"Bereits gelief. Menge\",\"en-US\":\"Purchase Order Received Quantity\",\"nl-NL\":\"Inkooporder ontvangen aantallen\"}"
    },
    {
      "name": "TabularEditor_TranslatedDescriptions",
      "value": "{\"de-DE\":\"Abteilungen/Einkauf/Bestellungsabwicklung/Bestellungen\",\"en-US\":\"Departments/Projects/Control > Project Control > Purchase > Quantity for items received\",\"nl-NL\":\"Afdelingen/Projecten/Bewaking > Projectbewaking > Inkoop > Aantallen ontvangen orders\"}"
    }
  ]
}