{
  "name": "PurchaseOrderOutstandingQuantity_YTD_Index_PO",
  "description": "Departments/Projects/Control > Project Control > Purchase > Outstanding Quantity YTD Index",
  "expression": "DIVIDE ( [PurchaseOrderOutstandingQuantity_YTD_PO], [PurchaseOrderOutstandingQuantity_LYTD_PO] ) * 100",
  "formatString": "#,##0.0",
  "displayFolder": "Σ YTD Variance",
  "annotations": [
    {
      "name": "TabularEditor_TranslatedNames",
      "value": "{\"de-DE\":\"Restbestellungsmenge YTD Index\",\"en-US\":\"Purchase Order Outstanding Quantity YTD Index\",\"nl-NL\":\"Inkooporder openstaand aantallen YTD Index\"}"
    },
    {
      "name": "TabularEditor_TranslatedDescriptions",
      "value": "{\"de-DE\":\"Abteilungen/Einkauf/Bestellungsabwicklung/Bestellungen\",\"en-US\":\"Departments/Projects/Control > Project Control > Purchase > Outstanding Quantity YTD Index\",\"nl-NL\":\"Afdelingen/Projecten/Bewaking > Projectbewaking > Inkoop > Openstaand bedrag YTD Index\"}"
    },
    {
      "name": "TabularEditor_TranslatedDisplayFolders",
      "value": "{\"de-DE\":\"Σ YTD Varianz\",\"en-US\":\"Σ YTD Variance\",\"nl-NL\":\"Σ YTD Variance\"}"
    }
  ]
}