{
  "base_name": "SalesValueEntry",
  "category": "fact",
  "database_object": {
    "table_identifier": "fact.SalesValueEntry",
    "columns": [
      {
        "column_name": "ExecutionTimestamp",
        "data_type": "timestamp",
        "character_maximum_length": null,
        "numeric_precision": null,
        "numeric_scale": null,
        "nullable": false,
        "business_key": false
      },
      {
        "column_name": "ComponentExecutionID",
        "data_type": "int",
        "character_maximum_length": null,
        "numeric_precision": 10,
        "numeric_scale": 0,
        "nullable": false,
        "business_key": false
      },
      {
        "column_name": "ExecutionFlag",
        "data_type": "nvarchar",
        "character_maximum_length": 10,
        "numeric_precision": null,
        "numeric_scale": null,
        "nullable": false,
        "business_key": false
      },
      {
        "column_name": "FinancialDimension1ID",
        "data_type": "int",
        "character_maximum_length": null,
        "numeric_precision": 10,
        "numeric_scale": 0,
        "nullable": true,
        "business_key": false
      },
      {
        "column_name": "FinancialDimension2ID",
        "data_type": "int",
        "character_maximum_length": null,
        "numeric_precision": 10,
        "numeric_scale": 0,
        "nullable": true,
        "business_key": false
      },
      {
        "column_name": "FinancialDimension3ID",
        "data_type": "int",
        "character_maximum_length": null,
        "numeric_precision": 10,
        "numeric_scale": 0,
        "nullable": true,
        "business_key": false
      },
      {
        "column_name": "FinancialDimension4ID",
        "data_type": "int",
        "character_maximum_length": null,
        "numeric_precision": 10,
        "numeric_scale": 0,
        "nullable": true,
        "business_key": false
      },
      {
        "column_name": "FinancialDimension5ID",
        "data_type": "int",
        "character_maximum_length": null,
        "numeric_precision": 10,
        "numeric_scale": 0,
        "nullable": true,
        "business_key": false
      },
      {
        "column_name": "FinancialDimension6ID",
        "data_type": "int",
        "character_maximum_length": null,
        "numeric_precision": 10,
        "numeric_scale": 0,
        "nullable": true,
        "business_key": false
      },
      {
        "column_name": "FinancialDimension7ID",
        "data_type": "int",
        "character_maximum_length": null,
        "numeric_precision": 10,
        "numeric_scale": 0,
        "nullable": true,
        "business_key": false
      },
      {
        "column_name": "FinancialDimension8ID",
        "data_type": "int",
        "character_maximum_length": null,
        "numeric_precision": 10,
        "numeric_scale": 0,
        "nullable": true,
        "business_key": false
      },
      {
        "column_name": "StageID",
        "data_type": "int",
        "character_maximum_length": null,
        "numeric_precision": 10,
        "numeric_scale": 0,
        "nullable": false,
        "business_key": false
      },
      {
        "column_name": "SalesValueEntryType",
        "data_type": "int",
        "character_maximum_length": null,
        "numeric_precision": 10,
        "numeric_scale": 0,
        "nullable": false,
        "business_key": false
      },
      {
        "column_name": "CompanyID",
        "data_type": "int",
        "character_maximum_length": null,
        "numeric_precision": 10,
        "numeric_scale": 0,
        "nullable": false,
        "business_key": false
      },
      {
        "column_name": "DataConnectionID",
        "data_type": "int",
        "character_maximum_length": null,
        "numeric_precision": 10,
        "numeric_scale": 0,
        "nullable": false,
        "business_key": false
      },
      {
        "column_name": "ItemID",
        "data_type": "int",
        "character_maximum_length": null,
        "numeric_precision": 10,
        "numeric_scale": 0,
        "nullable": false,
        "business_key": false
      },
      {
        "column_name": "CustomerID",
        "data_type": "int",
        "character_maximum_length": null,
        "numeric_precision": 10,
        "numeric_scale": 0,
        "nullable": false,
        "business_key": false
      },
      {
        "column_name": "SellToCustomerID",
        "data_type": "int",
        "character_maximum_length": null,
        "numeric_precision": 10,
        "numeric_scale": 0,
        "nullable": false,
        "business_key": false
      },
      {
        "column_name": "BillToCustomerID",
        "data_type": "int",
        "character_maximum_length": null,
        "numeric_precision": 10,
        "numeric_scale": 0,
        "nullable": false,
        "business_key": false
      },
      {
        "column_name": "LocationID",
        "data_type": "int",
        "character_maximum_length": null,
        "numeric_precision": 10,
        "numeric_scale": 0,
        "nullable": false,
        "business_key": false
      },
      {
        "column_name": "SourceID",
        "data_type": "int",
        "character_maximum_length": null,
        "numeric_precision": 10,
        "numeric_scale": 0,
        "nullable": false,
        "business_key": false
      },
      {
        "column_name": "GeneralBusinessPostingGroupID",
        "data_type": "int",
        "character_maximum_length": null,
        "numeric_precision": 10,
        "numeric_scale": 0,
        "nullable": false,
        "business_key": false
      },
      {
        "column_name": "GeneralProductPostingGroupID",
        "data_type": "int",
        "character_maximum_length": null,
        "numeric_precision": 10,
        "numeric_scale": 0,
        "nullable": false,
        "business_key": false
      },
      {
        "column_name": "ReturnReasonID",
        "data_type": "int",
        "character_maximum_length": null,
        "numeric_precision": 10,
        "numeric_scale": 0,
        "nullable": false,
        "business_key": false
      },
      {
        "column_name": "SalesPersonPurchaserID",
        "data_type": "int",
        "character_maximum_length": null,
        "numeric_precision": 10,
        "numeric_scale": 0,
        "nullable": false,
        "business_key": false
      },
      {
        "column_name": "ItemChargeID",
        "data_type": "int",
        "character_maximum_length": null,
        "numeric_precision": 10,
        "numeric_scale": 0,
        "nullable": false,
        "business_key": false
      },
      {
        "column_name": "CurrencyID",
        "data_type": "int",
        "character_maximum_length": null,
        "numeric_precision": 10,
        "numeric_scale": 0,
        "nullable": false,
        "business_key": false
      },
      {
        "column_name": "InventoryPostingGroupID",
        "data_type": "int",
        "character_maximum_length": null,
        "numeric_precision": 10,
        "numeric_scale": 0,
        "nullable": false,
        "business_key": false
      },
      {
        "column_name": "FixedAssetID",
        "data_type": "int",
        "character_maximum_length": null,
        "numeric_precision": 10,
        "numeric_scale": 0,
        "nullable": false,
        "business_key": false
      },
      {
        "column_name": "GeneralLedgerAccountID",
        "data_type": "int",
        "character_maximum_length": null,
        "numeric_precision": 10,
        "numeric_scale": 0,
        "nullable": false,
        "business_key": false
      },
      {
        "column_name": "ResourceID",
        "data_type": "int",
        "character_maximum_length": null,
        "numeric_precision": 10,
        "numeric_scale": 0,
        "nullable": false,
        "business_key": false
      },
      {
        "column_name": "DocumentSalesID",
        "data_type": "int",
        "character_maximum_length": null,
        "numeric_precision": 10,
        "numeric_scale": 0,
        "nullable": false,
        "business_key": false
      },
      {
        "column_name": "SalesLineTypeID",
        "data_type": "int",
        "character_maximum_length": null,
        "numeric_precision": 10,
        "numeric_scale": 0,
        "nullable": false,
        "business_key": false
      },
      {
        "column_name": "PostingDateID",
        "data_type": "int",
        "character_maximum_length": null,
        "numeric_precision": 10,
        "numeric_scale": 0,
        "nullable": false,
        "business_key": false
      },
      {
        "column_name": "DateID",
        "data_type": "int",
        "character_maximum_length": null,
        "numeric_precision": 10,
        "numeric_scale": 0,
        "nullable": false,
        "business_key": false
      },
      {
        "column_name": "ItemVariantID",
        "data_type": "int",
        "character_maximum_length": null,
        "numeric_precision": 10,
        "numeric_scale": 0,
        "nullable": false,
        "business_key": false
      },
      {
        "column_name": "ReasonID",
        "data_type": "int",
        "character_maximum_length": null,
        "numeric_precision": 10,
        "numeric_scale": 0,
        "nullable": false,
        "business_key": false
      },
      {
        "column_name": "InvoicedQuantity",
        "data_type": "decimal",
        "character_maximum_length": null,
        "numeric_precision": 19,
        "numeric_scale": 4,
        "nullable": true,
        "business_key": false
      },
      {
        "column_name": "SalesAmount_LCY",
        "data_type": "decimal",
        "character_maximum_length": null,
        "numeric_precision": 19,
        "numeric_scale": 4,
        "nullable": true,
        "business_key": false
      },
      {
        "column_name": "SalesAmountExpected_LCY",
        "data_type": "decimal",
        "character_maximum_length": null,
        "numeric_precision": 19,
        "numeric_scale": 4,
        "nullable": true,
        "business_key": false
      },
      {
        "column_name": "DiscountAmount_LCY",
        "data_type": "decimal",
        "character_maximum_length": null,
        "numeric_precision": 19,
        "numeric_scale": 4,
        "nullable": true,
        "business_key": false
      },
      {
        "column_name": "CostAmount_LCY",
        "data_type": "decimal",
        "character_maximum_length": null,
        "numeric_precision": 19,
        "numeric_scale": 4,
        "nullable": true,
        "business_key": false
      },
      {
        "column_name": "CostAmountExpected_LCY",
        "data_type": "decimal",
        "character_maximum_length": null,
        "numeric_precision": 19,
        "numeric_scale": 4,
        "nullable": true,
        "business_key": false
      },
      {
        "column_name": "CostAmountPostedToGL_LCY",
        "data_type": "decimal",
        "character_maximum_length": null,
        "numeric_precision": 19,
        "numeric_scale": 4,
        "nullable": true,
        "business_key": false
      },
      {
        "column_name": "SalesAmount_RCY",
        "data_type": "decimal",
        "character_maximum_length": null,
        "numeric_precision": 19,
        "numeric_scale": 4,
        "nullable": true,
        "business_key": false
      },
      {
        "column_name": "SalesAmountExpected_RCY",
        "data_type": "decimal",
        "character_maximum_length": null,
        "numeric_precision": 19,
        "numeric_scale": 4,
        "nullable": true,
        "business_key": false
      },
      {
        "column_name": "DiscountAmount_RCY",
        "data_type": "decimal",
        "character_maximum_length": null,
        "numeric_precision": 19,
        "numeric_scale": 4,
        "nullable": true,
        "business_key": false
      },
      {
        "column_name": "CostAmount_RCY",
        "data_type": "decimal",
        "character_maximum_length": null,
        "numeric_precision": 19,
        "numeric_scale": 4,
        "nullable": true,
        "business_key": false
      },
      {
        "column_name": "CostAmountExpected_RCY",
        "data_type": "decimal",
        "character_maximum_length": null,
        "numeric_precision": 19,
        "numeric_scale": 4,
        "nullable": true,
        "business_key": false
      },
      {
        "column_name": "CostAmountPostedToGL_RCY",
        "data_type": "decimal",
        "character_maximum_length": null,
        "numeric_precision": 19,
        "numeric_scale": 4,
        "nullable": true,
        "business_key": false
      },
      {
        "column_name": "SalesAmount_PCY",
        "data_type": "decimal",
        "character_maximum_length": null,
        "numeric_precision": 19,
        "numeric_scale": 4,
        "nullable": true,
        "business_key": false
      },
      {
        "column_name": "SalesAmountExpected_PCY",
        "data_type": "decimal",
        "character_maximum_length": null,
        "numeric_precision": 19,
        "numeric_scale": 4,
        "nullable": true,
        "business_key": false
      },
      {
        "column_name": "DiscountAmount_PCY",
        "data_type": "decimal",
        "character_maximum_length": null,
        "numeric_precision": 19,
        "numeric_scale": 4,
        "nullable": true,
        "business_key": false
      },
      {
        "column_name": "CostAmount_PCY",
        "data_type": "decimal",
        "character_maximum_length": null,
        "numeric_precision": 19,
        "numeric_scale": 4,
        "nullable": true,
        "business_key": false
      },
      {
        "column_name": "CostAmountExpected_PCY",
        "data_type": "decimal",
        "character_maximum_length": null,
        "numeric_precision": 19,
        "numeric_scale": 4,
        "nullable": true,
        "business_key": false
      },
      {
        "column_name": "CostAmountPostedToGL_PCY",
        "data_type": "decimal",
        "character_maximum_length": null,
        "numeric_precision": 19,
        "numeric_scale": 4,
        "nullable": true,
        "business_key": false
      }
    ],
    "indexes": []
  },
  "load_procedures": [],
  "views": null,
  "queries": [
    {
      "name": "default",
      "select_file_path": "default.sql",
      "sequence": 200,
      "aliases": [
        {
          "name": "VE",
          "type": "primary"
        }
      ]
    },
    {
      "name": "Invoice",
      "select_file_path": "Invoice.sql",
      "sequence": 201,
      "aliases": [
        {
          "name": "SIL",
          "type": "primary"
        },
        {
          "name": "SIH",
          "type": "non_primary"
        }
      ]
    },
    {
      "name": "CreditMemo",
      "select_file_path": "CreditMemo.sql",
      "sequence": 202,
      "aliases": [
        {
          "name": "SCML",
          "type": "primary"
        },
        {
          "name": "SCMH",
          "type": "non_primary"
        }
      ]
    }
  ],
  "query_columns": [
    {
      "column_sequence": 1,
      "column_name": "StageID",
      "data_type_full": "int",
      "type": "incremental_key"
    },
    {
      "column_sequence": 2,
      "column_name": "CompanyID",
      "data_type_full": "int",
      "type": "system_key"
    },
    {
      "column_sequence": 3,
      "column_name": "DataConnectionID",
      "data_type_full": "int",
      "type": "system_key"
    },
    {
      "column_sequence": 4,
      "column_name": "SalesValueEntryType",
      "data_type_full": "int",
      "type": "incremental_key"
    },
    {
      "column_sequence": 5,
      "column_name": "DocumentNo",
      "data_type_full": "nvarchar(255)",
      "type": "dimension_business_key"
    },
    {
      "column_sequence": 6,
      "column_name": "SalesLineTypeCode",
      "data_type_full": "int",
      "type": "dimension_business_key"
    },
    {
      "column_sequence": 7,
      "column_name": "ItemLedgerEntryNo",
      "data_type_full": "int",
      "type": "dimension_business_key"
    },
    {
      "column_sequence": 8,
      "column_name": "ValueEntryNo",
      "data_type_full": "int",
      "type": "dimension_business_key"
    },
    {
      "column_sequence": 9,
      "column_name": "SourceType",
      "data_type_full": "int",
      "type": "dimension_business_key"
    },
    {
      "column_sequence": 10,
      "column_name": "SourcePostingGroup",
      "data_type_full": "nvarchar(255)",
      "type": "dimension_business_key"
    },
    {
      "column_sequence": 11,
      "column_name": "ItemCode",
      "data_type_full": "nvarchar(255)",
      "type": "dimension_business_key"
    },
    {
      "column_sequence": 12,
      "column_name": "GeneralLedgerAccountCode",
      "data_type_full": "nvarchar(255)",
      "type": "dimension_business_key"
    },
    {
      "column_sequence": 13,
      "column_name": "ResourceCode",
      "data_type_full": "nvarchar(255)",
      "type": "dimension_business_key"
    },
    {
      "column_sequence": 14,
      "column_name": "FixedAssetCode",
      "data_type_full": "nvarchar(255)",
      "type": "dimension_business_key"
    },
    {
      "column_sequence": 15,
      "column_name": "ItemChargeCode",
      "data_type_full": "nvarchar(255)",
      "type": "dimension_business_key"
    },
    {
      "column_sequence": 16,
      "column_name": "DocumentPostingDate",
      "data_type_full": "datetime2",
      "type": "dimension_business_key"
    },
    {
      "column_sequence": 17,
      "column_name": "PostingDate",
      "data_type_full": "datetime2",
      "type": "dimension_business_key"
    },
    {
      "column_sequence": 18,
      "column_name": "SellToCustomerCode",
      "data_type_full": "nvarchar(255)",
      "type": "dimension_business_key"
    },
    {
      "column_sequence": 19,
      "column_name": "BillToCustomerCode",
      "data_type_full": "nvarchar(255)",
      "type": "dimension_business_key"
    },
    {
      "column_sequence": 20,
      "column_name": "DocumentTypeCode",
      "data_type_full": "int",
      "type": "dimension_business_key"
    },
    {
      "column_sequence": 21,
      "column_name": "LocationCode",
      "data_type_full": "nvarchar(255)",
      "type": "dimension_business_key"
    },
    {
      "column_sequence": 22,
      "column_name": "ItemVariantCode",
      "data_type_full": "nvarchar(255)",
      "type": "dimension_business_key"
    },
    {
      "column_sequence": 23,
      "column_name": "SourceCode",
      "data_type_full": "nvarchar(255)",
      "type": "dimension_business_key"
    },
    {
      "column_sequence": 24,
      "column_name": "GeneralProductPostingGroupCode",
      "data_type_full": "nvarchar(255)",
      "type": "dimension_business_key"
    },
    {
      "column_sequence": 25,
      "column_name": "GeneralBusinessPostingGroupCode",
      "data_type_full": "nvarchar(255)",
      "type": "dimension_business_key"
    },
    {
      "column_sequence": 26,
      "column_name": "ReturnReasonCode",
      "data_type_full": "nvarchar(255)",
      "type": "dimension_business_key"
    },
    {
      "column_sequence": 27,
      "column_name": "ReasonCode",
      "data_type_full": "nvarchar(255)",
      "type": "dimension_business_key"
    },
    {
      "column_sequence": 28,
      "column_name": "SalesPersonPurchaserCode",
      "data_type_full": "nvarchar(255)",
      "type": "dimension_business_key"
    },
    {
      "column_sequence": 29,
      "column_name": "CurrencyCode",
      "data_type_full": "nvarchar(255)",
      "type": "dimension_business_key"
    },
    {
      "column_sequence": 30,
      "column_name": "InventoryPostingGroupCode",
      "data_type_full": "nvarchar(255)",
      "type": "dimension_business_key"
    },
    {
      "column_sequence": 31,
      "column_name": "FinancialDimension1ID",
      "data_type_full": "int",
      "type": "attribute"
    },
    {
      "column_sequence": 32,
      "column_name": "FinancialDimension2ID",
      "data_type_full": "int",
      "type": "attribute"
    },
    {
      "column_sequence": 33,
      "column_name": "FinancialDimension3ID",
      "data_type_full": "int",
      "type": "attribute"
    },
    {
      "column_sequence": 34,
      "column_name": "FinancialDimension4ID",
      "data_type_full": "int",
      "type": "attribute"
    },
    {
      "column_sequence": 35,
      "column_name": "FinancialDimension5ID",
      "data_type_full": "int",
      "type": "attribute"
    },
    {
      "column_sequence": 36,
      "column_name": "FinancialDimension6ID",
      "data_type_full": "int",
      "type": "attribute"
    },
    {
      "column_sequence": 37,
      "column_name": "FinancialDimension7ID",
      "data_type_full": "int",
      "type": "attribute"
    },
    {
      "column_sequence": 38,
      "column_name": "FinancialDimension8ID",
      "data_type_full": "int",
      "type": "attribute"
    },
    {
      "column_sequence": 39,
      "column_name": "InvoicedQuantity",
      "data_type_full": "decimal(19, 4)",
      "type": "measure"
    },
    {
      "column_sequence": 40,
      "column_name": "SalesAmount_LCY",
      "data_type_full": "decimal(19, 4)",
      "type": "measure"
    },
    {
      "column_sequence": 41,
      "column_name": "SalesAmountExpected_LCY",
      "data_type_full": "decimal(19, 4)",
      "type": "measure"
    },
    {
      "column_sequence": 42,
      "column_name": "DiscountAmount_LCY",
      "data_type_full": "decimal(19, 4)",
      "type": "measure"
    },
    {
      "column_sequence": 43,
      "column_name": "CostAmount_LCY",
      "data_type_full": "decimal(19, 4)",
      "type": "measure"
    },
    {
      "column_sequence": 44,
      "column_name": "CostAmountExpected_LCY",
      "data_type_full": "decimal(19, 4)",
      "type": "measure"
    },
    {
      "column_sequence": 45,
      "column_name": "CostAmountPostedToGL_LCY",
      "data_type_full": "decimal(19, 4)",
      "type": "measure"
    },
    {
      "column_sequence": 46,
      "column_name": "SalesAmount_RCY",
      "data_type_full": "decimal(19, 4)",
      "type": "measure"
    },
    {
      "column_sequence": 47,
      "column_name": "SalesAmountExpected_RCY",
      "data_type_full": "decimal(19, 4)",
      "type": "measure"
    },
    {
      "column_sequence": 48,
      "column_name": "DiscountAmount_RCY",
      "data_type_full": "decimal(19, 4)",
      "type": "measure"
    },
    {
      "column_sequence": 49,
      "column_name": "CostAmount_RCY",
      "data_type_full": "decimal(19, 4)",
      "type": "measure"
    },
    {
      "column_sequence": 50,
      "column_name": "CostAmountExpected_RCY",
      "data_type_full": "decimal(19, 4)",
      "type": "measure"
    },
    {
      "column_sequence": 51,
      "column_name": "CostAmountPostedToGL_RCY",
      "data_type_full": "decimal(19, 4)",
      "type": "measure"
    },
    {
      "column_sequence": 52,
      "column_name": "SalesAmount_PCY",
      "data_type_full": "decimal(19, 4)",
      "type": "measure"
    },
    {
      "column_sequence": 53,
      "column_name": "SalesAmountExpected_PCY",
      "data_type_full": "decimal(19, 4)",
      "type": "measure"
    },
    {
      "column_sequence": 54,
      "column_name": "DiscountAmount_PCY",
      "data_type_full": "decimal(19, 4)",
      "type": "measure"
    },
    {
      "column_sequence": 55,
      "column_name": "CostAmount_PCY",
      "data_type_full": "decimal(19, 4)",
      "type": "measure"
    },
    {
      "column_sequence": 56,
      "column_name": "CostAmountExpected_PCY",
      "data_type_full": "decimal(19, 4)",
      "type": "measure"
    },
    {
      "column_sequence": 57,
      "column_name": "CostAmountPostedToGL_PCY",
      "data_type_full": "decimal(19, 4)",
      "type": "measure"
    }
  ],
  "dimensions": [
    {
      "dimension": "Item",
      "role_playing": "Item",
      "dimension_joins": [
        {
          "delta_column": "CompanyID",
          "dimension_column": "CompanyID"
        },
        {
          "delta_column": "DataConnectionID",
          "dimension_column": "DataConnectionID"
        },
        {
          "delta_column": "ItemCode",
          "dimension_column": "ItemCode"
        }
      ]
    },
    {
      "dimension": "Customer",
      "role_playing": "Customer",
      "dimension_joins": [
        {
          "delta_column": "CompanyID",
          "dimension_column": "CompanyID"
        },
        {
          "delta_column": "DataConnectionID",
          "dimension_column": "DataConnectionID"
        },
        {
          "delta_column": "SellToCustomerCode",
          "dimension_column": "CustomerCode"
        }
      ]
    },
    {
      "dimension": "Customer",
      "role_playing": "SellToCustomer",
      "dimension_joins": [
        {
          "delta_column": "CompanyID",
          "dimension_column": "CompanyID"
        },
        {
          "delta_column": "DataConnectionID",
          "dimension_column": "DataConnectionID"
        },
        {
          "delta_column": "SellToCustomerCode",
          "dimension_column": "CustomerCode"
        }
      ]
    },
    {
      "dimension": "Customer",
      "role_playing": "BillToCustomer",
      "dimension_joins": [
        {
          "delta_column": "CompanyID",
          "dimension_column": "CompanyID"
        },
        {
          "delta_column": "DataConnectionID",
          "dimension_column": "DataConnectionID"
        },
        {
          "delta_column": "BillToCustomerCode",
          "dimension_column": "CustomerCode"
        }
      ]
    },
    {
      "dimension": "Location",
      "role_playing": "Location",
      "dimension_joins": [
        {
          "delta_column": "CompanyID",
          "dimension_column": "CompanyID"
        },
        {
          "delta_column": "DataConnectionID",
          "dimension_column": "DataConnectionID"
        },
        {
          "delta_column": "LocationCode",
          "dimension_column": "LocationCode"
        }
      ]
    },
    {
      "dimension": "Source",
      "role_playing": "Source",
      "dimension_joins": [
        {
          "delta_column": "CompanyID",
          "dimension_column": "CompanyID"
        },
        {
          "delta_column": "DataConnectionID",
          "dimension_column": "DataConnectionID"
        },
        {
          "delta_column": "SourceCode",
          "dimension_column": "SourceCode"
        }
      ]
    },
    {
      "dimension": "GeneralBusinessPostingGroup",
      "role_playing": "GeneralBusinessPostingGroup",
      "dimension_joins": [
        {
          "delta_column": "CompanyID",
          "dimension_column": "CompanyID"
        },
        {
          "delta_column": "DataConnectionID",
          "dimension_column": "DataConnectionID"
        },
        {
          "delta_column": "GeneralBusinessPostingGroupCode",
          "dimension_column": "GeneralBusinessPostingGroupCode"
        }
      ]
    },
    {
      "dimension": "GeneralProductPostingGroup",
      "role_playing": "GeneralProductPostingGroup",
      "dimension_joins": [
        {
          "delta_column": "CompanyID",
          "dimension_column": "CompanyID"
        },
        {
          "delta_column": "DataConnectionID",
          "dimension_column": "DataConnectionID"
        },
        {
          "delta_column": "GeneralProductPostingGroupCode",
          "dimension_column": "GeneralProductPostingGroupCode"
        }
      ]
    },
    {
      "dimension": "ReturnReason",
      "role_playing": "ReturnReason",
      "dimension_joins": [
        {
          "delta_column": "CompanyID",
          "dimension_column": "CompanyID"
        },
        {
          "delta_column": "DataConnectionID",
          "dimension_column": "DataConnectionID"
        },
        {
          "delta_column": "ReturnReasonCode",
          "dimension_column": "ReturnReasonCode"
        }
      ]
    },
    {
      "dimension": "SalesPersonPurchaser",
      "role_playing": "SalesPersonPurchaser",
      "dimension_joins": [
        {
          "delta_column": "CompanyID",
          "dimension_column": "CompanyID"
        },
        {
          "delta_column": "DataConnectionID",
          "dimension_column": "DataConnectionID"
        },
        {
          "delta_column": "SalesPersonPurchaserCode",
          "dimension_column": "SalespersonPurchaserCode"
        }
      ]
    },
    {
      "dimension": "ItemCharge",
      "role_playing": "ItemCharge",
      "dimension_joins": [
        {
          "delta_column": "CompanyID",
          "dimension_column": "CompanyID"
        },
        {
          "delta_column": "DataConnectionID",
          "dimension_column": "DataConnectionID"
        },
        {
          "delta_column": "ItemChargeCode",
          "dimension_column": "ItemChargeCode"
        }
      ]
    },
    {
      "dimension": "Currency",
      "role_playing": "Currency",
      "dimension_joins": [
        {
          "delta_column": "CompanyID",
          "dimension_column": "CompanyID"
        },
        {
          "delta_column": "DataConnectionID",
          "dimension_column": "DataConnectionID"
        },
        {
          "delta_column": "CurrencyCode",
          "dimension_column": "CurrencyCode"
        }
      ]
    },
    {
      "dimension": "InventoryPostingGroup",
      "role_playing": "InventoryPostingGroup",
      "dimension_joins": [
        {
          "delta_column": "CompanyID",
          "dimension_column": "CompanyID"
        },
        {
          "delta_column": "DataConnectionID",
          "dimension_column": "DataConnectionID"
        },
        {
          "delta_column": "InventoryPostingGroupCode",
          "dimension_column": "InventoryPostingGroupCode"
        }
      ]
    },
    {
      "dimension": "FixedAsset",
      "role_playing": "FixedAsset",
      "dimension_joins": [
        {
          "delta_column": "CompanyID",
          "dimension_column": "CompanyID"
        },
        {
          "delta_column": "DataConnectionID",
          "dimension_column": "DataConnectionID"
        },
        {
          "delta_column": "FixedAssetCode",
          "dimension_column": "FixedAssetCode"
        }
      ]
    },
    {
      "dimension": "GeneralLedgerAccount",
      "role_playing": "GeneralLedgerAccount",
      "dimension_joins": [
        {
          "delta_column": "CompanyID",
          "dimension_column": "CompanyID"
        },
        {
          "delta_column": "DataConnectionID",
          "dimension_column": "DataConnectionID"
        },
        {
          "delta_column": "GeneralLedgerAccountCode",
          "dimension_column": "GeneralLedgerAccountCode"
        }
      ]
    },
    {
      "dimension": "Resource",
      "role_playing": "Resource",
      "dimension_joins": [
        {
          "delta_column": "CompanyID",
          "dimension_column": "CompanyID"
        },
        {
          "delta_column": "DataConnectionID",
          "dimension_column": "DataConnectionID"
        },
        {
          "delta_column": "ResourceCode",
          "dimension_column": "ResourceCode"
        }
      ]
    },
    {
      "dimension": "DocumentSales",
      "role_playing": "DocumentSales",
      "dimension_joins": [
        {
          "delta_column": "CompanyID",
          "dimension_column": "CompanyID"
        },
        {
          "delta_column": "DataConnectionID",
          "dimension_column": "DataConnectionID"
        },
        {
          "delta_column": "DocumentNo",
          "dimension_column": "DocumentNo"
        },
        {
          "delta_column": "DocumentTypeCode",
          "dimension_column": "DocumentTypeCode"
        }
      ]
    },
    {
      "dimension": "SalesLineType",
      "role_playing": "SalesLineType",
      "dimension_joins": [
        {
          "delta_column": "SalesLineTypeCode",
          "dimension_column": "SalesLineTypeCode"
        },
        {
          "delta_column": "DataConnectionID",
          "dimension_column": "DataConnectionID"
        }
      ]
    },
    {
      "dimension": "Date",
      "role_playing": "PostingDate",
      "dimension_joins": [
        {
          "delta_column": "PostingDate",
          "dimension_column": "Date"
        }
      ]
    },
    {
      "dimension": "Date",
      "role_playing": "Date",
      "dimension_joins": [
        {
          "delta_column": "PostingDate",
          "dimension_column": "Date"
        }
      ]
    },
    {
      "dimension": "ItemVariant",
      "role_playing": "ItemVariant",
      "dimension_joins": [
        {
          "delta_column": "CompanyID",
          "dimension_column": "CompanyID"
        },
        {
          "delta_column": "DataConnectionID",
          "dimension_column": "DataConnectionID"
        },
        {
          "delta_column": "ItemCode",
          "dimension_column": "ItemCode"
        },
        {
          "delta_column": "ItemVariantCode",
          "dimension_column": "ItemVariantCode"
        }
      ]
    },
    {
      "dimension": "Reason",
      "role_playing": "Reason",
      "dimension_joins": [
        {
          "delta_column": "CompanyID",
          "dimension_column": "CompanyID"
        },
        {
          "delta_column": "DataConnectionID",
          "dimension_column": "DataConnectionID"
        },
        {
          "delta_column": "ReasonCode",
          "dimension_column": "ReasonCode"
        }
      ]
    }
  ],
  "load_type": 1,
  "manual_mode": false,
  "is_customized": false
}