{
  "name": "InvoicedQuantity_SPLY_SRS",
  "description": "Returned Quantity Invoiced. NAV: Sales > Order Processing > Return Orders > Lines > Quantity Invoiced",
  "expression": [
    "VAR SPLY0 =",
    "    FILTER (",
    "        ALL ( 'Date' ),",
    "        'Date'[Date] <= MAX ( 'Date'[TDatePY] )",
    "            && 'Date'[Date] >= MIN ( 'Date'[TDatePY] )",
    "    )",
    "RETURN",
    "    CALCULATE ( [InvoicedQuantity_SRS], SPLY0 )"
  ],
  "formatString": "#,##0",
  "displayFolder": "Σ SPLY",
  "annotations": [
    {
      "name": "TabularEditor_TranslatedNames",
      "value": "{\"de-DE\":\"Reklamation Bereits berech. Menge SPLY\",\"en-US\":\"Returned Quantity Invoiced SPLY\",\"nl-NL\":\"Gefactureerd retour aantal SPLY\"}"
    },
    {
      "name": "TabularEditor_TranslatedDescriptions",
      "value": "{\"de-DE\":\"Abteilungen/Verkauf & Marketing/Auftragsabwicklung/Verkaufsreklamationen/Zeilen\",\"en-US\":\"Returned Quantity Invoiced. NAV: Sales > Order Processing > Return Orders > Lines > Quantity Invoiced\",\"nl-NL\":\"Gefactureerd retour aantal verschil tov  vorig jaar. NAV: Verkoop > Orderverwerking > Retour orders > Regels > Gefactureerd Aantal\"}"
    },
    {
      "name": "TabularEditor_TranslatedDisplayFolders",
      "value": "{\"de-DE\":\"Σ SPLY\",\"en-US\":\"Σ SPLY\",\"nl-NL\":\"Σ SPLY\"}"
    }
  ]
}