{
  "name": "InvoicedQuantity_MTD_SRS",
  "description": "Returned Quantity Invoiced. NAV: Sales > Order Processing > Return Orders > Lines > Quantity Invoiced",
  "expression": [
    "VAR MTD0 =",
    "    FILTER (",
    "        ALL ( 'Date' ),",
    "        'Date'[DateID] <= MAX ( 'Date'[DateID] )",
    "            && 'Date'[CYearMonthNo] = MAX ( 'Date'[CYearMonthNo] )",
    "    )",
    "RETURN",
    "    CALCULATE ( [InvoicedQuantity_SRS], MTD0 )"
  ],
  "formatString": "#,##0",
  "displayFolder": "Σ MTD",
  "annotations": [
    {
      "name": "TabularEditor_TranslatedNames",
      "value": "{\"de-DE\":\"Reklamation Bereits berech. Menge MTD\",\"en-US\":\"Returned Quantity Invoiced MTD\",\"nl-NL\":\"Gefactureerd retour aantal MTD\"}"
    },
    {
      "name": "TabularEditor_TranslatedDescriptions",
      "value": "{\"de-DE\":\"Abteilungen/Verkauf & Marketing/Auftragsabwicklung/Verkaufsreklamationen/Zeilen\",\"en-US\":\"Returned Quantity Invoiced. NAV: Sales > Order Processing > Return Orders > Lines > Quantity Invoiced\",\"nl-NL\":\"Gefactureerd retour aantal verschil tov  vorig jaar. NAV: Verkoop > Orderverwerking > Retour orders > Regels > Gefactureerd Aantal\"}"
    },
    {
      "name": "TabularEditor_TranslatedDisplayFolders",
      "value": "{\"de-DE\":\"Σ MTD\",\"en-US\":\"Σ MTD\",\"nl-NL\":\"Σ MTD\"}"
    }
  ]
}