{
  "name": "ShippedQuantity_SPLY_Index_SRS",
  "description": "Quantity Returned. NAV: Sales > Order Processing > Return Orders > Lines > Quantity",
  "expression": "DIVIDE ( [ShippedQuantity_SRS], [ShippedQuantity_SPLY_SRS] ) * 100",
  "formatString": "#,##0.00",
  "displayFolder": "Σ SPLY Variance",
  "annotations": [
    {
      "name": "TabularEditor_TranslatedNames",
      "value": "{\"de-DE\":\"Reklamation Menge geliefert SPLY Index\",\"en-US\":\"Quantity Returned SPLY Index\",\"nl-NL\":\"Retour aantal SPLY Index\"}"
    },
    {
      "name": "TabularEditor_TranslatedDescriptions",
      "value": "{\"de-DE\":\"Abteilungen/Verkauf & Marketing/Auftragsabwicklung/Verkaufsreklamationen/Zeilen\",\"en-US\":\"Quantity Returned. NAV: Sales > Order Processing > Return Orders > Lines > Quantity\",\"nl-NL\":\"Retour aantal. NAV: Verkoop > Orderverwerking > Retourorders > Regels > Retour Aantal\"}"
    },
    {
      "name": "TabularEditor_TranslatedDisplayFolders",
      "value": "{\"de-DE\":\"Σ SPLY Varianz\",\"en-US\":\"Σ SPLY Variance\"}"
    }
  ]
}