{
  "name": "ShippedAmount_SPLY_Variance_SRS",
  "description": "Returned Amount. NAV: Sales > Order Processing > Return orders > Lines > Line Amount Excl VAT",
  "expression": "[ShippedAmount_SRS] - [ShippedAmount_SPLY_SRS]",
  "formatString": "#,##0.00",
  "displayFolder": "Σ SPLY Variance",
  "annotations": [
    {
      "name": "TabularEditor_TranslatedNames",
      "value": "{\"de-DE\":\"Reklamation Betrag geliefert SPLY Varianz\",\"en-US\":\"Returned Amount SPLY Variance\",\"nl-NL\":\"Retour bedrag SPLY verschil\"}"
    },
    {
      "name": "TabularEditor_TranslatedDescriptions",
      "value": "{\"de-DE\":\"Abteilungen/Verkauf & Marketing/Auftragsabwicklung/Verkaufsreklamationen/Zeilen\",\"en-US\":\"Returned Amount. NAV: Sales > Order Processing > Return orders > Lines > Line Amount Excl VAT\",\"nl-NL\":\"Retour Bedrag. NAV: Verkoop > Orderverwerking > Leveringen > Retourorders > Regelbedrag Excl. BTW\"}"
    },
    {
      "name": "TabularEditor_TranslatedDisplayFolders",
      "value": "{\"de-DE\":\"Σ SPLY Varianz\",\"en-US\":\"Σ SPLY Variance\"}"
    }
  ]
}