{
  "name": "ShippedQuantity_MTD_SRS",
  "description": "Quantity Returned. NAV: Sales > Order Processing > Return Orders > Lines > Quantity",
  "expression": [
    "VAR MTD0 =",
    "    FILTER (",
    "        ALL ( 'Date' ),",
    "        'Date'[DateID] <= MAX ( 'Date'[DateID] )",
    "            && 'Date'[CYearMonthNo] = MAX ( 'Date'[CYearMonthNo] )",
    "    )",
    "RETURN",
    "    CALCULATE ( [ShippedQuantity_SRS], MTD0 )"
  ],
  "formatString": "#,##0",
  "displayFolder": "Σ MTD",
  "annotations": [
    {
      "name": "TabularEditor_TranslatedNames",
      "value": "{\"de-DE\":\"Reklamation Menge geliefert MTD\",\"en-US\":\"Quantity Returned  MTD\",\"nl-NL\":\"Retour aantal MTD\"}"
    },
    {
      "name": "TabularEditor_TranslatedDescriptions",
      "value": "{\"de-DE\":\"Abteilungen/Verkauf & Marketing/Auftragsabwicklung/Verkaufsreklamationen/Zeilen\",\"en-US\":\"Quantity Returned. NAV: Sales > Order Processing > Return Orders > Lines > Quantity\",\"nl-NL\":\"Retour aantal. NAV: Verkoop > Orderverwerking > Retourorders > Regels > Retour Aantal\"}"
    },
    {
      "name": "TabularEditor_TranslatedDisplayFolders",
      "value": "{\"de-DE\":\"Σ MTD\",\"en-US\":\"Σ MTD\",\"nl-NL\":\"Σ MTD\"}"
    }
  ]
}