{
  "name": "ShippedAmount_RY_SRS",
  "description": "Returned Amount. NAV: Sales > Order Processing > Return orders > Lines > Line Amount Excl VAT",
  "expression": [
    "VAR RY0 =",
    "    FILTER (",
    "        ALL ( 'Date' ),",
    "        'Date'[DateID] <= MAX ( 'Date'[DateID] )",
    "            && 'Date'[Date] > MAX ( 'Date'[TDatePY] )",
    "    )",
    "RETURN",
    "    CALCULATE ( [ShippedAmount_SRS], RY0 )"
  ],
  "formatString": "#,##0.00",
  "displayFolder": "Σ RY",
  "annotations": [
    {
      "name": "TabularEditor_TranslatedNames",
      "value": "{\"de-DE\":\"Reklamation Betrag geliefert RY\",\"en-US\":\"Returned Amount RY\",\"nl-NL\":\"Retour bedrag RY\"}"
    },
    {
      "name": "TabularEditor_TranslatedDescriptions",
      "value": "{\"de-DE\":\"Abteilungen/Verkauf & Marketing/Auftragsabwicklung/Verkaufsreklamationen/Zeilen\",\"en-US\":\"Returned Amount. NAV: Sales > Order Processing > Return orders > Lines > Line Amount Excl VAT\",\"nl-NL\":\"Retour Bedrag. NAV: Verkoop > Orderverwerking > Leveringen > Retourorders > Regelbedrag Excl. BTW\"}"
    },
    {
      "name": "TabularEditor_TranslatedDisplayFolders",
      "value": "{\"de-DE\":\"Σ RY\",\"en-US\":\"Σ RY\",\"nl-NL\":\"Σ RY\"}"
    }
  ]
}