{
  "name": "TransferReceiptQuantity_SPLY_Variance%_TR",
  "description": " SPLY Variance %",
  "expression": "DIVIDE ( [TransferReceiptQuantity_TR] - [TransferReceiptQuantity_SPLY_TR], [TransferReceiptQuantity_SPLY_TR] )",
  "formatString": "#,##0.0 %",
  "displayFolder": "Σ SPLY Variance",
  "annotations": [
    {
      "name": "TabularEditor_TranslatedNames",
      "value": "{\"de-DE\":\"Umbuchungsbeleg Menge SPLY Varianz %\",\"en-US\":\"Quantity SPLY Variance %\",\"nl-NL\":\"Aantal SPLY Variance %\"}"
    },
    {
      "name": "TabularEditor_TranslatedDescriptions",
      "value": "{\"de-DE\":\"Abteilungen/Lager/Historie/Gebuchte Belege/Geb. Umlag.-Eingänge/Zeilen\",\"en-US\":\"Departments/Inventory and Warehouse/History/Posted Transfer Receipts/Quantity SPLY Variance %\",\"nl-NL\":\"Afdelingen/Voorraad en magazijn/Historie/Geboekte transferontvangsten/Aantal SPLY Variance %\"}"
    },
    {
      "name": "TabularEditor_TranslatedDisplayFolders",
      "value": "{\"de-DE\":\"Σ SPLY Varianz\",\"en-US\":\"Σ SPLY Variance\",\"nl-NL\":\"Σ SPLY Variance\"}"
    }
  ]
}