{
  "name": "TransferReceiptQuantity_TR",
  "expression": "SUM ( 'factTransferReceipt'[TransferReceiptQuantity] )",
  "formatString": "#,##0.00",
  "annotations": [
    {
      "name": "TabularEditor_TranslatedNames",
      "value": "{\"de-DE\":\"Umbuchungsbeleg Menge\",\"en-US\":\"Quantity\",\"nl-NL\":\"Aantal\"}"
    },
    {
      "name": "TabularEditor_TranslatedDescriptions",
      "value": "{\"de-DE\":\"Abteilungen/Lager/Historie/Gebuchte Belege/Geb. Umlag.-Eingänge/Zeilen\",\"en-US\":\"Departments/Inventory and Warehouse/History/Posted Transfer Receipts/Quantity\",\"nl-NL\":\"Afdelingen/Voorraad en magazijn/Historie/Geboekte transferontvangsten/Aantal\"}"
    }
  ]
}