{
  "name": "Amount_SPLY_Variance%_PTICE",
  "expression": "DIVIDE ( [Amount_PTICE] - [Amount_SPLY_PTICE], [Amount_SPLY_PTICE] )",
  "formatString": "#,##0.0 %",
  "displayFolder": "Σ SPLY Variance",
  "annotations": [
    {
      "name": "TabularEditor_TranslatedNames",
      "value": "{\"en-US\":\"Amount SPLY Variance %\",\"nl-NL\":\"Bedrag SPLY Variance %\"}"
    },
    {
      "name": "TabularEditor_TranslatedDisplayFolders",
      "value": "{\"en-US\":\"Σ SPLY Variance\",\"nl-NL\":\"Σ SPLY Variance\"}"
    }
  ]
}