{
  "name": "InfoAmount_SPLY_Variance_PTICE",
  "expression": "[InfoAmount_PTICE] - [InfoAmount_SPLY_PTICE]",
  "formatString": "#,##0.00",
  "displayFolder": "Σ SPLY Variance",
  "annotations": [
    {
      "name": "TabularEditor_TranslatedNames",
      "value": "{\"en-US\":\"Info Amount SPLY Variance\",\"nl-NL\":\"Info Bedrag SPLY Variance\"}"
    },
    {
      "name": "TabularEditor_TranslatedDisplayFolders",
      "value": "{\"en-US\":\"Σ SPLY Variance\",\"nl-NL\":\"Σ SPLY Variance\"}"
    }
  ]
}