{
  "name": "Amount P&L(-)_Variance_GL",
  "description": "Departments/Finance/Basic Data/General/Chart of Accounts > Ledger Entries  > Amount",
  "expression": "[Amount P&L(-)_GL] - [Amount P&L(-)_SPLY_GL]",
  "formatString": "#,##0.00",
  "displayFolder": "Σ CY vs SPLY",
  "annotations": [
    {
      "name": "TabularEditor_TranslatedNames",
      "value": "{\"de-DE\":\"Betrag g&v (-) vj unterschied\",\"en-US\":\"Amount P&L(-) SPLY Variance\",\"nl-NL\":\"Bedrag w&v (-) vj verschil\"}"
    },
    {
      "name": "TabularEditor_TranslatedDescriptions",
      "value": "{\"de-DE\":\"Abteilungen/Finanzmanagement/Finanzbuchhaltung/Historie/Sachposten/Zeilen\",\"en-US\":\"Departments/Finance/Basic Data/General/Chart of Accounts > Ledger Entries  > Amount\",\"nl-NL\":\"Afdelingen/Financieel/Stamgegevens/Algemeen/Rekeningschema > Posten > Bedrag\"}"
    }
  ]
}