{
  "name": "Amount_GL",
  "description": "Departments/Finance/Basic Data/General/Chart of Accounts > Ledger Entries  > Amount",
  "expression": [
    "SUMX (",
    "    FILTER (",
    "        'factGeneralLedger',",
    "        'factGeneralLedger'[IsCredit] >= 0 //[IsCreditMinCode]",
    "            && 'factGeneralLedger'[IsCredit] <= 1 //[IsCreditMaxCode]",
    "    ),",
    "    'factGeneralLedger'[Amount_RCY]",
    ")"
  ],
  "formatString": "#,##0.00",
  "annotations": [
    {
      "name": "TabularEditor_TranslatedNames",
      "value": "{\"de-DE\":\"Betrag \",\"en-US\":\"Amount\",\"nl-NL\":\"Bedrag \"}"
    },
    {
      "name": "TabularEditor_TranslatedDescriptions",
      "value": "{\"de-DE\":\"Abteilungen/Finanzmanagement/Finanzbuchhaltung/Historie/Sachposten/Zeilen\",\"en-US\":\"Departments/Finance/Basic Data/General/Chart of Accounts > Ledger Entries  > Amount\",\"nl-NL\":\"Afdelingen/Financieel/Stamgegevens/Algemeen/Rekeningschema > Posten > Bedrag\"}"
    }
  ]
}