{
  "name": "AmountP&L(-)_YTD_Variance%_GL",
  "description": "Departments/Finance/Basic Data/General/Chart of Accounts > Ledger Entries  > Amount",
  "expression": "DIVIDE ( [Amount P&L(-)_YTD_Variance_GL], [Amount P&L(-)_LYTD_GL] )",
  "formatString": "#,##0.0 %",
  "displayFolder": "Σ YTD vs LYTD",
  "annotations": [
    {
      "name": "TabularEditor_TranslatedNames",
      "value": "{\"de-DE\":\"Betrag g&v (-) YTD unterschied %\",\"en-US\":\"Amount P&L(-) YTD Variance %\",\"nl-NL\":\"Bedrag w&v (-) YTD verschil %\"}"
    },
    {
      "name": "TabularEditor_TranslatedDescriptions",
      "value": "{\"de-DE\":\"Abteilungen/Finanzmanagement/Finanzbuchhaltung/Historie/Sachposten/Zeilen\",\"en-US\":\"Departments/Finance/Basic Data/General/Chart of Accounts > Ledger Entries  > Amount\",\"nl-NL\":\"Afdelingen/Financieel/Stamgegevens/Algemeen/Rekeningschema > Posten > Bedrag\"}"
    }
  ]
}