{
  "name": "Amount P&L_LCY_GL",
  "description": "Departments/Finance/Basic Data/General/Chart of Accounts > Ledger Entries  > Amount",
  "expression": [
    "SUMX (",
    "    FILTER (",
    "        'factGeneralLedger',",
    "        'factGeneralLedger'[IsCredit] >= [IsCreditMinCode]",
    "            && 'factGeneralLedger'[IsCredit] <= [IsCreditMaxCode]",
    "    ),",
    "    IF (",
    "        'factGeneralLedger'[ISBalance] <> 1",
    "            && 'factGeneralLedger'[IsPeriodClosing] <> 1,",
    "        'factGeneralLedger'[Amount_LCY]",
    "    )",
    ")"
  ],
  "formatString": "#,##0.00",
  "displayFolder": "Σ Local Currency",
  "annotations": [
    {
      "name": "TabularEditor_TranslatedNames",
      "value": "{\"de-DE\":\"Betrag g&v\",\"en-US\":\"Amount P&L\",\"nl-NL\":\"Bedrag w&v\"}"
    },
    {
      "name": "TabularEditor_TranslatedDescriptions",
      "value": "{\"de-DE\":\"Abteilungen/Finanzmanagement/Finanzbuchhaltung/Historie/Sachposten/Zeilen\",\"en-US\":\"Departments/Finance/Basic Data/General/Chart of Accounts > Ledger Entries  > Amount\",\"nl-NL\":\"Afdelingen/Financieel/Stamgegevens/Algemeen/Rekeningschema > Posten > Bedrag\"}"
    },
    {
      "name": "TabularEditor_TranslatedDisplayFolders",
      "value": "{\"de-DE\":\"Σ Local Währung\",\"en-US\":\"Σ Local Currency\",\"nl-NL\":\"Σ Lokale Valuta\"}"
    }
  ]
}