{
  "name": "AmountBalance_Variance_GL",
  "description": "Departments/Finance/Basic Data/General/Chart of Accounts > Ledger Entries  > Amount up to selected date",
  "expression": "[AmountBalance_GL] - [AmountBalance_SPLY_GL]",
  "formatString": "#,##0.00",
  "displayFolder": "Σ CY vs SPLY",
  "annotations": [
    {
      "name": "TabularEditor_TranslatedNames",
      "value": "{\"de-DE\":\"Balance Menge Varianz\",\"en-US\":\"Balance SPLY Variance\",\"nl-NL\":\"Balans vj verschil\"}"
    },
    {
      "name": "TabularEditor_TranslatedDescriptions",
      "value": "{\"de-DE\":\"Gebuchte Belege/Debitorenposten/Zeilen\",\"en-US\":\"Departments/Finance/Basic Data/General/Chart of Accounts > Ledger Entries  > Amount up to selected date\",\"nl-NL\":\"Afdelingen/Financieel/Stamgegevens/Algemeen/Rekeningschema > Posten > Bedrag tot aan geselecteerde datum\"}"
    }
  ]
}