{
  "name": "NetChange_GL",
  "description": "Departments/Finance/Basic Data/General/Chart of Accounts > Ledger Entries  > Amount",
  "expression": "[Amount_GL]",
  "formatString": "#,##0.00",
  "annotations": [
    {
      "name": "TabularEditor_TranslatedNames",
      "value": "{\"de-DE\":\"Budget Bewegung\",\"en-US\":\"Net Change\",\"nl-NL\":\"Netto mutatie\"}"
    },
    {
      "name": "TabularEditor_TranslatedDescriptions",
      "value": "{\"de-DE\":\"Gebuchte Belege/Debitorenposten/Zeilen\",\"en-US\":\"Departments/Finance/Basic Data/General/Chart of Accounts > Ledger Entries  > Amount\",\"nl-NL\":\"Afdelingen/Financieel/Stamgegevens/Algemeen/Rekeningschema > Posten > Bedrag\"}"
    }
  ]
}