{
  "base_name": "Date",
  "category": "dim",
  "database_object": {
    "table_identifier": "dim.Date",
    "columns": [
      {
        "column_name": "DateID",
        "data_type": "int",
        "character_maximum_length": null,
        "numeric_precision": 10,
        "numeric_scale": 0,
        "nullable": false,
        "business_key": false
      },
      {
        "column_name": "ExecutionTimestamp",
        "data_type": "timestamp",
        "character_maximum_length": null,
        "numeric_precision": null,
        "numeric_scale": null,
        "nullable": false,
        "business_key": false
      },
      {
        "column_name": "ComponentExecutionID",
        "data_type": "int",
        "character_maximum_length": null,
        "numeric_precision": 10,
        "numeric_scale": 0,
        "nullable": false,
        "business_key": false
      },
      {
        "column_name": "Date",
        "data_type": "datetime2",
        "character_maximum_length": null,
        "numeric_precision": null,
        "numeric_scale": null,
        "nullable": false,
        "business_key": false
      },
      {
        "column_name": "CYearNo",
        "data_type": "int",
        "character_maximum_length": null,
        "numeric_precision": 10,
        "numeric_scale": 0,
        "nullable": false,
        "business_key": false
      },
      {
        "column_name": "CIsoYearNo",
        "data_type": "int",
        "character_maximum_length": null,
        "numeric_precision": 10,
        "numeric_scale": 0,
        "nullable": false,
        "business_key": false
      },
      {
        "column_name": "CQuarterNo",
        "data_type": "int",
        "character_maximum_length": null,
        "numeric_precision": 10,
        "numeric_scale": 0,
        "nullable": false,
        "business_key": false
      },
      {
        "column_name": "CMonthNo",
        "data_type": "int",
        "character_maximum_length": null,
        "numeric_precision": 10,
        "numeric_scale": 0,
        "nullable": false,
        "business_key": false
      },
      {
        "column_name": "CWeekNo",
        "data_type": "int",
        "character_maximum_length": null,
        "numeric_precision": 10,
        "numeric_scale": 0,
        "nullable": false,
        "business_key": false
      },
      {
        "column_name": "CYearMonthNo",
        "data_type": "int",
        "character_maximum_length": null,
        "numeric_precision": 10,
        "numeric_scale": 0,
        "nullable": false,
        "business_key": false
      },
      {
        "column_name": "CDayInMonthNo",
        "data_type": "int",
        "character_maximum_length": null,
        "numeric_precision": 10,
        "numeric_scale": 0,
        "nullable": false,
        "business_key": false
      },
      {
        "column_name": "CYearDesc",
        "data_type": "nvarchar",
        "character_maximum_length": 255,
        "numeric_precision": null,
        "numeric_scale": null,
        "nullable": false,
        "business_key": false
      },
      {
        "column_name": "CIsoYearDesc",
        "data_type": "nvarchar",
        "character_maximum_length": 255,
        "numeric_precision": null,
        "numeric_scale": null,
        "nullable": false,
        "business_key": false
      },
      {
        "column_name": "CMonthDesc",
        "data_type": "nvarchar",
        "character_maximum_length": 255,
        "numeric_precision": null,
        "numeric_scale": null,
        "nullable": false,
        "business_key": false
      },
      {
        "column_name": "CQuarterDesc",
        "data_type": "nvarchar",
        "character_maximum_length": 255,
        "numeric_precision": null,
        "numeric_scale": null,
        "nullable": false,
        "business_key": false
      },
      {
        "column_name": "CWeekDesc",
        "data_type": "nvarchar",
        "character_maximum_length": 255,
        "numeric_precision": null,
        "numeric_scale": null,
        "nullable": false,
        "business_key": false
      },
      {
        "column_name": "CYearMonthDesc",
        "data_type": "nvarchar",
        "character_maximum_length": 255,
        "numeric_precision": null,
        "numeric_scale": null,
        "nullable": false,
        "business_key": false
      },
      {
        "column_name": "CDayDesc",
        "data_type": "nvarchar",
        "character_maximum_length": 255,
        "numeric_precision": null,
        "numeric_scale": null,
        "nullable": false,
        "business_key": false
      },
      {
        "column_name": "Past",
        "data_type": "int",
        "character_maximum_length": null,
        "numeric_precision": 10,
        "numeric_scale": 0,
        "nullable": false,
        "business_key": false
      },
      {
        "column_name": "DateNo",
        "data_type": "int",
        "character_maximum_length": null,
        "numeric_precision": 10,
        "numeric_scale": 0,
        "nullable": false,
        "business_key": false
      },
      {
        "column_name": "TDatePY",
        "data_type": "datetime2",
        "character_maximum_length": null,
        "numeric_precision": null,
        "numeric_scale": null,
        "nullable": false,
        "business_key": false
      },
      {
        "column_name": "TYearMonthNo",
        "data_type": "int",
        "character_maximum_length": null,
        "numeric_precision": 10,
        "numeric_scale": 0,
        "nullable": false,
        "business_key": false
      },
      {
        "column_name": "TMonthDays",
        "data_type": "int",
        "character_maximum_length": null,
        "numeric_precision": 10,
        "numeric_scale": 0,
        "nullable": false,
        "business_key": false
      }
    ],
    "indexes": []
  },
  "load_procedures": [],
  "views": null,
  "queries": [
    {
      "name": "default",
      "select_file_path": "default.sql",
      "sequence": 200,
      "aliases": []
    }
  ],
  "query_columns": [
    {
      "column_sequence": 1,
      "column_name": "DateID",
      "data_type_full": "int",
      "type": "attribute"
    },
    {
      "column_sequence": 2,
      "column_name": "Date",
      "data_type_full": "datetime2",
      "type": "business_key"
    },
    {
      "column_sequence": 3,
      "column_name": "CYearNo",
      "data_type_full": "int",
      "type": "attribute"
    },
    {
      "column_sequence": 4,
      "column_name": "CIsoYearNo",
      "data_type_full": "int",
      "type": "attribute"
    },
    {
      "column_sequence": 5,
      "column_name": "CQuarterNo",
      "data_type_full": "int",
      "type": "attribute"
    },
    {
      "column_sequence": 6,
      "column_name": "CMonthNo",
      "data_type_full": "int",
      "type": "attribute"
    },
    {
      "column_sequence": 7,
      "column_name": "CWeekNo",
      "data_type_full": "int",
      "type": "attribute"
    },
    {
      "column_sequence": 8,
      "column_name": "CYearMonthNo",
      "data_type_full": "int",
      "type": "attribute"
    },
    {
      "column_sequence": 9,
      "column_name": "CDayInMonthNo",
      "data_type_full": "int",
      "type": "attribute"
    },
    {
      "column_sequence": 10,
      "column_name": "CYearDesc",
      "data_type_full": "nvarchar(255)",
      "type": "attribute"
    },
    {
      "column_sequence": 11,
      "column_name": "CIsoYearDesc",
      "data_type_full": "nvarchar(255)",
      "type": "attribute"
    },
    {
      "column_sequence": 12,
      "column_name": "CMonthDesc",
      "data_type_full": "nvarchar(255)",
      "type": "attribute"
    },
    {
      "column_sequence": 13,
      "column_name": "CQuarterDesc",
      "data_type_full": "nvarchar(255)",
      "type": "attribute"
    },
    {
      "column_sequence": 14,
      "column_name": "CWeekDesc",
      "data_type_full": "nvarchar(255)",
      "type": "attribute"
    },
    {
      "column_sequence": 15,
      "column_name": "CYearMonthDesc",
      "data_type_full": "nvarchar(255)",
      "type": "attribute"
    },
    {
      "column_sequence": 16,
      "column_name": "CDayDesc",
      "data_type_full": "nvarchar(255)",
      "type": "attribute"
    },
    {
      "column_sequence": 17,
      "column_name": "Past",
      "data_type_full": "int",
      "type": "attribute"
    },
    {
      "column_sequence": 18,
      "column_name": "DateNo",
      "data_type_full": "int",
      "type": "attribute"
    },
    {
      "column_sequence": 19,
      "column_name": "TDatePY",
      "data_type_full": "datetime2",
      "type": "attribute"
    },
    {
      "column_sequence": 20,
      "column_name": "TYearMonthNo",
      "data_type_full": "int",
      "type": "attribute"
    },
    {
      "column_sequence": 21,
      "column_name": "TMonthDays",
      "data_type_full": "int",
      "type": "attribute"
    }
  ],
  "dimensions": [],
  "load_type": 1,
  "manual_mode": false,
  "is_customized": false
}