{
  "base_name": "AccountsPayable",
  "category": "fact",
  "database_object": {
    "table_identifier": "fact.AccountsPayable",
    "columns": [
      {
        "column_name": "ExecutionTimestamp",
        "data_type": "timestamp",
        "character_maximum_length": null,
        "numeric_precision": null,
        "numeric_scale": null,
        "nullable": false,
        "business_key": false
      },
      {
        "column_name": "ComponentExecutionID",
        "data_type": "int",
        "character_maximum_length": null,
        "numeric_precision": 10,
        "numeric_scale": 0,
        "nullable": false,
        "business_key": false
      },
      {
        "column_name": "ExecutionFlag",
        "data_type": "nvarchar",
        "character_maximum_length": 10,
        "numeric_precision": null,
        "numeric_scale": null,
        "nullable": false,
        "business_key": false
      },
      {
        "column_name": "IsInvoice",
        "data_type": "int",
        "character_maximum_length": null,
        "numeric_precision": 10,
        "numeric_scale": 0,
        "nullable": true,
        "business_key": false
      },
      {
        "column_name": "IsCredit",
        "data_type": "int",
        "character_maximum_length": null,
        "numeric_precision": 10,
        "numeric_scale": 0,
        "nullable": true,
        "business_key": false
      },
      {
        "column_name": "FinancialDimension1ID",
        "data_type": "int",
        "character_maximum_length": null,
        "numeric_precision": 10,
        "numeric_scale": 0,
        "nullable": true,
        "business_key": false
      },
      {
        "column_name": "FinancialDimension2ID",
        "data_type": "int",
        "character_maximum_length": null,
        "numeric_precision": 10,
        "numeric_scale": 0,
        "nullable": true,
        "business_key": false
      },
      {
        "column_name": "FinancialDimension3ID",
        "data_type": "int",
        "character_maximum_length": null,
        "numeric_precision": 10,
        "numeric_scale": 0,
        "nullable": true,
        "business_key": false
      },
      {
        "column_name": "FinancialDimension4ID",
        "data_type": "int",
        "character_maximum_length": null,
        "numeric_precision": 10,
        "numeric_scale": 0,
        "nullable": true,
        "business_key": false
      },
      {
        "column_name": "FinancialDimension5ID",
        "data_type": "int",
        "character_maximum_length": null,
        "numeric_precision": 10,
        "numeric_scale": 0,
        "nullable": true,
        "business_key": false
      },
      {
        "column_name": "FinancialDimension6ID",
        "data_type": "int",
        "character_maximum_length": null,
        "numeric_precision": 10,
        "numeric_scale": 0,
        "nullable": true,
        "business_key": false
      },
      {
        "column_name": "FinancialDimension7ID",
        "data_type": "int",
        "character_maximum_length": null,
        "numeric_precision": 10,
        "numeric_scale": 0,
        "nullable": true,
        "business_key": false
      },
      {
        "column_name": "FinancialDimension8ID",
        "data_type": "int",
        "character_maximum_length": null,
        "numeric_precision": 10,
        "numeric_scale": 0,
        "nullable": true,
        "business_key": false
      },
      {
        "column_name": "StageID",
        "data_type": "int",
        "character_maximum_length": null,
        "numeric_precision": 10,
        "numeric_scale": 0,
        "nullable": false,
        "business_key": false
      },
      {
        "column_name": "CompanyID",
        "data_type": "int",
        "character_maximum_length": null,
        "numeric_precision": 10,
        "numeric_scale": 0,
        "nullable": false,
        "business_key": false
      },
      {
        "column_name": "DataConnectionID",
        "data_type": "int",
        "character_maximum_length": null,
        "numeric_precision": 10,
        "numeric_scale": 0,
        "nullable": false,
        "business_key": false
      },
      {
        "column_name": "VendorPostingGroupID",
        "data_type": "int",
        "character_maximum_length": null,
        "numeric_precision": 10,
        "numeric_scale": 0,
        "nullable": false,
        "business_key": false
      },
      {
        "column_name": "VendorInvoiceID",
        "data_type": "int",
        "character_maximum_length": null,
        "numeric_precision": 10,
        "numeric_scale": 0,
        "nullable": false,
        "business_key": false
      },
      {
        "column_name": "PayToVendorID",
        "data_type": "int",
        "character_maximum_length": null,
        "numeric_precision": 10,
        "numeric_scale": 0,
        "nullable": false,
        "business_key": false
      },
      {
        "column_name": "BuyFromVendorID",
        "data_type": "int",
        "character_maximum_length": null,
        "numeric_precision": 10,
        "numeric_scale": 0,
        "nullable": false,
        "business_key": false
      },
      {
        "column_name": "IsInvoiceID",
        "data_type": "int",
        "character_maximum_length": null,
        "numeric_precision": 10,
        "numeric_scale": 0,
        "nullable": false,
        "business_key": false
      },
      {
        "column_name": "IsCreditID",
        "data_type": "int",
        "character_maximum_length": null,
        "numeric_precision": 10,
        "numeric_scale": 0,
        "nullable": false,
        "business_key": false
      },
      {
        "column_name": "PostingDateID",
        "data_type": "int",
        "character_maximum_length": null,
        "numeric_precision": 10,
        "numeric_scale": 0,
        "nullable": false,
        "business_key": false
      },
      {
        "column_name": "DueDateID",
        "data_type": "int",
        "character_maximum_length": null,
        "numeric_precision": 10,
        "numeric_scale": 0,
        "nullable": false,
        "business_key": false
      },
      {
        "column_name": "PaidDateID",
        "data_type": "int",
        "character_maximum_length": null,
        "numeric_precision": 10,
        "numeric_scale": 0,
        "nullable": false,
        "business_key": false
      },
      {
        "column_name": "CurrencyID",
        "data_type": "int",
        "character_maximum_length": null,
        "numeric_precision": 10,
        "numeric_scale": 0,
        "nullable": false,
        "business_key": false
      },
      {
        "column_name": "SalesPersonPurchaserID",
        "data_type": "int",
        "character_maximum_length": null,
        "numeric_precision": 10,
        "numeric_scale": 0,
        "nullable": false,
        "business_key": false
      },
      {
        "column_name": "Amount_LCY",
        "data_type": "decimal",
        "character_maximum_length": null,
        "numeric_precision": 19,
        "numeric_scale": 4,
        "nullable": true,
        "business_key": false
      },
      {
        "column_name": "AmountDebit_LCY",
        "data_type": "decimal",
        "character_maximum_length": null,
        "numeric_precision": 19,
        "numeric_scale": 4,
        "nullable": true,
        "business_key": false
      },
      {
        "column_name": "AmountCredit_LCY",
        "data_type": "decimal",
        "character_maximum_length": null,
        "numeric_precision": 19,
        "numeric_scale": 4,
        "nullable": true,
        "business_key": false
      },
      {
        "column_name": "AmountDiscount_LCY",
        "data_type": "decimal",
        "character_maximum_length": null,
        "numeric_precision": 19,
        "numeric_scale": 4,
        "nullable": true,
        "business_key": false
      },
      {
        "column_name": "Amount_RCY",
        "data_type": "decimal",
        "character_maximum_length": null,
        "numeric_precision": 19,
        "numeric_scale": 4,
        "nullable": true,
        "business_key": false
      },
      {
        "column_name": "AmountDebit_RCY",
        "data_type": "decimal",
        "character_maximum_length": null,
        "numeric_precision": 19,
        "numeric_scale": 4,
        "nullable": true,
        "business_key": false
      },
      {
        "column_name": "AmountCredit_RCY",
        "data_type": "decimal",
        "character_maximum_length": null,
        "numeric_precision": 19,
        "numeric_scale": 4,
        "nullable": true,
        "business_key": false
      },
      {
        "column_name": "AmountDiscount_RCY",
        "data_type": "decimal",
        "character_maximum_length": null,
        "numeric_precision": 19,
        "numeric_scale": 4,
        "nullable": true,
        "business_key": false
      },
      {
        "column_name": "Amount_PCY",
        "data_type": "decimal",
        "character_maximum_length": null,
        "numeric_precision": 19,
        "numeric_scale": 4,
        "nullable": true,
        "business_key": false
      }
    ],
    "indexes": []
  },
  "load_procedures": [],
  "views": null,
  "queries": [
    {
      "name": "default",
      "select_file_path": "default.sql",
      "sequence": 200,
      "aliases": [
        {
          "name": "DVLE",
          "type": "primary"
        },
        {
          "name": "VLE",
          "type": "non_primary"
        }
      ]
    }
  ],
  "query_columns": [
    {
      "column_sequence": 1,
      "column_name": "StageID",
      "data_type_full": "int",
      "type": "incremental_key"
    },
    {
      "column_sequence": 2,
      "column_name": "CompanyID",
      "data_type_full": "int",
      "type": "system_key"
    },
    {
      "column_sequence": 3,
      "column_name": "DataConnectionID",
      "data_type_full": "int",
      "type": "system_key"
    },
    {
      "column_sequence": 4,
      "column_name": "PayToVendorCode",
      "data_type_full": "nvarchar(20)",
      "type": "dimension_business_key"
    },
    {
      "column_sequence": 5,
      "column_name": "BuyFromVendorCode",
      "data_type_full": "nvarchar(20)",
      "type": "dimension_business_key"
    },
    {
      "column_sequence": 6,
      "column_name": "VendorPostingGroupCode",
      "data_type_full": "nvarchar(10)",
      "type": "dimension_business_key"
    },
    {
      "column_sequence": 7,
      "column_name": "VendorInvoiceCode",
      "data_type_full": "int",
      "type": "dimension_business_key"
    },
    {
      "column_sequence": 8,
      "column_name": "SalespersonPurchaserCode",
      "data_type_full": "nvarchar(10)",
      "type": "dimension_business_key"
    },
    {
      "column_sequence": 9,
      "column_name": "PostingDate",
      "data_type_full": "datetime2",
      "type": "dimension_business_key"
    },
    {
      "column_sequence": 10,
      "column_name": "DueDate",
      "data_type_full": "datetime2",
      "type": "dimension_business_key"
    },
    {
      "column_sequence": 11,
      "column_name": "PaidDate",
      "data_type_full": "datetime2",
      "type": "dimension_business_key"
    },
    {
      "column_sequence": 12,
      "column_name": "CurrencyCode",
      "data_type_full": "nvarchar(10)",
      "type": "dimension_business_key"
    },
    {
      "column_sequence": 13,
      "column_name": "IsInvoiceCode",
      "data_type_full": "int",
      "type": "dimension_business_key"
    },
    {
      "column_sequence": 14,
      "column_name": "IsCreditCode",
      "data_type_full": "int",
      "type": "dimension_business_key"
    },
    {
      "column_sequence": 15,
      "column_name": "IsInvoice",
      "data_type_full": "int",
      "type": "attribute"
    },
    {
      "column_sequence": 16,
      "column_name": "IsCredit",
      "data_type_full": "int",
      "type": "attribute"
    },
    {
      "column_sequence": 17,
      "column_name": "FinancialDimension1ID",
      "data_type_full": "int",
      "type": "attribute"
    },
    {
      "column_sequence": 18,
      "column_name": "FinancialDimension2ID",
      "data_type_full": "int",
      "type": "attribute"
    },
    {
      "column_sequence": 19,
      "column_name": "FinancialDimension3ID",
      "data_type_full": "int",
      "type": "attribute"
    },
    {
      "column_sequence": 20,
      "column_name": "FinancialDimension4ID",
      "data_type_full": "int",
      "type": "attribute"
    },
    {
      "column_sequence": 21,
      "column_name": "FinancialDimension5ID",
      "data_type_full": "int",
      "type": "attribute"
    },
    {
      "column_sequence": 22,
      "column_name": "FinancialDimension6ID",
      "data_type_full": "int",
      "type": "attribute"
    },
    {
      "column_sequence": 23,
      "column_name": "FinancialDimension7ID",
      "data_type_full": "int",
      "type": "attribute"
    },
    {
      "column_sequence": 24,
      "column_name": "FinancialDimension8ID",
      "data_type_full": "int",
      "type": "attribute"
    },
    {
      "column_sequence": 25,
      "column_name": "Amount_LCY",
      "data_type_full": "decimal(19, 4)",
      "type": "measure"
    },
    {
      "column_sequence": 26,
      "column_name": "AmountDebit_LCY",
      "data_type_full": "decimal(19, 4)",
      "type": "measure"
    },
    {
      "column_sequence": 27,
      "column_name": "AmountCredit_LCY",
      "data_type_full": "decimal(19, 4)",
      "type": "measure"
    },
    {
      "column_sequence": 28,
      "column_name": "AmountDiscount_LCY",
      "data_type_full": "decimal(19, 4)",
      "type": "measure"
    },
    {
      "column_sequence": 29,
      "column_name": "Amount_RCY",
      "data_type_full": "decimal(19, 4)",
      "type": "measure"
    },
    {
      "column_sequence": 30,
      "column_name": "AmountDebit_RCY",
      "data_type_full": "decimal(19, 4)",
      "type": "measure"
    },
    {
      "column_sequence": 31,
      "column_name": "AmountCredit_RCY",
      "data_type_full": "decimal(19, 4)",
      "type": "measure"
    },
    {
      "column_sequence": 32,
      "column_name": "AmountDiscount_RCY",
      "data_type_full": "decimal(19, 4)",
      "type": "measure"
    },
    {
      "column_sequence": 33,
      "column_name": "Amount_PCY",
      "data_type_full": "decimal(19, 4)",
      "type": "measure"
    }
  ],
  "dimensions": [
    {
      "dimension": "VendorPostingGroup",
      "role_playing": "VendorPostingGroup",
      "dimension_joins": [
        {
          "delta_column": "CompanyID",
          "dimension_column": "CompanyID"
        },
        {
          "delta_column": "DataConnectionID",
          "dimension_column": "DataConnectionID"
        },
        {
          "delta_column": "VendorPostingGroupCode",
          "dimension_column": "VendorPostingGroupCode"
        }
      ]
    },
    {
      "dimension": "VendorInvoice",
      "role_playing": "VendorInvoice",
      "dimension_joins": [
        {
          "delta_column": "CompanyID",
          "dimension_column": "CompanyID"
        },
        {
          "delta_column": "DataConnectionID",
          "dimension_column": "DataConnectionID"
        },
        {
          "delta_column": "VendorInvoiceCode",
          "dimension_column": "VendorInvoiceCode"
        }
      ]
    },
    {
      "dimension": "Vendor",
      "role_playing": "PayToVendor",
      "dimension_joins": [
        {
          "delta_column": "CompanyID",
          "dimension_column": "CompanyID"
        },
        {
          "delta_column": "DataConnectionID",
          "dimension_column": "DataConnectionID"
        },
        {
          "delta_column": "PayToVendorCode",
          "dimension_column": "VendorCode"
        }
      ]
    },
    {
      "dimension": "Vendor",
      "role_playing": "BuyFromVendor",
      "dimension_joins": [
        {
          "delta_column": "CompanyID",
          "dimension_column": "CompanyID"
        },
        {
          "delta_column": "DataConnectionID",
          "dimension_column": "DataConnectionID"
        },
        {
          "delta_column": "BuyFromVendorCode",
          "dimension_column": "VendorCode"
        }
      ]
    },
    {
      "dimension": "YesNo",
      "role_playing": "IsInvoice",
      "dimension_joins": [
        {
          "delta_column": "IsInvoiceCode",
          "dimension_column": "YesNoCode"
        }
      ]
    },
    {
      "dimension": "YesNo",
      "role_playing": "IsCredit",
      "dimension_joins": [
        {
          "delta_column": "IsCreditCode",
          "dimension_column": "YesNoCode"
        }
      ]
    },
    {
      "dimension": "Date",
      "role_playing": "PostingDate",
      "dimension_joins": [
        {
          "delta_column": "PostingDate",
          "dimension_column": "Date"
        }
      ]
    },
    {
      "dimension": "Date",
      "role_playing": "DueDate",
      "dimension_joins": [
        {
          "delta_column": "DueDate",
          "dimension_column": "Date"
        }
      ]
    },
    {
      "dimension": "Date",
      "role_playing": "PaidDate",
      "dimension_joins": [
        {
          "delta_column": "PaidDate",
          "dimension_column": "Date"
        }
      ]
    },
    {
      "dimension": "Currency",
      "role_playing": "Currency",
      "dimension_joins": [
        {
          "delta_column": "CompanyID",
          "dimension_column": "CompanyID"
        },
        {
          "delta_column": "DataConnectionID",
          "dimension_column": "DataConnectionID"
        },
        {
          "delta_column": "CurrencyCode",
          "dimension_column": "CurrencyCode"
        }
      ]
    },
    {
      "dimension": "SalesPersonPurchaser",
      "role_playing": "SalesPersonPurchaser",
      "dimension_joins": [
        {
          "delta_column": "CompanyID",
          "dimension_column": "CompanyID"
        },
        {
          "delta_column": "DataConnectionID",
          "dimension_column": "DataConnectionID"
        },
        {
          "delta_column": "SalespersonPurchaserCode",
          "dimension_column": "SalespersonPurchaserCode"
        }
      ]
    }
  ],
  "load_type": 1,
  "manual_mode": false,
  "is_customized": false
}