{
  "name": "TransferShipmentQuantity_YTD_Variance%_TS",
  "description": " YTD Variance %",
  "expression": "DIVIDE ( [TransferShipmentQuantity_YTD_TS] - [TransferShipmentQuantity_LYTD_TS], [TransferShipmentQuantity_LYTD_TS] )",
  "formatString": "#,##0.0 %",
  "displayFolder": "Σ YTD Variance",
  "annotations": [
    {
      "name": "TabularEditor_TranslatedNames",
      "value": "{\"de-DE\":\"Umlag.-Ausgang Menge YTD Varianz %\",\"en-US\":\"Quantity YTD Variance %\",\"nl-NL\":\"Aantal YTD Variance %\"}"
    },
    {
      "name": "TabularEditor_TranslatedDescriptions",
      "value": "{\"de-DE\":\"Abteilungen/Lager/Historie/Gebuchte Belege/Geb. Umlag.-Ausgänge/Aktionen/Navigate\",\"en-US\":\"Departments/Inventory and Warehouse/History/Posted Transfer Shipments/Quantity YTD Variance %\",\"nl-NL\":\"Afdelingen/Voorraad en magazijn/Historie/Geboekte transferverzendingen/Aantal YTD Variance %\"}"
    },
    {
      "name": "TabularEditor_TranslatedDisplayFolders",
      "value": "{\"de-DE\":\"Σ YTD Varianz\",\"en-US\":\"Σ YTD Variance\",\"nl-NL\":\"Σ YTD Variance\"}"
    }
  ]
}