{
  "name": "factPOSPaymentEntry",
  "columns": [
    {
      "name": "CompanyID",
      "dataType": "int64",
      "isHidden": true,
      "sourceColumn": "CompanyID",
      "sourceProviderType": "int"
    },
    {
      "name": "StoreID",
      "dataType": "int64",
      "isHidden": true,
      "sourceColumn": "StoreID",
      "sourceProviderType": "int"
    },
    {
      "name": "POSTerminalID",
      "dataType": "int64",
      "isHidden": true,
      "sourceColumn": "POSTerminalID",
      "sourceProviderType": "int"
    },
    {
      "name": "StaffID",
      "dataType": "int64",
      "isHidden": true,
      "sourceColumn": "StaffID",
      "sourceProviderType": "int"
    },
    {
      "name": "DateID",
      "dataType": "int64",
      "isHidden": true,
      "sourceColumn": "DateID",
      "sourceProviderType": "int"
    },
    {
      "name": "TimeID",
      "dataType": "int64",
      "isHidden": true,
      "sourceColumn": "TimeID",
      "sourceProviderType": "int"
    },
    {
      "name": "TenderID",
      "dataType": "int64",
      "isHidden": true,
      "sourceColumn": "TenderID",
      "sourceProviderType": "int"
    },
    {
      "name": "PaidAmount_PCY",
      "dataType": "decimal",
      "isHidden": true,
      "sourceColumn": "PaidAmount_PCY",
      "sourceProviderType": "decimal",
      "annotations": [
        {
          "name": "TabularEditor_TranslatedNames",
          "value": "{\"en-US\":\"PaidAmount_PCY\",\"nl-NL\":\"PaidAmount_PCY\"}"
        }
      ]
    },
    {
      "name": "PaidAmountCurrency_PCY",
      "dataType": "decimal",
      "isHidden": true,
      "sourceColumn": "PaidAmountCurrency_PCY",
      "sourceProviderType": "decimal",
      "annotations": [
        {
          "name": "TabularEditor_TranslatedNames",
          "value": "{\"en-US\":\"PaidAmountCurrency_PCY\",\"nl-NL\":\"PaidAmountCurrency_PCY\"}"
        }
      ]
    },
    {
      "name": "ChangeAmount_PCY",
      "dataType": "decimal",
      "isHidden": true,
      "sourceColumn": "ChangeAmount_PCY",
      "sourceProviderType": "decimal",
      "annotations": [
        {
          "name": "TabularEditor_TranslatedNames",
          "value": "{\"en-US\":\"ChangeAmount_PCY\",\"nl-NL\":\"ChangeAmount_PCY\"}"
        }
      ]
    },
    {
      "name": "PaidAmount_RCY",
      "dataType": "decimal",
      "isHidden": true,
      "sourceColumn": "PaidAmount_RCY",
      "sourceProviderType": "decimal",
      "annotations": [
        {
          "name": "TabularEditor_TranslatedNames",
          "value": "{\"en-US\":\"PaidAmount_RCY\",\"nl-NL\":\"PaidAmount_RCY\"}"
        }
      ]
    },
    {
      "name": "PaidAmountCurrency_RCY",
      "dataType": "decimal",
      "isHidden": true,
      "sourceColumn": "PaidAmountCurrency_RCY",
      "sourceProviderType": "decimal",
      "annotations": [
        {
          "name": "TabularEditor_TranslatedNames",
          "value": "{\"en-US\":\"PaidAmountCurrency_RCY\",\"nl-NL\":\"PaidAmountCurrency_RCY\"}"
        }
      ]
    },
    {
      "name": "ChangeAmount_RCY",
      "dataType": "decimal",
      "isHidden": true,
      "sourceColumn": "ChangeAmount_RCY",
      "sourceProviderType": "decimal",
      "annotations": [
        {
          "name": "TabularEditor_TranslatedNames",
          "value": "{\"en-US\":\"ChangeAmount_RCY\",\"nl-NL\":\"ChangeAmount_RCY\"}"
        }
      ]
    }
  ],
  "partitions": [
    {
      "name": "POSPaymentEntry",
      "source": {
        "type": "query",
        "query": "SELECT * FROM tabular.factPOSPaymentEntry",
        "dataSource": "Birds"
      },
      "annotations": [
        {
          "name": "TabularEditor_TableSchema",
          "value": "{\"Name\":\"POSPaymentEntry\",\"Schema\":\"fact\",\"Database\":\"Birds-lsretail\",\"IncludedColumns\":[\"StageID\",\"CompanyID\",\"DataConnectionID\",\"ComponentExecutionID\",\"ExecutionFlag\",\"StoreID\",\"POSTerminalID\",\"StaffID\",\"DateID\",\"TimeID\",\"POSReceiptID\",\"TenderID\",\"PaidAmount_PCY\",\"PaidAmountCurrency_PCY\",\"ChangeAmount_PCY\",\"PaidAmount_RCY\",\"PaidAmountCurrency_RCY\",\"ChangeAmount_RCY\"],\"SelectAll\":true}"
        }
      ]
    }
  ],
  "annotations": [
    {
      "name": "Postfix",
      "value": "PPE"
    },
    {
      "name": "TabularEditor_TranslatedNames",
      "value": "{\"en-US\":\"Σ POS Payment Entry\",\"nl-NL\":\"Σ POS Betaalposten\"}"
    },
    {
      "name": "TabularEditor_Relationships",
      "value": [
        "[",
        "  {",
        "    \"fromTable\": \"factPOSPaymentEntry\",",
        "    \"fromColumn\": \"CompanyID\",",
        "    \"toTable\": \"Company\",",
        "    \"toColumn\": \"CompanyID\"",
        "  },",
        "  {",
        "    \"fromTable\": \"factPOSPaymentEntry\",",
        "    \"fromColumn\": \"DateID\",",
        "    \"toTable\": \"Date\",",
        "    \"toColumn\": \"DateID\"",
        "  },",
        "  {",
        "    \"fromTable\": \"factPOSPaymentEntry\",",
        "    \"fromColumn\": \"POSTerminalID\",",
        "    \"toTable\": \"POSTerminal\",",
        "    \"toColumn\": \"POSTerminalID\"",
        "  },",
        "  {",
        "    \"fromTable\": \"factPOSPaymentEntry\",",
        "    \"fromColumn\": \"StaffID\",",
        "    \"toTable\": \"Staff\",",
        "    \"toColumn\": \"StaffID\"",
        "  },",
        "  {",
        "    \"fromTable\": \"factPOSPaymentEntry\",",
        "    \"fromColumn\": \"StoreID\",",
        "    \"toTable\": \"Store\",",
        "    \"toColumn\": \"StoreID\"",
        "  },",
        "  {",
        "    \"fromTable\": \"factPOSPaymentEntry\",",
        "    \"fromColumn\": \"TenderID\",",
        "    \"toTable\": \"Tender\",",
        "    \"toColumn\": \"TenderID\"",
        "  },",
        "  {",
        "    \"fromTable\": \"factPOSPaymentEntry\",",
        "    \"fromColumn\": \"TimeID\",",
        "    \"toTable\": \"Time\",",
        "    \"toColumn\": \"TimeID\"",
        "  }",
        "]"
      ]
    }
  ]
}