{
  "name": "WarehouseQuantityPutAwayBase_LYMTD_WH",
  "description": " LYMTD",
  "expression": [
    "VAR LYMTD =",
    "    FILTER (",
    "        ALL ( 'Date' ),",
    "        'Date'[Date] <= MAX ( 'Date'[TDatePY] )",
    "            && 'Date'[CMonthNo] = MAX ( 'Date'[CMonthNo] )",
    "            && 'Date'[CYearNo]",
    "                = MAX ( 'Date'[CYearNo] ) - 1",
    "    )",
    "RETURN",
    "    CALCULATE ( [WarehouseQuantityPutAwayBase_WH], LYMTD )",
    ""
  ],
  "formatString": "#,##0.00",
  "displayFolder": "Σ LYMTD",
  "annotations": [
    {
      "name": "TabularEditor_TranslatedNames",
      "value": "{\"de-DE\":\"Lager Menge eingelagert (Basis) LYMTD\",\"en-US\":\"Quantity Put Away (Base) LYMTD\",\"nl-NL\":\"Opslagaantal (basis) LYMTD\"}"
    },
    {
      "name": "TabularEditor_TranslatedDescriptions",
      "value": "{\"de-DE\":\"Abteilungen/Lager/Archivieren/Historie/Lagerplatzposten\",\"en-US\":\"Departments/Inventory and Warehouse/History LYMTD\",\"nl-NL\":\"Afdelingen/Voorraad en magazijn/Historie LYMTD\"}"
    },
    {
      "name": "TabularEditor_TranslatedDisplayFolders",
      "value": "{\"de-DE\":\"Σ LYMTD\",\"en-US\":\"Σ LYMTD\",\"nl-NL\":\"Σ LYMTD\"}"
    }
  ]
}