{
  "name": "WarehouseCubage_YTD_Index_WH",
  "description": " YTD Index",
  "expression": "DIVIDE ( [WarehouseCubage_YTD_WH], [WarehouseCubage_LYTD_WH] ) * 100",
  "formatString": "#,##0.0",
  "displayFolder": "Σ YTD Variance",
  "annotations": [
    {
      "name": "TabularEditor_TranslatedNames",
      "value": "{\"de-DE\":\"Rauminhalt YTD Index\",\"en-US\":\"Cubage YTD Index\",\"nl-NL\":\"Kubieke inhoud YTD Index\"}"
    },
    {
      "name": "TabularEditor_TranslatedDescriptions",
      "value": "{\"de-DE\":\"Abteilungen > Lager > Lager > Inventurauftrag\",\"en-US\":\"Departments/Inventory and Warehouse/History YTD Index\",\"nl-NL\":\"Afdelingen/Voorraad en magazijn/Historie YTD Index\"}"
    },
    {
      "name": "TabularEditor_TranslatedDisplayFolders",
      "value": "{\"de-DE\":\"Σ YTD Varianz\",\"en-US\":\"Σ YTD Variance\",\"nl-NL\":\"Σ YTD Variance\"}"
    }
  ]
}