{
  "base_name": "FinancialDimensions",
  "category": "help",
  "database_object": {
    "table_identifier": "help.FinancialDimensions",
    "columns": [
      {
        "column_name": "ComponentExecutionId",
        "data_type": "int",
        "character_maximum_length": null,
        "numeric_precision": 10,
        "numeric_scale": 0,
        "nullable": false,
        "business_key": false
      },
      {
        "column_name": "CompanyId",
        "data_type": "int",
        "character_maximum_length": null,
        "numeric_precision": 10,
        "numeric_scale": 0,
        "nullable": false,
        "business_key": false
      },
      {
        "column_name": "DataConnectionId",
        "data_type": "int",
        "character_maximum_length": null,
        "numeric_precision": 10,
        "numeric_scale": 0,
        "nullable": false,
        "business_key": false
      },
      {
        "column_name": "FinancialDimensionsId",
        "data_type": "int",
        "character_maximum_length": null,
        "numeric_precision": 10,
        "numeric_scale": 0,
        "nullable": false,
        "business_key": false
      },
      {
        "column_name": "DimensionCode",
        "data_type": "nvarchar",
        "character_maximum_length": 30,
        "numeric_precision": null,
        "numeric_scale": null,
        "nullable": false,
        "business_key": false
      },
      {
        "column_name": "DimensionGlobalSequence",
        "data_type": "int",
        "character_maximum_length": null,
        "numeric_precision": 10,
        "numeric_scale": 0,
        "nullable": false,
        "business_key": false
      },
      {
        "column_name": "DimensionSetNo",
        "data_type": "int",
        "character_maximum_length": null,
        "numeric_precision": 10,
        "numeric_scale": 0,
        "nullable": false,
        "business_key": false
      },
      {
        "column_name": "DimensionValueNo",
        "data_type": "int",
        "character_maximum_length": null,
        "numeric_precision": 10,
        "numeric_scale": 0,
        "nullable": false,
        "business_key": false
      },
      {
        "column_name": "DimensionValueCode",
        "data_type": "nvarchar",
        "character_maximum_length": 30,
        "numeric_precision": null,
        "numeric_scale": null,
        "nullable": false,
        "business_key": false
      },
      {
        "column_name": "DimensionValueName",
        "data_type": "nvarchar",
        "character_maximum_length": 100,
        "numeric_precision": null,
        "numeric_scale": null,
        "nullable": false,
        "business_key": false
      },
      {
        "column_name": "DimensionValueCodeName",
        "data_type": "nvarchar",
        "character_maximum_length": 255,
        "numeric_precision": null,
        "numeric_scale": null,
        "nullable": false,
        "business_key": false
      }
    ],
    "indexes": []
  },
  "load_procedures": [
    {
      "sequence": 700,
      "identifier": "help.LoadFinancialDimensions"
    }
  ],
  "views": null,
  "queries": [],
  "query_columns": [],
  "dimensions": [],
  "load_type": 1,
  "manual_mode": true,
  "is_customized": false
}