{
  "name": "SalesBudgetAmount_RY_SB",
  "description": "Budgeted sales amount. NAV: Sales > Analysis & Reporting > Sales Budgets > Edit Budget > Budgeted Sales Amount",
  "expression": [
    "VAR RY0 =",
    "    FILTER (",
    "        ALL ( 'Date' ),",
    "        'Date'[DateID] <= MAX ( 'Date'[DateID] )",
    "            && 'Date'[Date] > MAX ( 'Date'[TDatePY] )",
    "    )",
    "RETURN",
    "    CALCULATE ( [SalesBudgetAmount_SB], RY0 )"
  ],
  "formatString": "#,##0.00",
  "displayFolder": "Σ RY",
  "annotations": [
    {
      "name": "TabularEditor_TranslatedNames",
      "value": "{\"de-DE\":\"Budgetierter Verkaufsbetrag RY\",\"en-US\":\"Budgeted Sales Amount RY\",\"nl-NL\":\"Budget omzet RY\"}"
    },
    {
      "name": "TabularEditor_TranslatedDescriptions",
      "value": "{\"de-DE\":\"Abteilungen/Verkauf & Marketing/Berichte und Analysen/Verkaufsbudgets/Budget Bearbeiten\",\"en-US\":\"Budgeted sales amount. NAV: Sales > Analysis & Reporting > Sales Budgets > Edit Budget > Budgeted Sales Amount\",\"nl-NL\":\"Totale omzet opgenomen in het budget. NAV: Verkoop > Analyse en Rapportage > Verkoopbudgetten > Overzicht verkoopbudget > Totale omzet (budget)\"}"
    },
    {
      "name": "TabularEditor_TranslatedDisplayFolders",
      "value": "{\"de-DE\":\"Σ RY\",\"en-US\":\"Σ RY\",\"nl-NL\":\"Σ RY\"}"
    }
  ]
}