{
  "name": "IsReturnSale_SPLY_Variance%_PTVE",
  "expression": "DIVIDE ( [IsReturnSale_PTVE] - [IsReturnSale_SPLY_PTVE], [IsReturnSale_SPLY_PTVE] )",
  "formatString": "#,##0.0 %",
  "displayFolder": "Σ SPLY Variance",
  "annotations": [
    {
      "name": "TabularEditor_TranslatedNames",
      "value": "{\"en-US\":\"IsReturnSale SPLY Variance %\",\"nl-NL\":\"IsReturnSale SPLY Variance %\"}"
    },
    {
      "name": "TabularEditor_TranslatedDisplayFolders",
      "value": "{\"en-US\":\"Σ SPLY Variance\",\"nl-NL\":\"Σ SPLY Variance\"}"
    }
  ]
}