{
  "name": "VoidedGrossAmountTotalDisc_PTVE",
  "expression": "SUM ( 'factPOSTransactionVoidedEntry'[VoidedGrossAmountTotalDisc_RCY] )",
  "formatString": "#,##0.00",
  "annotations": [
    {
      "name": "TabularEditor_TranslatedNames",
      "value": "{\"en-US\":\"VoidedGrossAmountTotalDisc_RCY\",\"nl-NL\":\"VoidedGrossAmountTotalDisc_RCY\"}"
    }
  ]
}