{
  "name": "VoidedCostAmount_PCY_PTVE",
  "expression": "SUM ( 'factPOSTransactionVoidedEntry'[VoidedCostAmount_PCY] )",
  "formatString": "#,##0.00",
  "displayFolder": "Σ Posted Currency",
  "annotations": [
    {
      "name": "TabularEditor_TranslatedNames",
      "value": "{\"en-US\":\"VoidedCostAmount_PCY\",\"nl-NL\":\"VoidedCostAmount_PCY\"}"
    }
  ]
}