{
  "name": "VoidedGrossAmountSpecialDisc_YTD_Variance_PTVE",
  "expression": "[VoidedGrossAmountSpecialDisc_YTD_PTVE] - [VoidedGrossAmountSpecialDisc_LYTD_PTVE]",
  "formatString": "#,##0.00",
  "displayFolder": "Σ YTD Variance",
  "annotations": [
    {
      "name": "TabularEditor_TranslatedNames",
      "value": "{\"en-US\":\"VoidedGrossAmountSpecialDisc_RCY YTD Variance\",\"nl-NL\":\"VoidedGrossAmountSpecialDisc_RCY YTD Variance\"}"
    },
    {
      "name": "TabularEditor_TranslatedDisplayFolders",
      "value": "{\"en-US\":\"Σ YTD Variance\",\"nl-NL\":\"Σ YTD Variance\"}"
    }
  ]
}