{
  "name": "VoidedGrossAmountPayment_YTD_Variance%_PTVE",
  "expression": "DIVIDE ( [VoidedGrossAmountPayment_YTD_PTVE] - [VoidedGrossAmountPayment_LYTD_PTVE], [VoidedGrossAmountPayment_LYTD_PTVE] )",
  "formatString": "#,##0.0 %",
  "displayFolder": "Σ YTD Variance",
  "annotations": [
    {
      "name": "TabularEditor_TranslatedNames",
      "value": "{\"en-US\":\"VoidedGrossAmountPayment_RCY YTD Variance %\",\"nl-NL\":\"VoidedGrossAmountPayment_RCY YTD Variance %\"}"
    },
    {
      "name": "TabularEditor_TranslatedDisplayFolders",
      "value": "{\"en-US\":\"Σ YTD Variance\",\"nl-NL\":\"Σ YTD Variance\"}"
    }
  ]
}