{
  "name": "VoidedDiscountAmount_YTD_Index_PTVE",
  "expression": "DIVIDE ( [VoidedDiscountAmount_YTD_PTVE], [VoidedDiscountAmount_LYTD_PTVE] ) * 100",
  "formatString": "#,##0.0",
  "displayFolder": "Σ YTD Variance",
  "annotations": [
    {
      "name": "TabularEditor_TranslatedNames",
      "value": "{\"en-US\":\"VoidedDiscountAmount_RCY YTD Index\",\"nl-NL\":\"VoidedDiscountAmount_RCY YTD Index\"}"
    },
    {
      "name": "TabularEditor_TranslatedDisplayFolders",
      "value": "{\"en-US\":\"Σ YTD Variance\",\"nl-NL\":\"Σ YTD Variance\"}"
    }
  ]
}