{
  "name": "VoidedVatAmount_PTVE",
  "expression": "SUM ( 'factPOSTransactionVoidedEntry'[VoidedVatAmount_RCY] )",
  "formatString": "#,##0.00",
  "annotations": [
    {
      "name": "TabularEditor_TranslatedNames",
      "value": "{\"en-US\":\"VoidedVatAmount_RCY\",\"nl-NL\":\"VoidedVatAmount_RCY\"}"
    }
  ]
}