{
  "name": "VoidedVatAmount_YTD_Variance%_PTVE",
  "expression": "DIVIDE ( [VoidedVatAmount_YTD_PTVE] - [VoidedVatAmount_LYTD_PTVE], [VoidedVatAmount_LYTD_PTVE] )",
  "formatString": "#,##0.0 %",
  "displayFolder": "Σ YTD Variance",
  "annotations": [
    {
      "name": "TabularEditor_TranslatedNames",
      "value": "{\"en-US\":\"VoidedVatAmount_RCY YTD Variance %\",\"nl-NL\":\"VoidedVatAmount_RCY YTD Variance %\"}"
    },
    {
      "name": "TabularEditor_TranslatedDisplayFolders",
      "value": "{\"en-US\":\"Σ YTD Variance\",\"nl-NL\":\"Σ YTD Variance\"}"
    }
  ]
}