{
  "name": "factTransferShipment",
  "columns": [
    {
      "name": "CompanyID",
      "dataType": "int64",
      "isHidden": true,
      "sourceColumn": "CompanyID",
      "annotations": [
        {
          "name": "TabularEditor_TranslatedNames",
          "value": "{\"de-DE\":\"CompanyID\"}"
        },
        {
          "name": "TabularEditor_TranslatedDescriptions",
          "value": "{\"de-DE\":\"Kennung für Company\",\"en-US\":\"System column for technical purposes\",\"nl-NL\":\"Systeemkolom technische doeleinden\"}"
        }
      ]
    },
    {
      "name": "FinancialDimension1ID",
      "dataType": "int64",
      "isHidden": true,
      "sourceColumn": "FinancialDimension1ID",
      "annotations": [
        {
          "name": "TabularEditor_TranslatedNames",
          "value": "{\"de-DE\":\"FinancialDimension1ID\"}"
        },
        {
          "name": "TabularEditor_TranslatedDescriptions",
          "value": "{\"de-DE\":\"Kennung für Financialdimension1\",\"en-US\":\"System column for technical purposes\",\"nl-NL\":\"Systeemkolom technische doeleinden\"}"
        }
      ]
    },
    {
      "name": "FinancialDimension2ID",
      "dataType": "int64",
      "isHidden": true,
      "sourceColumn": "FinancialDimension2ID",
      "annotations": [
        {
          "name": "TabularEditor_TranslatedNames",
          "value": "{\"de-DE\":\"FinancialDimension2ID\"}"
        },
        {
          "name": "TabularEditor_TranslatedDescriptions",
          "value": "{\"de-DE\":\"Kennung für Financialdimension2\",\"en-US\":\"System column for technical purposes\",\"nl-NL\":\"Systeemkolom technische doeleinden\"}"
        }
      ]
    },
    {
      "name": "FinancialDimension3ID",
      "dataType": "int64",
      "isHidden": true,
      "sourceColumn": "FinancialDimension3ID",
      "annotations": [
        {
          "name": "TabularEditor_TranslatedNames",
          "value": "{\"de-DE\":\"FinancialDimension3ID\"}"
        },
        {
          "name": "TabularEditor_TranslatedDescriptions",
          "value": "{\"de-DE\":\"Kennung für Financialdimension3\",\"en-US\":\"System column for technical purposes\",\"nl-NL\":\"Systeemkolom technische doeleinden\"}"
        }
      ]
    },
    {
      "name": "FinancialDimension4ID",
      "dataType": "int64",
      "isHidden": true,
      "sourceColumn": "FinancialDimension4ID",
      "annotations": [
        {
          "name": "TabularEditor_TranslatedNames",
          "value": "{\"de-DE\":\"FinancialDimension4ID\"}"
        },
        {
          "name": "TabularEditor_TranslatedDescriptions",
          "value": "{\"de-DE\":\"Kennung für Financialdimension4\",\"en-US\":\"System column for technical purposes\",\"nl-NL\":\"Systeemkolom technische doeleinden\"}"
        }
      ]
    },
    {
      "name": "FinancialDimension5ID",
      "dataType": "int64",
      "isHidden": true,
      "sourceColumn": "FinancialDimension5ID",
      "annotations": [
        {
          "name": "TabularEditor_TranslatedNames",
          "value": "{\"de-DE\":\"FinancialDimension5ID\"}"
        },
        {
          "name": "TabularEditor_TranslatedDescriptions",
          "value": "{\"de-DE\":\"Kennung für Financialdimension5\",\"en-US\":\"System column for technical purposes\",\"nl-NL\":\"Systeemkolom technische doeleinden\"}"
        }
      ]
    },
    {
      "name": "FinancialDimension6ID",
      "dataType": "int64",
      "isHidden": true,
      "sourceColumn": "FinancialDimension6ID",
      "annotations": [
        {
          "name": "TabularEditor_TranslatedNames",
          "value": "{\"de-DE\":\"FinancialDimension6ID\"}"
        },
        {
          "name": "TabularEditor_TranslatedDescriptions",
          "value": "{\"de-DE\":\"Kennung für Financialdimension6\",\"en-US\":\"System column for technical purposes\",\"nl-NL\":\"Systeemkolom technische doeleinden\"}"
        }
      ]
    },
    {
      "name": "FinancialDimension7ID",
      "dataType": "int64",
      "isHidden": true,
      "sourceColumn": "FinancialDimension7ID",
      "annotations": [
        {
          "name": "TabularEditor_TranslatedNames",
          "value": "{\"de-DE\":\"FinancialDimension7ID\"}"
        },
        {
          "name": "TabularEditor_TranslatedDescriptions",
          "value": "{\"de-DE\":\"Kennung für Financialdimension7\",\"en-US\":\"System column for technical purposes\",\"nl-NL\":\"Systeemkolom technische doeleinden\"}"
        }
      ]
    },
    {
      "name": "FinancialDimension8ID",
      "dataType": "int64",
      "isHidden": true,
      "sourceColumn": "FinancialDimension8ID",
      "annotations": [
        {
          "name": "TabularEditor_TranslatedNames",
          "value": "{\"de-DE\":\"FinancialDimension8ID\"}"
        },
        {
          "name": "TabularEditor_TranslatedDescriptions",
          "value": "{\"de-DE\":\"Kennung für Financialdimension8\",\"en-US\":\"System column for technical purposes\",\"nl-NL\":\"Systeemkolom technische doeleinden\"}"
        }
      ]
    },
    {
      "name": "DocumentTransferID",
      "dataType": "int64",
      "isHidden": true,
      "sourceColumn": "DocumentTransferID",
      "annotations": [
        {
          "name": "TabularEditor_TranslatedNames",
          "value": "{\"de-DE\":\"DocumentTransferID\"}"
        },
        {
          "name": "TabularEditor_TranslatedDescriptions",
          "value": "{\"de-DE\":\"Kennung für DocumentTransfer\",\"en-US\":\"System column for technical purposes\",\"nl-NL\":\"Systeemkolom technische doeleinden\"}"
        }
      ]
    },
    {
      "name": "TransferFromLocationID",
      "dataType": "int64",
      "isHidden": true,
      "sourceColumn": "TransferFromLocationID",
      "annotations": [
        {
          "name": "TabularEditor_TranslatedNames",
          "value": "{\"de-DE\":\"TransferFromLocationID\"}"
        },
        {
          "name": "TabularEditor_TranslatedDescriptions",
          "value": "{\"de-DE\":\"Kennung für TransferFromLocation\",\"en-US\":\"System column for technical purposes\",\"nl-NL\":\"Systeemkolom technische doeleinden\"}"
        }
      ]
    },
    {
      "name": "TransferToLocationID",
      "dataType": "int64",
      "isHidden": true,
      "sourceColumn": "TransferToLocationID",
      "annotations": [
        {
          "name": "TabularEditor_TranslatedNames",
          "value": "{\"de-DE\":\"TransferToLocationID\"}"
        },
        {
          "name": "TabularEditor_TranslatedDescriptions",
          "value": "{\"de-DE\":\"Kennung für TransferToLocation\",\"en-US\":\"System column for technical purposes\",\"nl-NL\":\"Systeemkolom technische doeleinden\"}"
        }
      ]
    },
    {
      "name": "InTransitLocationID",
      "dataType": "int64",
      "isHidden": true,
      "sourceColumn": "InTransitLocationID",
      "annotations": [
        {
          "name": "TabularEditor_TranslatedNames",
          "value": "{\"de-DE\":\"InTransitLocationID\"}"
        },
        {
          "name": "TabularEditor_TranslatedDescriptions",
          "value": "{\"de-DE\":\"Kennung für InTransitLocation\",\"en-US\":\"System column for technical purposes\",\"nl-NL\":\"Systeemkolom technische doeleinden\"}"
        }
      ]
    },
    {
      "name": "PostingDateID",
      "dataType": "int64",
      "isHidden": true,
      "sourceColumn": "PostingDateID",
      "annotations": [
        {
          "name": "TabularEditor_TranslatedNames",
          "value": "{\"de-DE\":\"PostingDatumID\"}"
        },
        {
          "name": "TabularEditor_TranslatedDescriptions",
          "value": "{\"de-DE\":\"Kennung für PostingDatum\",\"en-US\":\"System column for technical purposes\",\"nl-NL\":\"Systeemkolom technische doeleinden\"}"
        }
      ]
    },
    {
      "name": "ShipmentDateID",
      "dataType": "int64",
      "isHidden": true,
      "sourceColumn": "ShipmentDateID",
      "annotations": [
        {
          "name": "TabularEditor_TranslatedNames",
          "value": "{\"de-DE\":\"ShipmentDatumID\"}"
        },
        {
          "name": "TabularEditor_TranslatedDescriptions",
          "value": "{\"de-DE\":\"Kennung für ShipmentDatum\",\"en-US\":\"System column for technical purposes\",\"nl-NL\":\"Systeemkolom technische doeleinden\"}"
        }
      ]
    },
    {
      "name": "ReceiptDateID",
      "dataType": "int64",
      "isHidden": true,
      "sourceColumn": "ReceiptDateID",
      "annotations": [
        {
          "name": "TabularEditor_TranslatedNames",
          "value": "{\"de-DE\":\"ReceiptDatumID\"}"
        },
        {
          "name": "TabularEditor_TranslatedDescriptions",
          "value": "{\"de-DE\":\"Kennung für ReceiptDatum\",\"en-US\":\"System column for technical purposes\",\"nl-NL\":\"Systeemkolom technische doeleinden\"}"
        }
      ]
    },
    {
      "name": "ShipmentMethodID",
      "dataType": "int64",
      "isHidden": true,
      "sourceColumn": "ShipmentMethodID",
      "annotations": [
        {
          "name": "TabularEditor_TranslatedNames",
          "value": "{\"de-DE\":\"ShipmentMethodID\"}"
        },
        {
          "name": "TabularEditor_TranslatedDescriptions",
          "value": "{\"de-DE\":\"Kennung für Shipmentmethod\",\"en-US\":\"System column for technical purposes\",\"nl-NL\":\"Systeemkolom technische doeleinden\"}"
        }
      ]
    },
    {
      "name": "TransportMethodID",
      "dataType": "int64",
      "isHidden": true,
      "sourceColumn": "TransportMethodID",
      "annotations": [
        {
          "name": "TabularEditor_TranslatedNames",
          "value": "{\"de-DE\":\"TransportMethodID\"}"
        },
        {
          "name": "TabularEditor_TranslatedDescriptions",
          "value": "{\"de-DE\":\"Kennung für Transportmethod\",\"en-US\":\"System column for technical purposes\",\"nl-NL\":\"Systeemkolom technische doeleinden\"}"
        }
      ]
    },
    {
      "name": "ItemID",
      "dataType": "int64",
      "isHidden": true,
      "sourceColumn": "ItemID",
      "annotations": [
        {
          "name": "TabularEditor_TranslatedNames",
          "value": "{\"de-DE\":\"ItemID\"}"
        },
        {
          "name": "TabularEditor_TranslatedDescriptions",
          "value": "{\"de-DE\":\"Kennung für Item\",\"en-US\":\"System column for technical purposes\",\"nl-NL\":\"Systeemkolom technische doeleinden\"}"
        }
      ]
    },
    {
      "name": "ItemVariantID",
      "dataType": "int64",
      "isHidden": true,
      "sourceColumn": "ItemVariantID",
      "annotations": [
        {
          "name": "TabularEditor_TranslatedNames",
          "value": "{\"de-DE\":\"ItemVariantID\"}"
        },
        {
          "name": "TabularEditor_TranslatedDescriptions",
          "value": "{\"de-DE\":\"Kennung für ItemVariant\",\"en-US\":\"System column for technical purposes\",\"nl-NL\":\"Systeemkolom technische doeleinden\"}"
        }
      ]
    },
    {
      "name": "InventoryPostingGroupID",
      "dataType": "int64",
      "isHidden": true,
      "sourceColumn": "InventoryPostingGroupID",
      "annotations": [
        {
          "name": "TabularEditor_TranslatedNames",
          "value": "{\"de-DE\":\"InventoryPostingGroupID\"}"
        },
        {
          "name": "TabularEditor_TranslatedDescriptions",
          "value": "{\"de-DE\":\"Kennung für IventoryPostingGroup\",\"en-US\":\"System column for technical purposes\",\"nl-NL\":\"Systeemkolom technische doeleinden\"}"
        }
      ]
    },
    {
      "name": "TransferFromBinID",
      "dataType": "int64",
      "isHidden": true,
      "sourceColumn": "TransferFromBinID",
      "annotations": [
        {
          "name": "TabularEditor_TranslatedNames",
          "value": "{\"de-DE\":\"TransferFromBinID\"}"
        },
        {
          "name": "TabularEditor_TranslatedDescriptions",
          "value": "{\"de-DE\":\"Kennung für TransferToBin\",\"en-US\":\"System column for technical purposes\",\"nl-NL\":\"Systeemkolom technische doeleinden\"}"
        }
      ]
    },
    {
      "name": "TransferShipmentQuantity",
      "dataType": "decimal",
      "isHidden": true,
      "sourceColumn": "TransferShipmentQuantity",
      "annotations": [
        {
          "name": "TabularEditor_TranslatedNames",
          "value": "{\"de-DE\":\"Umlag.-Ausgang Menge\"}"
        },
        {
          "name": "TabularEditor_TranslatedDescriptions",
          "value": "{\"de-DE\":\"Abteilungen/Lager/Historie/Gebuchte Belege/Geb. Umlag.-Ausgänge/Aktionen/Navigate\",\"en-US\":\"Departments/Inventory and Warehouse/History/Posted Transfer Shipments\",\"nl-NL\":\"Afdelingen/Voorraad en magazijn/Historie/Geboekte transferverzendingen\"}"
        }
      ]
    },
    {
      "name": "TransferShipmentQuantityBase",
      "dataType": "decimal",
      "isHidden": true,
      "sourceColumn": "TransferShipmentQuantityBase",
      "annotations": [
        {
          "name": "TabularEditor_TranslatedNames",
          "value": "{\"de-DE\":\"Umlag.-Ausgang Menge (Basis)\"}"
        },
        {
          "name": "TabularEditor_TranslatedDescriptions",
          "value": "{\"de-DE\":\"Abteilungen/Lager/Historie/Gebuchte Belege/Geb. Umlag.-Ausgänge/Aktionen/Navigate\",\"en-US\":\"Departments/Inventory and Warehouse/History/Posted Transfer Shipments\",\"nl-NL\":\"Afdelingen/Voorraad en magazijn/Historie/Geboekte transferverzendingen\"}"
        }
      ]
    },
    {
      "name": "DateID",
      "dataType": "int64",
      "isHidden": true,
      "sourceColumn": "DateID"
    },
    {
      "name": "TransferOrderID",
      "dataType": "int64",
      "isHidden": true,
      "sourceColumn": "TransferOrderID"
    }
  ],
  "partitions": [
    {
      "name": "factTransferShipment",
      "source": {
        "type": "query",
        "query": [
          "SELECT",
          "\t*",
          "FROM",
          "\t[tabular].[factTransferShipment]"
        ],
        "dataSource": "Birds"
      }
    }
  ],
  "annotations": [
    {
      "name": "Postfix",
      "value": "TS"
    },
    {
      "name": "TabularEditor_TranslatedNames",
      "value": "{\"de-DE\":\"Σ Lagerkommissionierungen\",\"en-US\":\"Σ Transfer Shipment\",\"nl-NL\":\"Σ Transferverzending\"}"
    },
    {
      "name": "TabularEditor_TranslatedDescriptions",
      "value": "{\"en-US\":\"Departments/Inventory and Warehouse/History/Posted Transfer Shipments\",\"nl-NL\":\"Afdelingen/Voorraad en magazijn/Historie/Geboekte transferverzendingen\"}"
    },
    {
      "name": "TabularEditor_Relationships",
      "value": [
        "[",
        "  {",
        "    \"fromTable\": \"factTransferShipment\",",
        "    \"fromColumn\": \"CompanyID\",",
        "    \"toTable\": \"Company\",",
        "    \"toColumn\": \"CompanyID\"",
        "  },",
        "  {",
        "    \"fromTable\": \"factTransferShipment\",",
        "    \"fromColumn\": \"DateID\",",
        "    \"toTable\": \"Date\",",
        "    \"toColumn\": \"DateID\",",
        "    \"isActive\": false",
        "  },",
        "  {",
        "    \"fromTable\": \"factTransferShipment\",",
        "    \"fromColumn\": \"DocumentTransferID\",",
        "    \"toTable\": \"DocumentTransfer\",",
        "    \"toColumn\": \"DocumentTransferID\"",
        "  },",
        "  {",
        "    \"fromTable\": \"factTransferShipment\",",
        "    \"fromColumn\": \"FinancialDimension1ID\",",
        "    \"toTable\": \"FinancialDimension1\",",
        "    \"toColumn\": \"FinancialDimension1ID\"",
        "  },",
        "  {",
        "    \"fromTable\": \"factTransferShipment\",",
        "    \"fromColumn\": \"FinancialDimension2ID\",",
        "    \"toTable\": \"FinancialDimension2\",",
        "    \"toColumn\": \"FinancialDimension2ID\"",
        "  },",
        "  {",
        "    \"fromTable\": \"factTransferShipment\",",
        "    \"fromColumn\": \"FinancialDimension3ID\",",
        "    \"toTable\": \"FinancialDimension3\",",
        "    \"toColumn\": \"FinancialDimension3ID\"",
        "  },",
        "  {",
        "    \"fromTable\": \"factTransferShipment\",",
        "    \"fromColumn\": \"FinancialDimension4ID\",",
        "    \"toTable\": \"FinancialDimension4\",",
        "    \"toColumn\": \"FinancialDimension4ID\"",
        "  },",
        "  {",
        "    \"fromTable\": \"factTransferShipment\",",
        "    \"fromColumn\": \"FinancialDimension5ID\",",
        "    \"toTable\": \"FinancialDimension5\",",
        "    \"toColumn\": \"FinancialDimension5ID\"",
        "  },",
        "  {",
        "    \"fromTable\": \"factTransferShipment\",",
        "    \"fromColumn\": \"FinancialDimension6ID\",",
        "    \"toTable\": \"FinancialDimension6\",",
        "    \"toColumn\": \"FinancialDimension6ID\"",
        "  },",
        "  {",
        "    \"fromTable\": \"factTransferShipment\",",
        "    \"fromColumn\": \"FinancialDimension7ID\",",
        "    \"toTable\": \"FinancialDimension7\",",
        "    \"toColumn\": \"FinancialDimension7ID\"",
        "  },",
        "  {",
        "    \"fromTable\": \"factTransferShipment\",",
        "    \"fromColumn\": \"FinancialDimension8ID\",",
        "    \"toTable\": \"FinancialDimension8\",",
        "    \"toColumn\": \"FinancialDimension8ID\"",
        "  },",
        "  {",
        "    \"fromTable\": \"factTransferShipment\",",
        "    \"fromColumn\": \"InTransitLocationID\",",
        "    \"toTable\": \"InTransitLocation\",",
        "    \"toColumn\": \"LocationID\"",
        "  },",
        "  {",
        "    \"fromTable\": \"factTransferShipment\",",
        "    \"fromColumn\": \"InTransitLocationID\",",
        "    \"toTable\": \"Location\",",
        "    \"toColumn\": \"LocationID\"",
        "  },",
        "  {",
        "    \"fromTable\": \"factTransferShipment\",",
        "    \"fromColumn\": \"InventoryPostingGroupID\",",
        "    \"toTable\": \"InventoryPostingGroup\",",
        "    \"toColumn\": \"InventoryPostingGroupID\"",
        "  },",
        "  {",
        "    \"fromTable\": \"factTransferShipment\",",
        "    \"fromColumn\": \"ItemID\",",
        "    \"toTable\": \"Item\",",
        "    \"toColumn\": \"ItemID\"",
        "  },",
        "  {",
        "    \"fromTable\": \"factTransferShipment\",",
        "    \"fromColumn\": \"ItemVariantID\",",
        "    \"toTable\": \"ItemVariant\",",
        "    \"toColumn\": \"ItemVariantID\"",
        "  },",
        "  {",
        "    \"fromTable\": \"factTransferShipment\",",
        "    \"fromColumn\": \"PostingDateID\",",
        "    \"toTable\": \"Date\",",
        "    \"toColumn\": \"DateID\",",
        "    \"isActive\": false",
        "  },",
        "  {",
        "    \"fromTable\": \"factTransferShipment\",",
        "    \"fromColumn\": \"PostingDateID\",",
        "    \"toTable\": \"PostingDate\",",
        "    \"toColumn\": \"DateID\"",
        "  },",
        "  {",
        "    \"fromTable\": \"factTransferShipment\",",
        "    \"fromColumn\": \"ReceiptDateID\",",
        "    \"toTable\": \"Date\",",
        "    \"toColumn\": \"DateID\",",
        "    \"isActive\": false",
        "  },",
        "  {",
        "    \"fromTable\": \"factTransferShipment\",",
        "    \"fromColumn\": \"ReceiptDateID\",",
        "    \"toTable\": \"ReceiptDate\",",
        "    \"toColumn\": \"DateID\"",
        "  },",
        "  {",
        "    \"fromTable\": \"factTransferShipment\",",
        "    \"fromColumn\": \"ShipmentDateID\",",
        "    \"toTable\": \"Date\",",
        "    \"toColumn\": \"DateID\"",
        "  },",
        "  {",
        "    \"fromTable\": \"factTransferShipment\",",
        "    \"fromColumn\": \"ShipmentDateID\",",
        "    \"toTable\": \"ShipmentDate\",",
        "    \"toColumn\": \"DateID\"",
        "  },",
        "  {",
        "    \"fromTable\": \"factTransferShipment\",",
        "    \"fromColumn\": \"ShipmentMethodID\",",
        "    \"toTable\": \"ShipmentMethod\",",
        "    \"toColumn\": \"ShipmentMethodID\"",
        "  },",
        "  {",
        "    \"fromTable\": \"factTransferShipment\",",
        "    \"fromColumn\": \"TransferFromBinID\",",
        "    \"toTable\": \"Bin\",",
        "    \"toColumn\": \"BinID\"",
        "  },",
        "  {",
        "    \"fromTable\": \"factTransferShipment\",",
        "    \"fromColumn\": \"TransferFromBinID\",",
        "    \"toTable\": \"TransferFromBin\",",
        "    \"toColumn\": \"BinID\"",
        "  },",
        "  {",
        "    \"fromTable\": \"factTransferShipment\",",
        "    \"fromColumn\": \"TransferFromLocationID\",",
        "    \"toTable\": \"Location\",",
        "    \"toColumn\": \"LocationID\",",
        "    \"isActive\": false",
        "  },",
        "  {",
        "    \"fromTable\": \"factTransferShipment\",",
        "    \"fromColumn\": \"TransferFromLocationID\",",
        "    \"toTable\": \"TransferFromLocation\",",
        "    \"toColumn\": \"LocationID\"",
        "  },",
        "  {",
        "    \"fromTable\": \"factTransferShipment\",",
        "    \"fromColumn\": \"TransferOrderID\",",
        "    \"toTable\": \"TransferOrder\",",
        "    \"toColumn\": \"TransferOrderID\"",
        "  },",
        "  {",
        "    \"fromTable\": \"factTransferShipment\",",
        "    \"fromColumn\": \"TransferToLocationID\",",
        "    \"toTable\": \"Location\",",
        "    \"toColumn\": \"LocationID\",",
        "    \"isActive\": false",
        "  },",
        "  {",
        "    \"fromTable\": \"factTransferShipment\",",
        "    \"fromColumn\": \"TransferToLocationID\",",
        "    \"toTable\": \"TransferToLocation\",",
        "    \"toColumn\": \"LocationID\"",
        "  },",
        "  {",
        "    \"fromTable\": \"factTransferShipment\",",
        "    \"fromColumn\": \"TransportMethodID\",",
        "    \"toTable\": \"TransportMethod\",",
        "    \"toColumn\": \"TransportMethodID\"",
        "  }",
        "]"
      ]
    }
  ]
}