{
  "name": "ReturnReason",
  "columns": [
    {
      "name": "ReturnReasonID",
      "dataType": "int64",
      "description": "Unique key for dimension Return Reason",
      "isHidden": true,
      "sourceColumn": "ReturnReasonID",
      "sourceProviderType": "int",
      "annotations": [
        {
          "name": "TabularEditor_TranslatedNames",
          "value": "{\"de-DE\":\"ReturnReasonID\",\"en-US\":\"ReturnReasonID\",\"nl-NL\":\"ReturnReasonID\"}"
        },
        {
          "name": "TabularEditor_TranslatedDescriptions",
          "value": "{\"de-DE\":\"Kennung für ReturnReason\",\"en-US\":\"Unique key for dimension Return Reason\",\"nl-NL\":\"Unieke sleutel voor de de dimensie Retourreden\"}"
        }
      ]
    },
    {
      "name": "ReturnReasonCode",
      "dataType": "string",
      "description": "Functional Management > Purchase > General > Return Reasons List > Code ",
      "isHidden": true,
      "sourceColumn": "ReturnReasonCode",
      "sourceProviderType": "nvarchar",
      "annotations": [
        {
          "name": "TabularEditor_TranslatedNames",
          "value": "{\"de-DE\":\" Reklamationsgründe Nr.\",\"en-US\":\"Return Reason Code\",\"nl-NL\":\"Retourredencode\"}"
        },
        {
          "name": "TabularEditor_TranslatedDescriptions",
          "value": "{\"de-DE\":\"Abteilungen/Verkauf & Marketing/Auftragsabwicklung/Reklamationsgründe\",\"en-US\":\"Functional Management > Purchase > General > Return Reasons List > Code \",\"nl-NL\":\"Functioneel beheer > Inkoop > Algemeen > Retourredenen > Code\"}"
        }
      ]
    },
    {
      "name": "ReturnReasonDescription",
      "dataType": "string",
      "description": "Functional Management > Purchase > General > Return Reasons List > Description",
      "isHidden": true,
      "sourceColumn": "ReturnReasonDescription",
      "sourceProviderType": "nvarchar",
      "annotations": [
        {
          "name": "TabularEditor_TranslatedNames",
          "value": "{\"de-DE\":\" Reklamationsgründe Beschreibung\",\"en-US\":\"Return Reason Desc\",\"nl-NL\":\"Retourredenomschrijving\"}"
        },
        {
          "name": "TabularEditor_TranslatedDescriptions",
          "value": "{\"de-DE\":\"Abteilungen/Verkauf & Marketing/Auftragsabwicklung/Reklamationsgründe\",\"en-US\":\"Functional Management > Purchase > General > Return Reasons List > Description\",\"nl-NL\":\"Functioneel beheer > Inkoop > Algemeen > Retourredenen > Omschrijving\"}"
        }
      ]
    },
    {
      "name": "ReturnReasonCodeDescription",
      "dataType": "string",
      "description": "Functional Management > Purchase > General > Return Reasons List > Code and Description",
      "sourceColumn": "ReturnReasonCodeDescription",
      "sourceProviderType": "nvarchar",
      "annotations": [
        {
          "name": "TabularEditor_TranslatedNames",
          "value": "{\"de-DE\":\"Reklamationsgründe Nr. Beschreibung\",\"en-US\":\"Return Reason\",\"nl-NL\":\"Retourreden\"}"
        },
        {
          "name": "TabularEditor_TranslatedDescriptions",
          "value": "{\"de-DE\":\"Abteilungen/Verkauf & Marketing/Auftragsabwicklung/Reklamationsgründe\",\"en-US\":\"Functional Management > Purchase > General > Return Reasons List > Code and Description\",\"nl-NL\":\"Functioneel beheer > Inkoop > Algemeen > Retourredenen > Code en Omschrijving\"}"
        }
      ]
    }
  ],
  "partitions": [
    {
      "name": "ReturnReason",
      "source": {
        "type": "query",
        "query": "SELECT * FROM tabular.ReturnReason",
        "dataSource": "Birds"
      },
      "annotations": [
        {
          "name": "TabularEditor_TableSchema",
          "value": "{\"Name\":\"ReturnReason\",\"Schema\":\"dim\",\"Database\":\"Birds\",\"IncludedColumns\":[\"ReturnReasonID\",\"StageID\",\"CompanyID\",\"DataConnectionID\",\"ExecutionTimestamp\",\"ComponentExecutionID\",\"ReturnReasonCode\",\"ReturnReasonDescription\",\"ReturnReasonCodeDescription\"],\"SelectAll\":true}"
        }
      ]
    }
  ],
  "annotations": [
    {
      "name": "TabularEditor_TranslatedNames",
      "value": "{\"de-DE\":\"Reklamationsgründe\",\"en-US\":\"Return Reason\",\"nl-NL\":\"Retourreden\"}"
    },
    {
      "name": "TabularEditor_Relationships",
      "value": "[]"
    }
  ]
}