{
  "base_name": "GeneralLedger",
  "category": "fact",
  "database_object": {
    "table_identifier": "fact.GeneralLedger",
    "columns": [
      {
        "column_name": "ExecutionTimestamp",
        "data_type": "timestamp",
        "character_maximum_length": null,
        "numeric_precision": null,
        "numeric_scale": null,
        "nullable": false,
        "business_key": false
      },
      {
        "column_name": "ComponentExecutionID",
        "data_type": "int",
        "character_maximum_length": null,
        "numeric_precision": 10,
        "numeric_scale": 0,
        "nullable": false,
        "business_key": false
      },
      {
        "column_name": "ExecutionFlag",
        "data_type": "nvarchar",
        "character_maximum_length": 10,
        "numeric_precision": null,
        "numeric_scale": null,
        "nullable": false,
        "business_key": false
      },
      {
        "column_name": "IsPeriodClosing",
        "data_type": "int",
        "character_maximum_length": null,
        "numeric_precision": 10,
        "numeric_scale": 0,
        "nullable": true,
        "business_key": false
      },
      {
        "column_name": "IsBalance",
        "data_type": "int",
        "character_maximum_length": null,
        "numeric_precision": 10,
        "numeric_scale": 0,
        "nullable": true,
        "business_key": false
      },
      {
        "column_name": "IsCredit",
        "data_type": "int",
        "character_maximum_length": null,
        "numeric_precision": 10,
        "numeric_scale": 0,
        "nullable": true,
        "business_key": false
      },
      {
        "column_name": "FinancialDimension1ID",
        "data_type": "int",
        "character_maximum_length": null,
        "numeric_precision": 10,
        "numeric_scale": 0,
        "nullable": true,
        "business_key": false
      },
      {
        "column_name": "FinancialDimension2ID",
        "data_type": "int",
        "character_maximum_length": null,
        "numeric_precision": 10,
        "numeric_scale": 0,
        "nullable": true,
        "business_key": false
      },
      {
        "column_name": "FinancialDimension3ID",
        "data_type": "int",
        "character_maximum_length": null,
        "numeric_precision": 10,
        "numeric_scale": 0,
        "nullable": true,
        "business_key": false
      },
      {
        "column_name": "FinancialDimension4ID",
        "data_type": "int",
        "character_maximum_length": null,
        "numeric_precision": 10,
        "numeric_scale": 0,
        "nullable": true,
        "business_key": false
      },
      {
        "column_name": "FinancialDimension5ID",
        "data_type": "int",
        "character_maximum_length": null,
        "numeric_precision": 10,
        "numeric_scale": 0,
        "nullable": true,
        "business_key": false
      },
      {
        "column_name": "FinancialDimension6ID",
        "data_type": "int",
        "character_maximum_length": null,
        "numeric_precision": 10,
        "numeric_scale": 0,
        "nullable": true,
        "business_key": false
      },
      {
        "column_name": "FinancialDimension7ID",
        "data_type": "int",
        "character_maximum_length": null,
        "numeric_precision": 10,
        "numeric_scale": 0,
        "nullable": true,
        "business_key": false
      },
      {
        "column_name": "FinancialDimension8ID",
        "data_type": "int",
        "character_maximum_length": null,
        "numeric_precision": 10,
        "numeric_scale": 0,
        "nullable": true,
        "business_key": false
      },
      {
        "column_name": "StageID",
        "data_type": "int",
        "character_maximum_length": null,
        "numeric_precision": 10,
        "numeric_scale": 0,
        "nullable": false,
        "business_key": false
      },
      {
        "column_name": "CompanyID",
        "data_type": "int",
        "character_maximum_length": null,
        "numeric_precision": 10,
        "numeric_scale": 0,
        "nullable": false,
        "business_key": false
      },
      {
        "column_name": "DataConnectionID",
        "data_type": "int",
        "character_maximum_length": null,
        "numeric_precision": 10,
        "numeric_scale": 0,
        "nullable": false,
        "business_key": false
      },
      {
        "column_name": "PostingDateID",
        "data_type": "int",
        "character_maximum_length": null,
        "numeric_precision": 10,
        "numeric_scale": 0,
        "nullable": false,
        "business_key": false
      },
      {
        "column_name": "DocumentDateID",
        "data_type": "int",
        "character_maximum_length": null,
        "numeric_precision": 10,
        "numeric_scale": 0,
        "nullable": false,
        "business_key": false
      },
      {
        "column_name": "BusinessUnitID",
        "data_type": "int",
        "character_maximum_length": null,
        "numeric_precision": 10,
        "numeric_scale": 0,
        "nullable": false,
        "business_key": false
      },
      {
        "column_name": "CustomerID",
        "data_type": "int",
        "character_maximum_length": null,
        "numeric_precision": 10,
        "numeric_scale": 0,
        "nullable": false,
        "business_key": false
      },
      {
        "column_name": "VendorID",
        "data_type": "int",
        "character_maximum_length": null,
        "numeric_precision": 10,
        "numeric_scale": 0,
        "nullable": false,
        "business_key": false
      },
      {
        "column_name": "FixedAssetID",
        "data_type": "int",
        "character_maximum_length": null,
        "numeric_precision": 10,
        "numeric_scale": 0,
        "nullable": false,
        "business_key": false
      },
      {
        "column_name": "GeneralBusinessPostingGroupID",
        "data_type": "int",
        "character_maximum_length": null,
        "numeric_precision": 10,
        "numeric_scale": 0,
        "nullable": false,
        "business_key": false
      },
      {
        "column_name": "GeneralProductPostingGroupID",
        "data_type": "int",
        "character_maximum_length": null,
        "numeric_precision": 10,
        "numeric_scale": 0,
        "nullable": false,
        "business_key": false
      },
      {
        "column_name": "DocumentGeneralLedgerID",
        "data_type": "int",
        "character_maximum_length": null,
        "numeric_precision": 10,
        "numeric_scale": 0,
        "nullable": false,
        "business_key": false
      },
      {
        "column_name": "SourceID",
        "data_type": "int",
        "character_maximum_length": null,
        "numeric_precision": 10,
        "numeric_scale": 0,
        "nullable": false,
        "business_key": false
      },
      {
        "column_name": "IsBalanceID",
        "data_type": "int",
        "character_maximum_length": null,
        "numeric_precision": 10,
        "numeric_scale": 0,
        "nullable": false,
        "business_key": false
      },
      {
        "column_name": "IsCreditID",
        "data_type": "int",
        "character_maximum_length": null,
        "numeric_precision": 10,
        "numeric_scale": 0,
        "nullable": false,
        "business_key": false
      },
      {
        "column_name": "IsPeriodClosingID",
        "data_type": "int",
        "character_maximum_length": null,
        "numeric_precision": 10,
        "numeric_scale": 0,
        "nullable": false,
        "business_key": false
      },
      {
        "column_name": "GeneralLedgerAccountID",
        "data_type": "int",
        "character_maximum_length": null,
        "numeric_precision": 10,
        "numeric_scale": 0,
        "nullable": false,
        "business_key": false
      },
      {
        "column_name": "ReasonID",
        "data_type": "int",
        "character_maximum_length": null,
        "numeric_precision": 10,
        "numeric_scale": 0,
        "nullable": false,
        "business_key": false
      },
      {
        "column_name": "Amount_LCY",
        "data_type": "decimal",
        "character_maximum_length": null,
        "numeric_precision": 19,
        "numeric_scale": 4,
        "nullable": true,
        "business_key": false
      },
      {
        "column_name": "AmountDebit_LCY",
        "data_type": "decimal",
        "character_maximum_length": null,
        "numeric_precision": 19,
        "numeric_scale": 4,
        "nullable": true,
        "business_key": false
      },
      {
        "column_name": "AmountCredit_LCY",
        "data_type": "decimal",
        "character_maximum_length": null,
        "numeric_precision": 19,
        "numeric_scale": 4,
        "nullable": true,
        "business_key": false
      },
      {
        "column_name": "AmountVAT_LCY",
        "data_type": "decimal",
        "character_maximum_length": null,
        "numeric_precision": 19,
        "numeric_scale": 4,
        "nullable": true,
        "business_key": false
      },
      {
        "column_name": "Amount_RCY",
        "data_type": "decimal",
        "character_maximum_length": null,
        "numeric_precision": 19,
        "numeric_scale": 4,
        "nullable": true,
        "business_key": false
      },
      {
        "column_name": "AmountDebit_RCY",
        "data_type": "decimal",
        "character_maximum_length": null,
        "numeric_precision": 19,
        "numeric_scale": 4,
        "nullable": true,
        "business_key": false
      },
      {
        "column_name": "AmountCredit_RCY",
        "data_type": "decimal",
        "character_maximum_length": null,
        "numeric_precision": 19,
        "numeric_scale": 4,
        "nullable": true,
        "business_key": false
      }
    ],
    "indexes": []
  },
  "load_procedures": [],
  "views": null,
  "queries": [
    {
      "name": "default",
      "select_file_path": "default.sql",
      "sequence": 200,
      "aliases": [
        {
          "name": "GLE",
          "type": "primary"
        },
        {
          "name": "GLA",
          "type": "non_primary"
        }
      ]
    }
  ],
  "query_columns": [
    {
      "column_sequence": 1,
      "column_name": "StageID",
      "data_type_full": "int",
      "type": "incremental_key"
    },
    {
      "column_sequence": 2,
      "column_name": "CompanyID",
      "data_type_full": "int",
      "type": "system_key"
    },
    {
      "column_sequence": 3,
      "column_name": "DataConnectionID",
      "data_type_full": "int",
      "type": "system_key"
    },
    {
      "column_sequence": 4,
      "column_name": "EntryNo",
      "data_type_full": "int",
      "type": "dimension_business_key"
    },
    {
      "column_sequence": 5,
      "column_name": "GeneralLedgerAccountCode",
      "data_type_full": "nvarchar(20)",
      "type": "dimension_business_key"
    },
    {
      "column_sequence": 6,
      "column_name": "DocumentTypeCode",
      "data_type_full": "int",
      "type": "dimension_business_key"
    },
    {
      "column_sequence": 7,
      "column_name": "DocumentCode",
      "data_type_full": "nvarchar(20)",
      "type": "dimension_business_key"
    },
    {
      "column_sequence": 8,
      "column_name": "DocumentDate",
      "data_type_full": "datetime2",
      "type": "dimension_business_key"
    },
    {
      "column_sequence": 9,
      "column_name": "SourceTypeCode",
      "data_type_full": "int",
      "type": "dimension_business_key"
    },
    {
      "column_sequence": 10,
      "column_name": "SourceCode",
      "data_type_full": "nvarchar(10)",
      "type": "dimension_business_key"
    },
    {
      "column_sequence": 11,
      "column_name": "ReasonCode",
      "data_type_full": "nvarchar(10)",
      "type": "dimension_business_key"
    },
    {
      "column_sequence": 12,
      "column_name": "GeneralPostingTypeCode",
      "data_type_full": "int",
      "type": "dimension_business_key"
    },
    {
      "column_sequence": 13,
      "column_name": "GeneralBusinessPostingGroupCode",
      "data_type_full": "nvarchar(10)",
      "type": "dimension_business_key"
    },
    {
      "column_sequence": 14,
      "column_name": "GeneralProductPostingGroupCode",
      "data_type_full": "nvarchar(10)",
      "type": "dimension_business_key"
    },
    {
      "column_sequence": 15,
      "column_name": "BusinessUnitCode",
      "data_type_full": "nvarchar(10)",
      "type": "dimension_business_key"
    },
    {
      "column_sequence": 16,
      "column_name": "PostingDate",
      "data_type_full": "datetime2",
      "type": "dimension_business_key"
    },
    {
      "column_sequence": 17,
      "column_name": "IsPeriodClosingCode",
      "data_type_full": "int",
      "type": "dimension_business_key"
    },
    {
      "column_sequence": 18,
      "column_name": "IsBalanceCode",
      "data_type_full": "int",
      "type": "dimension_business_key"
    },
    {
      "column_sequence": 19,
      "column_name": "IsCreditCode",
      "data_type_full": "int",
      "type": "dimension_business_key"
    },
    {
      "column_sequence": 20,
      "column_name": "IsPeriodClosing",
      "data_type_full": "int",
      "type": "attribute"
    },
    {
      "column_sequence": 21,
      "column_name": "IsBalance",
      "data_type_full": "int",
      "type": "attribute"
    },
    {
      "column_sequence": 22,
      "column_name": "IsCredit",
      "data_type_full": "int",
      "type": "attribute"
    },
    {
      "column_sequence": 23,
      "column_name": "FinancialDimension1ID",
      "data_type_full": "int",
      "type": "attribute"
    },
    {
      "column_sequence": 24,
      "column_name": "FinancialDimension2ID",
      "data_type_full": "int",
      "type": "attribute"
    },
    {
      "column_sequence": 25,
      "column_name": "FinancialDimension3ID",
      "data_type_full": "int",
      "type": "attribute"
    },
    {
      "column_sequence": 26,
      "column_name": "FinancialDimension4ID",
      "data_type_full": "int",
      "type": "attribute"
    },
    {
      "column_sequence": 27,
      "column_name": "FinancialDimension5ID",
      "data_type_full": "int",
      "type": "attribute"
    },
    {
      "column_sequence": 28,
      "column_name": "FinancialDimension6ID",
      "data_type_full": "int",
      "type": "attribute"
    },
    {
      "column_sequence": 29,
      "column_name": "FinancialDimension7ID",
      "data_type_full": "int",
      "type": "attribute"
    },
    {
      "column_sequence": 30,
      "column_name": "FinancialDimension8ID",
      "data_type_full": "int",
      "type": "attribute"
    },
    {
      "column_sequence": 31,
      "column_name": "CustomerCode",
      "data_type_full": "nvarchar(20)",
      "type": "dimension_business_key"
    },
    {
      "column_sequence": 32,
      "column_name": "VendorCode",
      "data_type_full": "nvarchar(20)",
      "type": "dimension_business_key"
    },
    {
      "column_sequence": 33,
      "column_name": "FixedAssetCode",
      "data_type_full": "nvarchar(20)",
      "type": "dimension_business_key"
    },
    {
      "column_sequence": 34,
      "column_name": "Amount_LCY",
      "data_type_full": "decimal(19, 4)",
      "type": "measure"
    },
    {
      "column_sequence": 35,
      "column_name": "AmountDebit_LCY",
      "data_type_full": "decimal(19, 4)",
      "type": "measure"
    },
    {
      "column_sequence": 36,
      "column_name": "AmountCredit_LCY",
      "data_type_full": "decimal(19, 4)",
      "type": "measure"
    },
    {
      "column_sequence": 37,
      "column_name": "AmountVAT_LCY",
      "data_type_full": "decimal(19, 4)",
      "type": "measure"
    },
    {
      "column_sequence": 38,
      "column_name": "Amount_RCY",
      "data_type_full": "decimal(19, 4)",
      "type": "measure"
    },
    {
      "column_sequence": 39,
      "column_name": "AmountDebit_RCY",
      "data_type_full": "decimal(19, 4)",
      "type": "measure"
    },
    {
      "column_sequence": 40,
      "column_name": "AmountCredit_RCY",
      "data_type_full": "decimal(19, 4)",
      "type": "measure"
    }
  ],
  "dimensions": [
    {
      "dimension": "Date",
      "role_playing": "PostingDate",
      "dimension_joins": [
        {
          "delta_column": "PostingDate",
          "dimension_column": "Date"
        }
      ]
    },
    {
      "dimension": "Date",
      "role_playing": "DocumentDate",
      "dimension_joins": [
        {
          "delta_column": "DocumentDate",
          "dimension_column": "Date"
        }
      ]
    },
    {
      "dimension": "BusinessUnit",
      "role_playing": "BusinessUnit",
      "dimension_joins": [
        {
          "delta_column": "CompanyID",
          "dimension_column": "CompanyID"
        },
        {
          "delta_column": "DataConnectionID",
          "dimension_column": "DataConnectionID"
        },
        {
          "delta_column": "BusinessUnitCode",
          "dimension_column": "BusinessUnitCode"
        }
      ]
    },
    {
      "dimension": "Customer",
      "role_playing": "Customer",
      "dimension_joins": [
        {
          "delta_column": "CompanyID",
          "dimension_column": "CompanyID"
        },
        {
          "delta_column": "DataConnectionID",
          "dimension_column": "DataConnectionID"
        },
        {
          "delta_column": "CustomerCode",
          "dimension_column": "CustomerCode"
        }
      ]
    },
    {
      "dimension": "Vendor",
      "role_playing": "Vendor",
      "dimension_joins": [
        {
          "delta_column": "CompanyID",
          "dimension_column": "CompanyID"
        },
        {
          "delta_column": "DataConnectionID",
          "dimension_column": "DataConnectionID"
        },
        {
          "delta_column": "VendorCode",
          "dimension_column": "VendorCode"
        }
      ]
    },
    {
      "dimension": "FixedAsset",
      "role_playing": "FixedAsset",
      "dimension_joins": [
        {
          "delta_column": "CompanyID",
          "dimension_column": "CompanyID"
        },
        {
          "delta_column": "DataConnectionID",
          "dimension_column": "DataConnectionID"
        },
        {
          "delta_column": "FixedAssetCode",
          "dimension_column": "FixedAssetCode"
        }
      ]
    },
    {
      "dimension": "GeneralBusinessPostingGroup",
      "role_playing": "GeneralBusinessPostingGroup",
      "dimension_joins": [
        {
          "delta_column": "CompanyID",
          "dimension_column": "CompanyID"
        },
        {
          "delta_column": "DataConnectionID",
          "dimension_column": "DataConnectionID"
        },
        {
          "delta_column": "GeneralBusinessPostingGroupCode",
          "dimension_column": "GeneralBusinessPostingGroupCode"
        }
      ]
    },
    {
      "dimension": "GeneralProductPostingGroup",
      "role_playing": "GeneralProductPostingGroup",
      "dimension_joins": [
        {
          "delta_column": "CompanyID",
          "dimension_column": "CompanyID"
        },
        {
          "delta_column": "DataConnectionID",
          "dimension_column": "DataConnectionID"
        },
        {
          "delta_column": "GeneralProductPostingGroupCode",
          "dimension_column": "GeneralProductPostingGroupCode"
        }
      ]
    },
    {
      "dimension": "DocumentGeneralLedger",
      "role_playing": "DocumentGeneralLedger",
      "dimension_joins": [
        {
          "delta_column": "CompanyID",
          "dimension_column": "CompanyID"
        },
        {
          "delta_column": "DataConnectionID",
          "dimension_column": "DataConnectionID"
        },
        {
          "delta_column": "EntryNo",
          "dimension_column": "EntryNo"
        },
        {
          "delta_column": "DocumentCode",
          "dimension_column": "DocumentCode"
        },
        {
          "delta_column": "PostingDate",
          "dimension_column": "PostingDate"
        },
        {
          "delta_column": "GeneralPostingTypeCode",
          "dimension_column": "GeneralPostingTypeCode"
        },
        {
          "delta_column": "DocumentTypeCode",
          "dimension_column": "DocumentTypeCode"
        },
        {
          "delta_column": "DocumentDate",
          "dimension_column": "DocumentDate"
        }
      ]
    },
    {
      "dimension": "Source",
      "role_playing": "Source",
      "dimension_joins": [
        {
          "delta_column": "CompanyID",
          "dimension_column": "CompanyID"
        },
        {
          "delta_column": "DataConnectionID",
          "dimension_column": "DataConnectionID"
        },
        {
          "delta_column": "SourceCode",
          "dimension_column": "SourceCode"
        }
      ]
    },
    {
      "dimension": "YesNo",
      "role_playing": "IsBalance",
      "dimension_joins": [
        {
          "delta_column": "IsBalanceCode",
          "dimension_column": "YesNoCode"
        }
      ]
    },
    {
      "dimension": "YesNo",
      "role_playing": "IsCredit",
      "dimension_joins": [
        {
          "delta_column": "IsCredit",
          "dimension_column": "YesNoCode"
        }
      ]
    },
    {
      "dimension": "YesNo",
      "role_playing": "IsPeriodClosing",
      "dimension_joins": [
        {
          "delta_column": "IsPeriodClosing",
          "dimension_column": "YesNoCode"
        }
      ]
    },
    {
      "dimension": "GeneralLedgerAccount",
      "role_playing": "GeneralLedgerAccount",
      "dimension_joins": [
        {
          "delta_column": "CompanyID",
          "dimension_column": "CompanyID"
        },
        {
          "delta_column": "DataConnectionID",
          "dimension_column": "DataConnectionID"
        },
        {
          "delta_column": "GeneralLedgerAccountCode",
          "dimension_column": "GeneralLedgerAccountCode"
        }
      ]
    },
    {
      "dimension": "Reason",
      "role_playing": "Reason",
      "dimension_joins": [
        {
          "delta_column": "CompanyID",
          "dimension_column": "CompanyID"
        },
        {
          "delta_column": "DataConnectionID",
          "dimension_column": "DataConnectionID"
        },
        {
          "delta_column": "ReasonCode",
          "dimension_column": "ReasonCode"
        }
      ]
    }
  ],
  "load_type": 1,
  "manual_mode": false,
  "is_customized": false
}