{
  "name": "TransferToLocation",
  "columns": [
    {
      "type": "calculatedTableColumn",
      "name": "LocationID",
      "dataType": "int64",
      "isNameInferred": true,
      "isDataTypeInferred": true,
      "description": "Unique identifier for dimension Location",
      "isHidden": true,
      "sourceColumn": "Location[LocationID]",
      "annotations": [
        {
          "name": "TabularEditor_TranslatedNames",
          "value": "{\"de-DE\":\"LocationID\",\"en-US\":\"LocationID\",\"nl-NL\":\"Locationid\"}"
        },
        {
          "name": "TabularEditor_TranslatedDescriptions",
          "value": "{\"de-DE\":\"Kennung für Location\",\"en-US\":\"Unique identifier for dimension Location\",\"nl-NL\":\"Unieke sleutel voor dimensie Locatie\"}"
        }
      ]
    },
    {
      "type": "calculatedTableColumn",
      "name": "LocationCode",
      "dataType": "string",
      "isNameInferred": true,
      "isDataTypeInferred": true,
      "description": "Functional Management > Inventory and Warehouse > General > Locations > General > Code",
      "isHidden": true,
      "sourceColumn": "Location[LocationCode]",
      "annotations": [
        {
          "name": "TabularEditor_TranslatedNames",
          "value": "{\"de-DE\":\"Lagerort Code\",\"en-US\":\"Location Code\",\"nl-NL\":\"Locatiecode\"}"
        },
        {
          "name": "TabularEditor_TranslatedDescriptions",
          "value": "{\"de-DE\":\"Abteilungen/Lager/Verwaltung/Einrichtung/Allgemein\",\"en-US\":\"Functional Management > Inventory and Warehouse > General > Locations > General > Code\",\"nl-NL\":\"Functioneel beheer > Voorraad en magazijn > Algemeen > Vestiging > Algemeen > Code\"}"
        }
      ]
    },
    {
      "type": "calculatedTableColumn",
      "name": "LocationDescription",
      "dataType": "string",
      "isNameInferred": true,
      "isDataTypeInferred": true,
      "description": "Functional Management > Inventory and Warehouse > General > Locations > General > Name",
      "isHidden": true,
      "sourceColumn": "Location[LocationDescription]",
      "annotations": [
        {
          "name": "TabularEditor_TranslatedNames",
          "value": "{\"de-DE\":\"Lagerot Beschreibung\",\"en-US\":\"Location Name\",\"nl-NL\":\"Vestigingsnaam\"}"
        },
        {
          "name": "TabularEditor_TranslatedDescriptions",
          "value": "{\"de-DE\":\"Abteilungen/Lager/Verwaltung/Einrichtung/AdresseundeKontakt\",\"en-US\":\"Functional Management > Inventory and Warehouse > General > Locations > General > Name\",\"nl-NL\":\"Functioneel beheer > Voorraad en magazijn > Algemeen > Vestiging > Algemeen > Naam\"}"
        }
      ]
    },
    {
      "type": "calculatedTableColumn",
      "name": "LocationCodeDescription",
      "dataType": "string",
      "isNameInferred": true,
      "isDataTypeInferred": true,
      "description": "Functional Management > Inventory and Warehouse > General > Locations > General > Code and Name",
      "sourceColumn": "Location[LocationCodeDescription]",
      "annotations": [
        {
          "name": "TabularEditor_TranslatedNames",
          "value": "{\"de-DE\":\"Lagerort Code und Name\",\"en-US\":\"Location \",\"nl-NL\":\"Locatie\"}"
        },
        {
          "name": "TabularEditor_TranslatedDescriptions",
          "value": "{\"de-DE\":\"Abteilungen/Lager/Verwaltung/Einrichtung/Allgemein\",\"en-US\":\"Functional Management > Inventory and Warehouse > General > Locations > General > Code and Name\",\"nl-NL\":\"Functioneel beheer > Voorraad en magazijn > Algemeen > Vestiging > Algemeen > Code en Naam\"}"
        }
      ]
    },
    {
      "type": "calculatedTableColumn",
      "name": "LocationCountryCode",
      "dataType": "string",
      "isNameInferred": true,
      "isDataTypeInferred": true,
      "description": "Functional Management > Inventory and Warehouse > General > Locations > Address & Contact > Country/Region Code",
      "isHidden": true,
      "sourceColumn": "Location[LocationCountryCode]",
      "dataCategory": "Country",
      "annotations": [
        {
          "name": "TabularEditor_TranslatedNames",
          "value": "{\"de-DE\":\"Lagerort Länder/Regions Code\",\"en-US\":\"Location Country Code\",\"nl-NL\":\"Landcode\"}"
        },
        {
          "name": "TabularEditor_TranslatedDescriptions",
          "value": "{\"de-DE\":\"Abteilungen/Lager/Verwaltung/Einrichtung/AdresseundeKontakt\",\"en-US\":\"Functional Management > Inventory and Warehouse > General > Locations > Address & Contact > Country/Region Code\",\"nl-NL\":\"Functioneel beheer > Voorraad en magazijn > Algemeen > Vestiging > Adres en contactpersoon > Land-/Regiocode\"}"
        }
      ]
    },
    {
      "type": "calculatedTableColumn",
      "name": "LocationCountryName",
      "dataType": "string",
      "isNameInferred": true,
      "isDataTypeInferred": true,
      "description": "Functional Management > Inventory and Warehouse > General > Locations > Address & Contact > Country/Region Code",
      "isHidden": true,
      "sourceColumn": "Location[LocationCountryName]",
      "dataCategory": "Country",
      "annotations": [
        {
          "name": "TabularEditor_TranslatedNames",
          "value": "{\"de-DE\":\"Lagerort Länder/Regions Name\",\"en-US\":\"Location Country Name\",\"nl-NL\":\"Landnaam\"}"
        },
        {
          "name": "TabularEditor_TranslatedDescriptions",
          "value": "{\"de-DE\":\"Abteilungen/Lager/Verwaltung/Einrichtung/AdresseundeKontakt\",\"en-US\":\"Functional Management > Inventory and Warehouse > General > Locations > Address & Contact > Country/Region Code\",\"nl-NL\":\"Functioneel beheer > Voorraad en magazijn > Algemeen > Vestiging > Adres en contactpersoon > Land-/Regiocode\"}"
        }
      ]
    },
    {
      "type": "calculatedTableColumn",
      "name": "LocationCountryCodeName",
      "dataType": "string",
      "isNameInferred": true,
      "isDataTypeInferred": true,
      "description": "Functional Management > Inventory and Warehouse > General > Locations > Address & Contact > Country/Region Code",
      "sourceColumn": "Location[LocationCountryCodeName]",
      "dataCategory": "Country",
      "annotations": [
        {
          "name": "TabularEditor_TranslatedNames",
          "value": "{\"de-DE\":\"Lagerort Länder/Regions Code Name\",\"en-US\":\"Location Country\",\"nl-NL\":\"Land\"}"
        },
        {
          "name": "TabularEditor_TranslatedDescriptions",
          "value": "{\"de-DE\":\"Abteilungen/Lager/Verwaltung/Einrichtung/AdresseundeKontakt\",\"en-US\":\"Functional Management > Inventory and Warehouse > General > Locations > Address & Contact > Country/Region Code\",\"nl-NL\":\"Functioneel beheer > Voorraad en magazijn > Algemeen > Vestiging > Adres en contactpersoon > Land-/Regiocode\"}"
        }
      ]
    },
    {
      "type": "calculatedTableColumn",
      "name": "LocationPostCode",
      "dataType": "string",
      "isNameInferred": true,
      "isDataTypeInferred": true,
      "description": "Functional Management > Inventory and Warehouse > General > Locations > General > Post Code",
      "sourceColumn": "Location[LocationPostCode]",
      "dataCategory": "PostalCode",
      "annotations": [
        {
          "name": "TabularEditor_TranslatedNames",
          "value": "{\"de-DE\":\"Postleitzahl Code\",\"en-US\":\"Post Code\",\"nl-NL\":\"Postcode\"}"
        },
        {
          "name": "TabularEditor_TranslatedDescriptions",
          "value": "{\"de-DE\":\"Abteilungen/Lager/Verwaltung/Einrichtung/AdresseundeKontakt\",\"en-US\":\"Functional Management > Inventory and Warehouse > General > Locations > General > Post Code\",\"nl-NL\":\"Functioneel beheer > Voorraad en magazijn > Algemeen > Vestiging > Algemeen > Postcode\"}"
        }
      ]
    },
    {
      "type": "calculatedTableColumn",
      "name": "LocationAddress",
      "dataType": "string",
      "isNameInferred": true,
      "isDataTypeInferred": true,
      "description": "Functional Management > Inventory and Warehouse > General > Locations > General > Address",
      "sourceColumn": "Location[LocationAddress]",
      "dataCategory": "Address",
      "annotations": [
        {
          "name": "TabularEditor_TranslatedNames",
          "value": "{\"de-DE\":\"Adresse\",\"en-US\":\"Address\",\"nl-NL\":\"Adres\"}"
        },
        {
          "name": "TabularEditor_TranslatedDescriptions",
          "value": "{\"de-DE\":\"Abteilungen/Lager/Verwaltung/Einrichtung/AdresseundeKontakt\",\"en-US\":\"Functional Management > Inventory and Warehouse > General > Locations > General > Address\",\"nl-NL\":\"Functioneel beheer > Voorraad en magazijn > Algemeen > Vestiging > Algemeen > Adres\"}"
        }
      ]
    },
    {
      "type": "calculatedTableColumn",
      "name": "LocationCity",
      "dataType": "string",
      "isNameInferred": true,
      "isDataTypeInferred": true,
      "description": "Functional Management > Inventory and Warehouse > General > Locations > General > City",
      "sourceColumn": "Location[LocationCity]",
      "dataCategory": "City",
      "annotations": [
        {
          "name": "TabularEditor_TranslatedNames",
          "value": "{\"de-DE\":\"Ort\",\"en-US\":\"City\",\"nl-NL\":\"Plaats\"}"
        },
        {
          "name": "TabularEditor_TranslatedDescriptions",
          "value": "{\"de-DE\":\"Abteilungen/Lager/Verwaltung/Einrichtung/AdresseundeKontakt\",\"en-US\":\"Functional Management > Inventory and Warehouse > General > Locations > General > City\",\"nl-NL\":\"Functioneel beheer > Voorraad en magazijn > Algemeen > Vestiging > Algemeen > Plaats\"}"
        }
      ]
    }
  ],
  "partitions": [
    {
      "name": "Calculated Table",
      "source": {
        "type": "calculated",
        "expression": "ALLNOBLANKROW ( 'Location' )"
      }
    }
  ],
  "annotations": [
    {
      "name": "TabularEditor_TranslatedNames",
      "value": "{\"de-DE\":\"Für Lagerplatz\",\"en-US\":\"Transfer-To Location\",\"nl-NL\":\"Transferlocatie (in)\"}"
    },
    {
      "name": "TabularEditor_Relationships",
      "value": "[]"
    }
  ]
}