{
  "name": "Amount_PCY_AP",
  "description": "Departments/Purchase/Basic Data/Vendors > Ledger Entries > Navigate > Detailed Vendor Ledger Entries > Amount",
  "expression": "SUM ( 'factAccountsPayable'[Amount_PCY] )",
  "formatString": "#,##0.00",
  "displayFolder": "Σ Posted Currency",
  "annotations": [
    {
      "name": "TabularEditor_TranslatedNames",
      "value": "{\"de-DE\":\"Betrag\",\"en-US\":\"Amount\",\"nl-NL\":\"Bedrag\"}"
    },
    {
      "name": "TabularEditor_TranslatedDescriptions",
      "value": "{\"de-DE\":\"Gebuchte Belege/Debitorenposten/Zeilen\",\"en-US\":\"Departments/Purchase/Basic Data/Vendors > Ledger Entries > Navigate > Detailed Vendor Ledger Entries > Amount\",\"nl-NL\":\"Afdelingen/Inkoop/Stamgegevens/Leveranciers > Posten > Navigeren > Gedetail. Leverancierspost > Bedrag\"}"
    },
    {
      "name": "TabularEditor_TranslatedDisplayFolders",
      "value": "{\"de-DE\":\"Σ Gebuchte Währung\",\"en-US\":\"Σ Posted Currency\",\"nl-NL\":\"Σ Geboekte Valuta\"}"
    }
  ]
}