{
  "name": "OpenInvoiceAmountDueDaysAgeGroup_AP",
  "description": "Departments/Purchase/Basic Data/Vendors > Ledger Entries > Navigate > Detailed Vendor Ledger Entries > Outstanding Invoice Amount",
  "expression": [
    "VAR MaxDate =",
    "    MAX ( 'Date'[Date] )",
    "RETURN",
    "    CALCULATE (",
    "        [Amount_AP],",
    "        FILTER (",
    "            ADDCOLUMNS (",
    "                FILTER (",
    "                    'VendorInvoice',",
    "                    'VendorInvoice'[VendorInvoicePaidDate] > MaxDate",
    "                        && 'VendorInvoice'[VendorInvoicePostingDate] <= MaxDate",
    "                        && 'VendorInvoice'[VendorInvoiceID] <> 0",
    "                ),",
    "                \"OverdueDays\", IF (",
    "                    'VendorInvoice'[VendorInvoiceDueDate] < MaxDate,",
    "                    DATEDIFF ( 'VendorInvoice'[VendorInvoiceDueDate], MaxDate, DAY ),",
    "                    DATEDIFF ( MaxDate, 'VendorInvoice'[VendorInvoiceDueDate], DAY ) * -1",
    "                )",
    "            ),",
    "            [OverdueDays] >= [DueDaysAgeGroupMinLowerBoundary]",
    "                && [OverdueDays] <= [DueDaysAgeGroupMaxUpperBoundary]",
    "                && [OverdueDays] >= [AgeGroupMinLowerBoundary]",
    "                && [OverdueDays] <= [AgeGroupMaxUpperBoundary]",
    "        ),",
    "        FILTER ( ALL ( 'Date' ), 'Date'[Date] <= MaxDate )",
    "    )"
  ],
  "formatString": "#,##0",
  "displayFolder": "Σ Age Group (by due date)",
  "annotations": [
    {
      "name": "TabularEditor_TranslatedNames",
      "value": "{\"de-DE\":\"Restbetrag Fälligkeitstagen\",\"en-US\":\"AP Balance\",\"nl-NL\":\"Crediteurensaldo\"}"
    },
    {
      "name": "TabularEditor_TranslatedDescriptions",
      "value": "{\"de-DE\":\"Abteilungen > Einkauf > Planung > Kreditoren > Navigate > Posten. Maßnahme zur Analyse des offenen Rechnungsbetrags an Fälligkeitstagen\",\"en-US\":\"Departments/Purchase/Basic Data/Vendors > Ledger Entries > Navigate > Detailed Vendor Ledger Entries > Outstanding Invoice Amount\",\"nl-NL\":\"Afdelingen/Inkoop/Stamgegevens/Leveranciers > Posten > Navigeren > Gedetail. Leverancierspost > Openstaand bedrag\"}"
    },
    {
      "name": "TabularEditor_TranslatedDisplayFolders",
      "value": "{\"de-DE\":\"Σ Altersgruppe (by Fällige Datum)\",\"en-US\":\"Σ Age Group (by due date)\",\"nl-NL\":\"Σ Ouderdomsanalyse (op vervaldatum)\"}"
    }
  ]
}